(module LOGO (layer F.Cu)
  (at 0 0)
 (fp_text reference "G***" (at 0 0) (layer F.SilkS) hide
  (effects (font (thickness 0.3)))
  )
  (fp_text value "LOGO" (at 0.75 0) (layer F.SilkS) hide
  (effects (font (thickness 0.3)))
  )
  (fp_poly (pts (xy -26.246666 51.604334) (xy -26.289000 51.646667) (xy -26.331333 51.604334) (xy -26.289000 51.562000) (xy -26.246666 51.604334) )(layer F.SilkS) (width  0.010000)
  )
  (fp_poly (pts (xy -26.077333 51.096334) (xy -26.119666 51.138667) (xy -26.162000 51.096334) (xy -26.119666 51.054000) (xy -26.077333 51.096334) )(layer F.SilkS) (width  0.010000)
  )
  (fp_poly (pts (xy -25.400000 48.048334) (xy -25.442333 48.090667) (xy -25.484666 48.048334) (xy -25.442333 48.006000) (xy -25.400000 48.048334) )(layer F.SilkS) (width  0.010000)
  )
  (fp_poly (pts (xy -25.230666 47.371000) (xy -25.273000 47.413334) (xy -25.315333 47.371000) (xy -25.273000 47.328667) (xy -25.230666 47.371000) )(layer F.SilkS) (width  0.010000)
  )
  (fp_poly (pts (xy 24.045334 46.101000) (xy 24.003000 46.143334) (xy 23.960667 46.101000) (xy 24.003000 46.058667) (xy 24.045334 46.101000) )(layer F.SilkS) (width  0.010000)
  )
  (fp_poly (pts (xy -11.006666 41.529000) (xy -11.049000 41.571334) (xy -11.091333 41.529000) (xy -11.049000 41.486667) (xy -11.006666 41.529000) )(layer F.SilkS) (width  0.010000)
  )
  (fp_poly (pts (xy 20.997334 40.343667) (xy 20.955000 40.386000) (xy 20.912667 40.343667) (xy 20.955000 40.301334) (xy 20.997334 40.343667) )(layer F.SilkS) (width  0.010000)
  )
  (fp_poly (pts (xy -11.853333 39.751000) (xy -11.895666 39.793334) (xy -11.938000 39.751000) (xy -11.895666 39.708667) (xy -11.853333 39.751000) )(layer F.SilkS) (width  0.010000)
  )
  (fp_poly (pts (xy -12.361333 38.650334) (xy -12.403666 38.692667) (xy -12.446000 38.650334) (xy -12.403666 38.608000) (xy -12.361333 38.650334) )(layer F.SilkS) (width  0.010000)
  )
  (fp_poly (pts (xy -21.674666 37.803667) (xy -21.717000 37.846000) (xy -21.759333 37.803667) (xy -21.717000 37.761334) (xy -21.674666 37.803667) )(layer F.SilkS) (width  0.010000)
  )
  (fp_poly (pts (xy 19.981334 37.719000) (xy 19.939000 37.761334) (xy 19.896667 37.719000) (xy 19.939000 37.676667) (xy 19.981334 37.719000) )(layer F.SilkS) (width  0.010000)
  )
  (fp_poly (pts (xy -13.377333 36.364334) (xy -13.419666 36.406667) (xy -13.462000 36.364334) (xy -13.419666 36.322000) (xy -13.377333 36.364334) )(layer F.SilkS) (width  0.010000)
  )
  (fp_poly (pts (xy 21.166667 35.771667) (xy 21.124334 35.814000) (xy 21.082000 35.771667) (xy 21.124334 35.729334) (xy 21.166667 35.771667) )(layer F.SilkS) (width  0.010000)
  )
  (fp_poly (pts (xy 18.288000 35.179000) (xy 18.245667 35.221334) (xy 18.203334 35.179000) (xy 18.245667 35.136667) (xy 18.288000 35.179000) )(layer F.SilkS) (width  0.010000)
  )
  (fp_poly (pts (xy -21.844000 34.247667) (xy -21.886333 34.290000) (xy -21.928666 34.247667) (xy -21.886333 34.205334) (xy -21.844000 34.247667) )(layer F.SilkS) (width  0.010000)
  )
  (fp_poly (pts (xy -19.473333 33.739667) (xy -19.515666 33.782000) (xy -19.558000 33.739667) (xy -19.515666 33.697334) (xy -19.473333 33.739667) )(layer F.SilkS) (width  0.010000)
  )
  (fp_poly (pts (xy -20.150666 31.453667) (xy -20.193000 31.496000) (xy -20.235333 31.453667) (xy -20.193000 31.411334) (xy -20.150666 31.453667) )(layer F.SilkS) (width  0.010000)
  )
  (fp_poly (pts (xy -20.320000 30.437667) (xy -20.362333 30.480000) (xy -20.404666 30.437667) (xy -20.362333 30.395334) (xy -20.320000 30.437667) )(layer F.SilkS) (width  0.010000)
  )
  (fp_poly (pts (xy 18.711334 21.801667) (xy 18.669000 21.844000) (xy 18.626667 21.801667) (xy 18.669000 21.759334) (xy 18.711334 21.801667) )(layer F.SilkS) (width  0.010000)
  )
  (fp_poly (pts (xy -13.377333 21.717000) (xy -13.419666 21.759334) (xy -13.462000 21.717000) (xy -13.419666 21.674667) (xy -13.377333 21.717000) )(layer F.SilkS) (width  0.010000)
  )
  (fp_poly (pts (xy -13.038666 20.870334) (xy -13.081000 20.912667) (xy -13.123333 20.870334) (xy -13.081000 20.828000) (xy -13.038666 20.870334) )(layer F.SilkS) (width  0.010000)
  )
  (fp_poly (pts (xy -12.361333 19.515667) (xy -12.403666 19.558000) (xy -12.446000 19.515667) (xy -12.403666 19.473334) (xy -12.361333 19.515667) )(layer F.SilkS) (width  0.010000)
  )
  (fp_poly (pts (xy 1.185334 14.012334) (xy 1.143000 14.054667) (xy 1.100667 14.012334) (xy 1.143000 13.970000) (xy 1.185334 14.012334) )(layer F.SilkS) (width  0.010000)
  )
  (fp_poly (pts (xy 4.233334 12.911667) (xy 4.191000 12.954000) (xy 4.148667 12.911667) (xy 4.191000 12.869334) (xy 4.233334 12.911667) )(layer F.SilkS) (width  0.010000)
  )
  (fp_poly (pts (xy -22.860000 10.710334) (xy -22.902333 10.752667) (xy -22.944666 10.710334) (xy -22.902333 10.668000) (xy -22.860000 10.710334) )(layer F.SilkS) (width  0.010000)
  )
  (fp_poly (pts (xy -21.844000 8.678334) (xy -21.886333 8.720667) (xy -21.928666 8.678334) (xy -21.886333 8.636000) (xy -21.844000 8.678334) )(layer F.SilkS) (width  0.010000)
  )
  (fp_poly (pts (xy 22.690667 8.509000) (xy 22.648334 8.551334) (xy 22.606000 8.509000) (xy 22.648334 8.466667) (xy 22.690667 8.509000) )(layer F.SilkS) (width  0.010000)
  )
  (fp_poly (pts (xy -7.958666 7.831667) (xy -8.001000 7.874000) (xy -8.043333 7.831667) (xy -8.001000 7.789334) (xy -7.958666 7.831667) )(layer F.SilkS) (width  0.010000)
  )
  (fp_poly (pts (xy 19.473334 6.561667) (xy 19.431000 6.604000) (xy 19.388667 6.561667) (xy 19.431000 6.519334) (xy 19.473334 6.561667) )(layer F.SilkS) (width  0.010000)
  )
  (fp_poly (pts (xy 19.304000 6.053667) (xy 19.261667 6.096000) (xy 19.219334 6.053667) (xy 19.261667 6.011334) (xy 19.304000 6.053667) )(layer F.SilkS) (width  0.010000)
  )
  (fp_poly (pts (xy 19.134667 5.545667) (xy 19.092334 5.588000) (xy 19.050000 5.545667) (xy 19.092334 5.503334) (xy 19.134667 5.545667) )(layer F.SilkS) (width  0.010000)
  )
  (fp_poly (pts (xy 20.150667 3.175000) (xy 20.108334 3.217334) (xy 20.066000 3.175000) (xy 20.108334 3.132667) (xy 20.150667 3.175000) )(layer F.SilkS) (width  0.010000)
  )
  (fp_poly (pts (xy 6.265334 -9.525000) (xy 6.223000 -9.482666) (xy 6.180667 -9.525000) (xy 6.223000 -9.567333) (xy 6.265334 -9.525000) )(layer F.SilkS) (width  0.010000)
  )
  (fp_poly (pts (xy 6.604000 -10.117666) (xy 6.561667 -10.075333) (xy 6.519334 -10.117666) (xy 6.561667 -10.160000) (xy 6.604000 -10.117666) )(layer F.SilkS) (width  0.010000)
  )
  (fp_poly (pts (xy 2.370667 -10.964333) (xy 2.328334 -10.922000) (xy 2.286000 -10.964333) (xy 2.328334 -11.006666) (xy 2.370667 -10.964333) )(layer F.SilkS) (width  0.010000)
  )
  (fp_poly (pts (xy 7.281334 -11.218333) (xy 7.239000 -11.176000) (xy 7.196667 -11.218333) (xy 7.239000 -11.260666) (xy 7.281334 -11.218333) )(layer F.SilkS) (width  0.010000)
  )
  (fp_poly (pts (xy -15.917333 -11.303000) (xy -15.959666 -11.260666) (xy -16.002000 -11.303000) (xy -15.959666 -11.345333) (xy -15.917333 -11.303000) )(layer F.SilkS) (width  0.010000)
  )
  (fp_poly (pts (xy 11.684000 -13.081000) (xy 11.641667 -13.038666) (xy 11.599334 -13.081000) (xy 11.641667 -13.123333) (xy 11.684000 -13.081000) )(layer F.SilkS) (width  0.010000)
  )
  (fp_poly (pts (xy 10.498667 -15.197666) (xy 10.456334 -15.155333) (xy 10.414000 -15.197666) (xy 10.456334 -15.240000) (xy 10.498667 -15.197666) )(layer F.SilkS) (width  0.010000)
  )
  (fp_poly (pts (xy -18.118666 -16.129000) (xy -18.161000 -16.086666) (xy -18.203333 -16.129000) (xy -18.161000 -16.171333) (xy -18.118666 -16.129000) )(layer F.SilkS) (width  0.010000)
  )
  (fp_poly (pts (xy -16.425333 -19.939000) (xy -16.467666 -19.896666) (xy -16.510000 -19.939000) (xy -16.467666 -19.981333) (xy -16.425333 -19.939000) )(layer F.SilkS) (width  0.010000)
  )
  (fp_poly (pts (xy 6.434667 -25.103666) (xy 6.392334 -25.061333) (xy 6.350000 -25.103666) (xy 6.392334 -25.146000) (xy 6.434667 -25.103666) )(layer F.SilkS) (width  0.010000)
  )
  (fp_poly (pts (xy 13.208000 -26.035000) (xy 13.165667 -25.992666) (xy 13.123334 -26.035000) (xy 13.165667 -26.077333) (xy 13.208000 -26.035000) )(layer F.SilkS) (width  0.010000)
  )
  (fp_poly (pts (xy 5.757334 -26.543000) (xy 5.715000 -26.500666) (xy 5.672667 -26.543000) (xy 5.715000 -26.585333) (xy 5.757334 -26.543000) )(layer F.SilkS) (width  0.010000)
  )
  (fp_poly (pts (xy 5.418667 -27.305000) (xy 5.376334 -27.262666) (xy 5.334000 -27.305000) (xy 5.376334 -27.347333) (xy 5.418667 -27.305000) )(layer F.SilkS) (width  0.010000)
  )
  (fp_poly (pts (xy 5.249334 -27.643666) (xy 5.207000 -27.601333) (xy 5.164667 -27.643666) (xy 5.207000 -27.686000) (xy 5.249334 -27.643666) )(layer F.SilkS) (width  0.010000)
  )
  (fp_poly (pts (xy 15.240000 -29.337000) (xy 15.197667 -29.294666) (xy 15.155334 -29.337000) (xy 15.197667 -29.379333) (xy 15.240000 -29.337000) )(layer F.SilkS) (width  0.010000)
  )
  (fp_poly (pts (xy 3.894667 -29.760333) (xy 3.852334 -29.718000) (xy 3.810000 -29.760333) (xy 3.852334 -29.802666) (xy 3.894667 -29.760333) )(layer F.SilkS) (width  0.010000)
  )
  (fp_poly (pts (xy 15.748000 -30.522333) (xy 15.705667 -30.480000) (xy 15.663334 -30.522333) (xy 15.705667 -30.564666) (xy 15.748000 -30.522333) )(layer F.SilkS) (width  0.010000)
  )
  (fp_poly (pts (xy 3.217334 -30.691666) (xy 3.175000 -30.649333) (xy 3.132667 -30.691666) (xy 3.175000 -30.734000) (xy 3.217334 -30.691666) )(layer F.SilkS) (width  0.010000)
  )
  (fp_poly (pts (xy -27.093333 -34.332333) (xy -27.135666 -34.290000) (xy -27.178000 -34.332333) (xy -27.135666 -34.374666) (xy -27.093333 -34.332333) )(layer F.SilkS) (width  0.010000)
  )
  (fp_poly (pts (xy 18.711334 -34.586333) (xy 18.669000 -34.544000) (xy 18.626667 -34.586333) (xy 18.669000 -34.628666) (xy 18.711334 -34.586333) )(layer F.SilkS) (width  0.010000)
  )
  (fp_poly (pts (xy -20.997333 -39.243000) (xy -21.039666 -39.200666) (xy -21.082000 -39.243000) (xy -21.039666 -39.285333) (xy -20.997333 -39.243000) )(layer F.SilkS) (width  0.010000)
  )
  (fp_poly (pts (xy -21.166666 -39.751000) (xy -21.209000 -39.708666) (xy -21.251333 -39.751000) (xy -21.209000 -39.793333) (xy -21.166666 -39.751000) )(layer F.SilkS) (width  0.010000)
  )
  (fp_poly (pts (xy -21.336000 -40.259000) (xy -21.378333 -40.216666) (xy -21.420666 -40.259000) (xy -21.378333 -40.301333) (xy -21.336000 -40.259000) )(layer F.SilkS) (width  0.010000)
  )
  (fp_poly (pts (xy -21.505333 -40.767000) (xy -21.547666 -40.724666) (xy -21.590000 -40.767000) (xy -21.547666 -40.809333) (xy -21.505333 -40.767000) )(layer F.SilkS) (width  0.010000)
  )
  (fp_poly (pts (xy -21.674666 -41.275000) (xy -21.717000 -41.232666) (xy -21.759333 -41.275000) (xy -21.717000 -41.317333) (xy -21.674666 -41.275000) )(layer F.SilkS) (width  0.010000)
  )
  (fp_poly (pts (xy 14.562667 -41.444333) (xy 14.520334 -41.402000) (xy 14.478000 -41.444333) (xy 14.520334 -41.486666) (xy 14.562667 -41.444333) )(layer F.SilkS) (width  0.010000)
  )
  (fp_poly (pts (xy -21.844000 -41.783000) (xy -21.886333 -41.740666) (xy -21.928666 -41.783000) (xy -21.886333 -41.825333) (xy -21.844000 -41.783000) )(layer F.SilkS) (width  0.010000)
  )
  (fp_poly (pts (xy -22.013333 -42.291000) (xy -22.055666 -42.248666) (xy -22.098000 -42.291000) (xy -22.055666 -42.333333) (xy -22.013333 -42.291000) )(layer F.SilkS) (width  0.010000)
  )
  (fp_poly (pts (xy 16.764000 -42.714333) (xy 16.721667 -42.672000) (xy 16.679334 -42.714333) (xy 16.721667 -42.756666) (xy 16.764000 -42.714333) )(layer F.SilkS) (width  0.010000)
  )
  (fp_poly (pts (xy -22.182666 -42.799000) (xy -22.225000 -42.756666) (xy -22.267333 -42.799000) (xy -22.225000 -42.841333) (xy -22.182666 -42.799000) )(layer F.SilkS) (width  0.010000)
  )
  (fp_poly (pts (xy -22.352000 -43.307000) (xy -22.394333 -43.264666) (xy -22.436666 -43.307000) (xy -22.394333 -43.349333) (xy -22.352000 -43.307000) )(layer F.SilkS) (width  0.010000)
  )
  (fp_poly (pts (xy 15.240000 -43.476333) (xy 15.197667 -43.434000) (xy 15.155334 -43.476333) (xy 15.197667 -43.518666) (xy 15.240000 -43.476333) )(layer F.SilkS) (width  0.010000)
  )
  (fp_poly (pts (xy -22.521333 -43.815000) (xy -22.563666 -43.772666) (xy -22.606000 -43.815000) (xy -22.563666 -43.857333) (xy -22.521333 -43.815000) )(layer F.SilkS) (width  0.010000)
  )
  (fp_poly (pts (xy -22.690666 -44.323000) (xy -22.733000 -44.280666) (xy -22.775333 -44.323000) (xy -22.733000 -44.365333) (xy -22.690666 -44.323000) )(layer F.SilkS) (width  0.010000)
  )
  (fp_poly (pts (xy -22.860000 -44.831000) (xy -22.902333 -44.788666) (xy -22.944666 -44.831000) (xy -22.902333 -44.873333) (xy -22.860000 -44.831000) )(layer F.SilkS) (width  0.010000)
  )
  (fp_poly (pts (xy -23.537333 -46.693666) (xy -23.579666 -46.651333) (xy -23.622000 -46.693666) (xy -23.579666 -46.736000) (xy -23.537333 -46.693666) )(layer F.SilkS) (width  0.010000)
  )
  (fp_poly (pts (xy 16.594667 -47.540333) (xy 16.552334 -47.498000) (xy 16.510000 -47.540333) (xy 16.552334 -47.582666) (xy 16.594667 -47.540333) )(layer F.SilkS) (width  0.010000)
  )
  (fp_poly (pts (xy 18.965334 -47.709666) (xy 18.923000 -47.667333) (xy 18.880667 -47.709666) (xy 18.923000 -47.752000) (xy 18.965334 -47.709666) )(layer F.SilkS) (width  0.010000)
  )
  (fp_poly (pts (xy -24.045333 -47.963666) (xy -24.087666 -47.921333) (xy -24.130000 -47.963666) (xy -24.087666 -48.006000) (xy -24.045333 -47.963666) )(layer F.SilkS) (width  0.010000)
  )
  (fp_poly (pts (xy 21.674667 -52.620333) (xy 21.632334 -52.578000) (xy 21.590000 -52.620333) (xy 21.632334 -52.662666) (xy 21.674667 -52.620333) )(layer F.SilkS) (width  0.010000)
  )
)
