(module 5V_USB_DcDc (layer F.Cu) (tedit 5A30F9D4)
  (fp_text reference USB_DcDc1 (at 0 -5.9) (layer F.SilkS)
    (effects (font (size 1 1) (thickness 0.15)))
  )
  (fp_text value USB_step_down (at 7 -6) (layer F.Fab)
    (effects (font (size 1 1) (thickness 0.15)))
  )
  (fp_text user 12-24V (at -14.6 4.9 90) (layer F.SilkS)
    (effects (font (size 1 1) (thickness 0.15)))
  )
  (fp_text user GND (at -14.7 -5.6 90) (layer F.SilkS)
    (effects (font (size 1 1) (thickness 0.15)))
  )
  (fp_line (start 4 6) (end 13 6) (layer F.SilkS) (width 0.15))
  (fp_line (start 13 -5) (end 4 -5) (layer F.SilkS) (width 0.15))
  (fp_line (start 7 3) (end 7 4) (layer F.SilkS) (width 0.15))
  (fp_line (start 7 4) (end 8 4) (layer F.SilkS) (width 0.15))
  (fp_line (start 8 4) (end 8 3) (layer F.SilkS) (width 0.15))
  (fp_line (start 8 3) (end 7 3) (layer F.SilkS) (width 0.15))
  (fp_line (start 7 -3) (end 7 -2) (layer F.SilkS) (width 0.15))
  (fp_line (start 7 -2) (end 8 -2) (layer F.SilkS) (width 0.15))
  (fp_line (start 8 -2) (end 8 -3) (layer F.SilkS) (width 0.15))
  (fp_line (start 8 -3) (end 7 -3) (layer F.SilkS) (width 0.15))
  (fp_line (start 13 -5) (end 13 6) (layer F.SilkS) (width 0.15))
  (fp_line (start 4 6) (end 4 -5) (layer F.SilkS) (width 0.15))
  (fp_line (start -13.7 7.8) (end 12.7 7.8) (layer F.SilkS) (width 0.15))
  (fp_line (start 12.7 7.8) (end 12.7 -7.2) (layer F.SilkS) (width 0.15))
  (fp_line (start 12.7 -7.2) (end -13.7 -7.2) (layer F.SilkS) (width 0.15))
  (fp_line (start -13.7 -7.2) (end -13.7 7.8) (layer F.SilkS) (width 0.15))
  (pad 1 thru_hole circle (at -12.1 6.2) (size 3 3) (drill 1.1) (layers *.Cu *.Mask))
  (pad 2 thru_hole circle (at -12.1 -5.6) (size 3 3) (drill 1.1) (layers *.Cu *.Mask))
)
