EESchema Schematic File Version 2
LIBS:power
LIBS:device
LIBS:transistors
LIBS:conn
LIBS:linear
LIBS:regul
LIBS:74xx
LIBS:cmos4000
LIBS:adc-dac
LIBS:memory
LIBS:xilinx
LIBS:microcontrollers
LIBS:dsp
LIBS:microchip
LIBS:analog_switches
LIBS:motorola
LIBS:texas
LIBS:intel
LIBS:audio
LIBS:interface
LIBS:digital-audio
LIBS:philips
LIBS:display
LIBS:cypress
LIBS:siliconi
LIBS:opto
LIBS:atmel
LIBS:contrib
LIBS:valves
LIBS:_controlDCDC-cache
EELAYER 25 0
EELAYER END
$Descr A4 11693 8268
encoding utf-8
Sheet 1 1
Title ""
Date ""
Rev ""
Comp ""
Comment1 ""
Comment2 ""
Comment3 ""
Comment4 ""
$EndDescr
$Comp
L TEST TP?
U 1 1 5A01C4A2
P 7050 2250
F 0 "TP?" H 7050 2550 50  0000 C BNN
F 1 "TEST" H 7050 2500 50  0000 C CNN
F 2 "" H 7050 2250 50  0001 C CNN
F 3 "" H 7050 2250 50  0001 C CNN
	1    7050 2250
	1    0    0    -1  
$EndComp
Text Label 7050 2250 0    60   ~ 0
feedbackPin
$Comp
L R R?
U 1 1 5A01C4D6
P 6750 2250
F 0 "R?" V 6830 2250 50  0000 C CNN
F 1 "990R" V 6750 2250 50  0000 C CNN
F 2 "" V 6680 2250 50  0001 C CNN
F 3 "" H 6750 2250 50  0001 C CNN
	1    6750 2250
	0    1    1    0   
$EndComp
$Comp
L LM358 U?
U 1 1 5A01C509
P 6150 2250
F 0 "U?" H 6150 2450 50  0000 L CNN
F 1 "LM358" H 6150 2050 50  0000 L CNN
F 2 "" H 6150 2250 50  0001 C CNN
F 3 "" H 6150 2250 50  0001 C CNN
	1    6150 2250
	1    0    0    -1  
$EndComp
$Comp
L C C?
U 1 1 5A01C5B0
P 5400 2500
F 0 "C?" H 5425 2600 50  0000 L CNN
F 1 "220nF" H 5425 2400 50  0000 L CNN
F 2 "" H 5438 2350 50  0001 C CNN
F 3 "" H 5400 2500 50  0001 C CNN
	1    5400 2500
	1    0    0    -1  
$EndComp
$Comp
L R R?
U 1 1 5A01C5F5
P 5050 2150
F 0 "R?" V 5130 2150 50  0000 C CNN
F 1 "47k" V 5050 2150 50  0000 C CNN
F 2 "" V 4980 2150 50  0001 C CNN
F 3 "" H 5050 2150 50  0001 C CNN
	1    5050 2150
	0    1    1    0   
$EndComp
$Comp
L GND #PWR?
U 1 1 5A01C663
P 5400 2850
F 0 "#PWR?" H 5400 2600 50  0001 C CNN
F 1 "GND" H 5400 2700 50  0000 C CNN
F 2 "" H 5400 2850 50  0001 C CNN
F 3 "" H 5400 2850 50  0001 C CNN
	1    5400 2850
	1    0    0    -1  
$EndComp
Wire Wire Line
	7050 2250 6900 2250
Wire Wire Line
	5850 2350 5800 2350
Wire Wire Line
	5800 2350 5800 2900
Wire Wire Line
	5800 2900 6550 2900
Wire Wire Line
	6550 2900 6550 2250
Wire Wire Line
	6450 2250 6600 2250
Connection ~ 6550 2250
Wire Wire Line
	5200 2150 5850 2150
Wire Wire Line
	5400 2350 5400 2150
Connection ~ 5400 2150
Wire Wire Line
	5400 2650 5400 2850
Wire Wire Line
	4900 2150 4750 2150
Text Label 4750 2150 2    60   ~ 0
PWMPin
Wire Wire Line
	6050 2550 6050 2650
$Comp
L GND #PWR?
U 1 1 5A01CE45
P 6050 2650
F 0 "#PWR?" H 6050 2400 50  0001 C CNN
F 1 "GND" H 6050 2500 50  0000 C CNN
F 2 "" H 6050 2650 50  0001 C CNN
F 3 "" H 6050 2650 50  0001 C CNN
	1    6050 2650
	1    0    0    -1  
$EndComp
Wire Wire Line
	6050 1950 6050 1750
$Comp
L +5V #PWR?
U 1 1 5A01CE7D
P 6050 1750
F 0 "#PWR?" H 6050 1600 50  0001 C CNN
F 1 "+5V" H 6050 1890 50  0000 C CNN
F 2 "" H 6050 1750 50  0001 C CNN
F 3 "" H 6050 1750 50  0001 C CNN
	1    6050 1750
	1    0    0    -1  
$EndComp
$Comp
L CONN_01X01 J?
U 1 1 5A0DA783
P 7250 2250
F 0 "J?" H 7250 2350 50  0000 C CNN
F 1 "CONN_01X01" V 7350 2250 50  0000 C CNN
F 2 "" H 7250 2250 50  0001 C CNN
F 3 "" H 7250 2250 50  0001 C CNN
	1    7250 2250
	1    0    0    -1  
$EndComp
$EndSCHEMATC
