EESchema Schematic File Version 4
LIBS:ant_hardware-cache
EELAYER 26 0
EELAYER END
$Descr A4 11693 8268
encoding utf-8
Sheet 2 3
Title ""
Date ""
Rev ""
Comp ""
Comment1 ""
Comment2 ""
Comment3 ""
Comment4 ""
$EndDescr
Text HLabel 1275 2450 0    79   Input ~ 0
5v
Text HLabel 1300 4000 0    79   Input ~ 0
GND
Text HLabel 8725 2325 2    79   Output ~ 0
12v
Wire Wire Line
	1275 2450 1450 2450
Text Label 1450 2450 2    79   ~ 0
5v
Wire Wire Line
	8725 2325 8475 2325
Text Label 8475 2325 0    79   ~ 0
12v
Wire Wire Line
	1525 4000 1525 4075
Wire Wire Line
	1300 4000 1525 4000
$Comp
L Device:R_Small R26
U 1 1 5B68DFAB
P 5800 3425
F 0 "R26" H 5741 3378 50  0000 R CNN
F 1 "86.6k" H 5741 3471 50  0000 R CNN
F 2 "Resistor_SMD:R_0603_1608Metric" H 5800 3425 50  0001 C CNN
F 3 "" H 5800 3425 50  0000 C CNN
F 4 "-" H 5800 3425 50  0001 C CNN "Characteristics"
F 5 "-" H 5800 3425 50  0001 C CNN "MFR"
F 6 "-" H 5800 3425 50  0001 C CNN "MPN"
F 7 "-" H 5800 3425 50  0001 C CNN "MFR2"
F 8 "-" H 5800 3425 50  0001 C CNN "MPN2"
F 9 "-" H 5800 3425 50  0001 C CNN "Package"
F 10 "-" H 5800 3425 50  0001 C CNN "SRC"
F 11 "-" H 5800 3425 50  0001 C CNN "SCRN"
F 12 "-" H 5800 3425 50  0001 C CNN "SRC2"
F 13 "-" H 5800 3425 50  0001 C CNN "SRC2N"
F 14 "-" H 5800 3425 50  0001 C CNN "Note"
F 15 "-" H 5800 3425 50  0001 C CNN "Used"
	1    5800 3425
	-1   0    0    1   
$EndComp
$Comp
L Device:R_Small R27
U 1 1 5B68E0D7
P 5800 3725
F 0 "R27" H 5741 3678 50  0000 R CNN
F 1 "10K" H 5741 3771 50  0000 R CNN
F 2 "Resistor_SMD:R_0603_1608Metric" H 5800 3725 50  0001 C CNN
F 3 "" H 5800 3725 50  0000 C CNN
F 4 "-" H 5800 3725 50  0001 C CNN "Characteristics"
F 5 "-" H 5800 3725 50  0001 C CNN "MFR"
F 6 "-" H 5800 3725 50  0001 C CNN "MPN"
F 7 "-" H 5800 3725 50  0001 C CNN "MFR2"
F 8 "-" H 5800 3725 50  0001 C CNN "MPN2"
F 9 "-" H 5800 3725 50  0001 C CNN "Package"
F 10 "-" H 5800 3725 50  0001 C CNN "SRC"
F 11 "-" H 5800 3725 50  0001 C CNN "SCRN"
F 12 "-" H 5800 3725 50  0001 C CNN "SRC2"
F 13 "-" H 5800 3725 50  0001 C CNN "SRC2N"
F 14 "-" H 5800 3725 50  0001 C CNN "Note"
F 15 "-" H 5800 3725 50  0001 C CNN "Used"
	1    5800 3725
	-1   0    0    1   
$EndComp
Text Label 3225 3275 2    79   ~ 0
5v
$Comp
L ap3032:AP3012 U9
U 1 1 5BC073AB
P 4500 3425
F 0 "U9" H 4675 3075 60  0000 C CNN
F 1 "AP3012" H 4350 3075 60  0000 C CNN
F 2 "Package_TO_SOT_SMD:SOT-23-5" H 4450 3425 60  0001 C CNN
F 3 "" H 4450 3425 60  0000 C CNN
	1    4500 3425
	-1   0    0    -1  
$EndComp
$Comp
L Device:C_Small C56
U 1 1 5BC0A4F7
P 3400 3525
F 0 "C56" H 3125 3550 50  0000 L CNN
F 1 "4.7uF 10v" H 3000 3475 50  0000 L CNN
F 2 "Capacitor_SMD:C_0603_1608Metric" H 3400 3525 50  0001 C CNN
F 3 "" H 3400 3525 50  0000 C CNN
F 4 "-" H 3400 3525 50  0001 C CNN "Characteristics"
F 5 "-" H 3400 3525 50  0001 C CNN "MFR"
F 6 "-" H 3400 3525 50  0001 C CNN "MPN"
F 7 "-" H 3400 3525 50  0001 C CNN "MFR2"
F 8 "-" H 3400 3525 50  0001 C CNN "MPN2"
F 9 "-" H 3400 3525 50  0001 C CNN "Package"
F 10 "-" H 3400 3525 50  0001 C CNN "SRC"
F 11 "-" H 3400 3525 50  0001 C CNN "SCRN"
F 12 "-" H 3400 3525 50  0001 C CNN "SRC2"
F 13 "-" H 3400 3525 50  0001 C CNN "SRC2N"
F 14 "-" H 3400 3525 50  0001 C CNN "Note"
F 15 "-" H 3400 3525 50  0001 C CNN "Used"
	1    3400 3525
	1    0    0    -1  
$EndComp
Wire Wire Line
	3400 3425 3400 3275
Wire Wire Line
	3400 3625 3400 3825
Wire Wire Line
	5000 3425 5175 3425
Text HLabel 1250 2725 0    79   Input ~ 0
ENABLE
Wire Wire Line
	1250 2725 1750 2725
Text Label 1750 2725 2    79   ~ 0
ENABLE
Wire Wire Line
	4050 3575 3600 3575
Text Label 3600 3575 0    79   ~ 0
ENABLE
Connection ~ 3400 3275
Wire Wire Line
	3400 3275 3225 3275
Wire Wire Line
	4050 3275 3950 3275
$Comp
L Device:L_Small L11
U 1 1 5BC15742
P 4500 2975
F 0 "L11" V 4691 2975 50  0000 C CNN
F 1 "10uH 1A" V 4598 2975 50  0000 C CNN
F 2 "Inductor_SMD:L_Taiyo-Yuden_MD-4040" H 4500 2975 50  0001 C CNN
F 3 "" H 4500 2975 50  0000 C CNN
F 4 "-" H 4500 2975 50  0001 C CNN "Characteristics"
F 5 "-" H 4500 2975 50  0001 C CNN "MFR"
F 6 "-" H 4500 2975 50  0001 C CNN "MPN"
F 7 "-" H 4500 2975 50  0001 C CNN "MFR2"
F 8 "-" H 4500 2975 50  0001 C CNN "MPN2"
F 9 "-" H 4500 2975 50  0001 C CNN "Package"
F 10 "-" H 4500 2975 50  0001 C CNN "SRC"
F 11 "-" H 4500 2975 50  0001 C CNN "SCRN"
F 12 "-" H 4500 2975 50  0001 C CNN "SRC2"
F 13 "-" H 4500 2975 50  0001 C CNN "SRC2N"
F 14 "-" H 4500 2975 50  0001 C CNN "Note"
F 15 "-" H 4500 2975 50  0001 C CNN "Used"
	1    4500 2975
	0    -1   -1   0   
$EndComp
Wire Wire Line
	4400 2975 3950 2975
Wire Wire Line
	3950 2975 3950 3275
Connection ~ 3950 3275
Wire Wire Line
	3950 3275 3400 3275
Wire Wire Line
	5000 3275 5075 3275
Wire Wire Line
	4600 2975 5075 2975
Wire Wire Line
	5075 2975 5075 3275
Connection ~ 5075 3275
$Comp
L Device:D_Schottky_Small D14
U 1 1 5BC19058
P 5450 3275
F 0 "D14" H 5450 3064 50  0000 C CNN
F 1 "SS1150" H 5450 3157 50  0000 C CNN
F 2 "Diode_SMD:D_SMA" V 5450 3275 50  0001 C CNN
F 3 "" V 5450 3275 50  0000 C CNN
F 4 "-" H 5450 3275 50  0001 C CNN "Characteristics"
F 5 "-" H 5450 3275 50  0001 C CNN "MFR"
F 6 "-" H 5450 3275 50  0001 C CNN "MPN"
F 7 "-" H 5450 3275 50  0001 C CNN "MFR2"
F 8 "-" H 5450 3275 50  0001 C CNN "MPN2"
F 9 "-" H 5450 3275 50  0001 C CNN "Package"
F 10 "-" H 5450 3275 50  0001 C CNN "SRC"
F 11 "-" H 5450 3275 50  0001 C CNN "SCRN"
F 12 "-" H 5450 3275 50  0001 C CNN "SRC2"
F 13 "-" H 5450 3275 50  0001 C CNN "SRC2N"
F 14 "-" H 5450 3275 50  0001 C CNN "Note"
F 15 "-" H 5450 3275 50  0001 C CNN "Used"
	1    5450 3275
	-1   0    0    1   
$EndComp
Wire Wire Line
	5075 3275 5350 3275
Wire Wire Line
	5800 3525 5800 3575
Wire Wire Line
	5800 3275 5800 3325
Wire Wire Line
	5550 3275 5800 3275
Wire Wire Line
	5000 3575 5800 3575
Connection ~ 5800 3575
Wire Wire Line
	5800 3575 5800 3625
Wire Wire Line
	5800 3825 5800 3850
$Comp
L Device:C_Small C57
U 1 1 5BC23696
P 6400 3550
F 0 "C57" H 6550 3600 50  0000 L CNN
F 1 "1uF 100v" H 6550 3525 50  0000 L CNN
F 2 "Capacitor_SMD:C_1206_3216Metric" H 6400 3550 50  0001 C CNN
F 3 "" H 6400 3550 50  0000 C CNN
F 4 "-" H 6400 3550 50  0001 C CNN "Characteristics"
F 5 "-" H 6400 3550 50  0001 C CNN "MFR"
F 6 "-" H 6400 3550 50  0001 C CNN "MPN"
F 7 "-" H 6400 3550 50  0001 C CNN "MFR2"
F 8 "-" H 6400 3550 50  0001 C CNN "MPN2"
F 9 "-" H 6400 3550 50  0001 C CNN "Package"
F 10 "-" H 6400 3550 50  0001 C CNN "SRC"
F 11 "-" H 6400 3550 50  0001 C CNN "SCRN"
F 12 "-" H 6400 3550 50  0001 C CNN "SRC2"
F 13 "-" H 6400 3550 50  0001 C CNN "SRC2N"
F 14 "-" H 6400 3550 50  0001 C CNN "Note"
F 15 "-" H 6400 3550 50  0001 C CNN "Used"
	1    6400 3550
	1    0    0    -1  
$EndComp
Wire Wire Line
	5800 3275 6400 3275
Wire Wire Line
	6400 3275 6400 3450
Connection ~ 5800 3275
Wire Wire Line
	6400 3650 6400 3850
Wire Wire Line
	6400 3850 5800 3850
Connection ~ 5800 3850
Wire Wire Line
	5800 3850 5800 3875
Wire Wire Line
	6400 3275 6475 3275
Connection ~ 6400 3275
Text Label 6650 3275 0    79   ~ 0
12v
$Comp
L power:PWR_FLAG #FLG010
U 1 1 60AA690F
P 6475 3200
F 0 "#FLG010" H 6475 3275 50  0001 C CNN
F 1 "PWR_FLAG" H 6475 3378 50  0000 C CNN
F 2 "" H 6475 3200 50  0001 C CNN
F 3 "" H 6475 3200 50  0001 C CNN
	1    6475 3200
	1    0    0    -1  
$EndComp
Wire Wire Line
	6475 3200 6475 3275
Connection ~ 6475 3275
Wire Wire Line
	6475 3275 6650 3275
Text Notes 5925 4425 0    79   ~ 0
Vout = 1.25 * (1 + R1 / R2) \nVout = 1.25 * (1 + 86.6 / 10)\n\n= 12.075
$Comp
L power:GND #PWR042
U 1 1 5AB97600
P 3400 3825
F 0 "#PWR042" H 3400 3575 50  0001 C CNN
F 1 "GND" H 3405 3648 50  0000 C CNN
F 2 "" H 3400 3825 50  0001 C CNN
F 3 "" H 3400 3825 50  0001 C CNN
	1    3400 3825
	1    0    0    -1  
$EndComp
$Comp
L power:GND #PWR044
U 1 1 5AB97644
P 1525 4075
F 0 "#PWR044" H 1525 3825 50  0001 C CNN
F 1 "GND" H 1530 3898 50  0000 C CNN
F 2 "" H 1525 4075 50  0001 C CNN
F 3 "" H 1525 4075 50  0001 C CNN
	1    1525 4075
	1    0    0    -1  
$EndComp
$Comp
L power:GND #PWR043
U 1 1 5AB97C6C
P 5800 3875
F 0 "#PWR043" H 5800 3625 50  0001 C CNN
F 1 "GND" H 5805 3698 50  0000 C CNN
F 2 "" H 5800 3875 50  0001 C CNN
F 3 "" H 5800 3875 50  0001 C CNN
	1    5800 3875
	1    0    0    -1  
$EndComp
$Comp
L power:GND #PWR041
U 1 1 5AB97C85
P 5175 3425
F 0 "#PWR041" H 5175 3175 50  0001 C CNN
F 1 "GND" V 5180 3294 50  0000 R CNN
F 2 "" H 5175 3425 50  0001 C CNN
F 3 "" H 5175 3425 50  0001 C CNN
	1    5175 3425
	0    -1   -1   0   
$EndComp
$EndSCHEMATC
