EESchema Schematic File Version 4
LIBS:ant_hardware-cache
EELAYER 26 0
EELAYER END
$Descr A4 11693 8268
encoding utf-8
Sheet 3 3
Title ""
Date ""
Rev ""
Comp ""
Comment1 ""
Comment2 ""
Comment3 ""
Comment4 ""
$EndDescr
Text HLabel 1025 2775 0    79   Input ~ 0
60v
Text HLabel 1000 3100 0    79   Input ~ 0
12v_AUX
Text HLabel 8025 2850 2    79   Output ~ 0
5v
Text HLabel 8025 3150 2    79   Output ~ 0
GND
Wire Wire Line
	1025 2775 1350 2775
Wire Wire Line
	1000 3100 1325 3100
Wire Wire Line
	8025 2850 7750 2850
Text Label 7750 2850 0    79   ~ 0
5v
Wire Wire Line
	7775 3150 7775 3225
Wire Wire Line
	7775 3150 8025 3150
Text Label 1325 3100 0    79   ~ 0
12v
Text Label 1350 2775 0    79   ~ 0
60v
$Comp
L lm5005:LM5005 U10
U 1 1 5AC02839
P 4375 2425
F 0 "U10" H 4375 3171 60  0000 C CNN
F 1 "LM5005" H 4375 3061 60  0000 C CNN
F 2 "Package_SSOP:HTSSOP-20-1EP_4.4x6.5mm_P0.65mm_ThermalVias" H 3125 1725 60  0001 C CNN
F 3 "" H 3125 1725 60  0001 C CNN
	1    4375 2425
	1    0    0    -1  
$EndComp
NoConn ~ 3825 2375
$Comp
L Device:C_Small C65
U 1 1 5AC0283A
P 3325 2925
F 0 "C65" H 3175 2925 50  0000 C CNN
F 1 "330pF" H 3175 3025 50  0000 C CNN
F 2 "Capacitor_SMD:C_0805_2012Metric" H 3325 2925 50  0001 C CNN
F 3 "" H 3325 2925 50  0000 C CNN
F 4 "-" H 3325 2925 60  0001 C CNN "Characteristics"
F 5 "-" H 3325 2925 60  0001 C CNN "MFR"
F 6 "-" H 3325 2925 60  0001 C CNN "MPN"
F 7 "-" H 3325 2925 60  0001 C CNN "MFR2"
F 8 "-" H 3325 2925 60  0001 C CNN "MPN2"
F 9 "-" H 3325 2925 60  0001 C CNN "Package"
F 10 "-" H 3325 2925 60  0001 C CNN "SRC"
F 11 "-" H 3325 2925 60  0001 C CNN "SCRN"
F 12 "-" H 3325 2925 60  0001 C CNN "SRC2"
F 13 "-" H 3325 2925 60  0001 C CNN "SRC2N"
F 14 "-" H 3325 2925 60  0001 C CNN "Note"
F 15 "-" H 3325 2925 60  0001 C CNN "Used"
	1    3325 2925
	-1   0    0    1   
$EndComp
$Comp
L Device:R_Small R32
U 1 1 587C1697
P 3075 2925
F 0 "R32" H 3225 2875 50  0000 C CNN
F 1 "20.5K" H 3275 2975 50  0000 C CNN
F 2 "Resistor_SMD:R_0603_1608Metric" H 3075 2925 50  0001 C CNN
F 3 "" H 3075 2925 50  0000 C CNN
F 4 "20.5K 1% film resistor" H 3075 2925 60  0001 C CNN "Characteristics"
F 5 "-" H 3075 2925 60  0001 C CNN "MFR"
F 6 "-" H 3075 2925 60  0001 C CNN "MPN"
F 7 "-" H 3075 2925 60  0001 C CNN "MFR2"
F 8 "-" H 3075 2925 60  0001 C CNN "MPN2"
F 9 "-" H 3075 2925 60  0001 C CNN "Package"
F 10 "-" H 3075 2925 60  0001 C CNN "SRC"
F 11 "-" H 3075 2925 60  0001 C CNN "SCRN"
F 12 "-" H 3075 2925 60  0001 C CNN "SRC2"
F 13 "-" H 3075 2925 60  0001 C CNN "SRC2N"
F 14 "-" H 3075 2925 60  0001 C CNN "Note"
F 15 "-" H 3075 2925 60  0001 C CNN "Used"
	1    3075 2925
	-1   0    0    1   
$EndComp
$Comp
L Device:L_Small L12
U 1 1 5AC0283C
P 5975 2175
F 0 "L12" V 6166 2175 50  0000 C CNN
F 1 "33uH" V 6073 2175 50  0000 C CNN
F 2 "SWRB-S:SWRB-S" H 5975 2175 50  0001 C CNN
F 3 "" H 5975 2175 50  0000 C CNN
F 4 "33uH 3A inductor" H 5975 2175 60  0001 C CNN "Characteristics"
F 5 "Sunlord" H 5975 2175 60  0001 C CNN "MFR"
F 6 "SWRB1207S-330MT" H 5975 2175 60  0001 C CNN "MPN"
F 7 "LC" H 5975 2175 60  0001 C CNN "MFR2"
F 8 "SMDRI127-330MT" H 5975 2175 60  0001 C CNN "MPN2"
F 9 "-" H 5975 2175 60  0001 C CNN "Package"
F 10 "-" H 5975 2175 60  0001 C CNN "SRC"
F 11 "-" H 5975 2175 60  0001 C CNN "SCRN"
F 12 "SZLCSC" H 5975 2175 60  0001 C CNN "SRC2"
F 13 "C9400" H 5975 2175 60  0001 C CNN "SRC2N"
F 14 "-" H 5975 2175 60  0001 C CNN "Note"
F 15 "-" H 5975 2175 60  0001 C CNN "Used"
	1    5975 2175
	0    -1   -1   0   
$EndComp
$Comp
L Device:C_Small C62
U 1 1 5AC0283D
P 3325 2475
F 0 "C62" V 3175 2275 50  0000 C CNN
F 1 "4.7nF" V 3275 2275 50  0000 C CNN
F 2 "Capacitor_SMD:C_0603_1608Metric" H 3325 2475 50  0001 C CNN
F 3 "" H 3325 2475 50  0000 C CNN
F 4 "4.7nF 16V X7R ceramic capacitor" H 3325 2475 60  0001 C CNN "Characteristics"
F 5 "-" H 3325 2475 60  0001 C CNN "MFR"
F 6 "-" H 3325 2475 60  0001 C CNN "MPN"
F 7 "-" H 3325 2475 60  0001 C CNN "MFR2"
F 8 "-" H 3325 2475 60  0001 C CNN "MPN2"
F 9 "-" H 3325 2475 60  0001 C CNN "Package"
F 10 "-" H 3325 2475 60  0001 C CNN "SRC"
F 11 "-" H 3325 2475 60  0001 C CNN "SCRN"
F 12 "-" H 3325 2475 60  0001 C CNN "SRC2"
F 13 "-" H 3325 2475 60  0001 C CNN "SRC2N"
F 14 "-" H 3325 2475 60  0001 C CNN "Note"
F 15 "-" H 3325 2475 60  0001 C CNN "Used"
	1    3325 2475
	0    1    1    0   
$EndComp
$Comp
L Device:R_Small R29
U 1 1 5AC0283E
P 3625 2475
F 0 "R29" V 3725 2625 50  0000 C CNN
F 1 "11.3K" V 3725 2425 50  0000 C CNN
F 2 "Resistor_SMD:R_0603_1608Metric" H 3625 2475 50  0001 C CNN
F 3 "" H 3625 2475 50  0000 C CNN
F 4 "11.3K 1% film resistor" H 3625 2475 60  0001 C CNN "Characteristics"
F 5 "-" H 3625 2475 60  0001 C CNN "MFR"
F 6 "-" H 3625 2475 60  0001 C CNN "MPN"
F 7 "-" H 3625 2475 60  0001 C CNN "MFR2"
F 8 "-" H 3625 2475 60  0001 C CNN "MPN2"
F 9 "-" H 3625 2475 60  0001 C CNN "Package"
F 10 "-" H 3625 2475 60  0001 C CNN "SRC"
F 11 "-" H 3625 2475 60  0001 C CNN "SCRN"
F 12 "-" H 3625 2475 60  0001 C CNN "SRC2"
F 13 "-" H 3625 2475 60  0001 C CNN "SRC2N"
F 14 "-" H 3625 2475 60  0001 C CNN "Note"
F 15 "-" H 3625 2475 60  0001 C CNN "Used"
	1    3625 2475
	0    -1   -1   0   
$EndComp
Text Label 6825 2175 0    60   ~ 0
5v
$Comp
L Device:R_Small R30
U 1 1 5AC0283F
P 2525 2675
F 0 "R30" H 2725 2625 50  0000 C CNN
F 1 "1.21K" H 2725 2725 50  0000 C CNN
F 2 "Resistor_SMD:R_0603_1608Metric" H 2525 2675 50  0001 C CNN
F 3 "" H 2525 2675 50  0000 C CNN
F 4 "1000R 1% film resistor" H 2525 2675 60  0001 C CNN "Characteristics"
F 5 "-" H 2525 2675 60  0001 C CNN "MFR"
F 6 "-" H 2525 2675 60  0001 C CNN "MPN"
F 7 "-" H 2525 2675 60  0001 C CNN "MFR2"
F 8 "-" H 2525 2675 60  0001 C CNN "MPN2"
F 9 "-" H 2525 2675 60  0001 C CNN "Package"
F 10 "-" H 2525 2675 60  0001 C CNN "SRC"
F 11 "-" H 2525 2675 60  0001 C CNN "SCRN"
F 12 "-" H 2525 2675 60  0001 C CNN "SRC2"
F 13 "-" H 2525 2675 60  0001 C CNN "SRC2N"
F 14 "-" H 2525 2675 60  0001 C CNN "Note"
F 15 "-" H 2525 2675 60  0001 C CNN "Used"
	1    2525 2675
	-1   0    0    1   
$EndComp
$Comp
L Device:C_Small C63
U 1 1 5AC02840
P 6225 2725
F 0 "C63" V 6325 2625 50  0000 C CNN
F 1 "22uF 10v" V 6325 2975 50  0000 C CNN
F 2 "Capacitor_SMD:C_0805_2012Metric" H 6225 2725 50  0001 C CNN
F 3 "" H 6225 2725 50  0000 C CNN
F 4 "22uF 10v ceramic cap" H 6225 2725 60  0001 C CNN "Characteristics"
F 5 "Samsung" H 6225 2725 60  0001 C CNN "MFR"
F 6 "CL21A226MPQNNNE" H 6225 2725 60  0001 C CNN "MPN"
F 7 "-" H 6225 2725 60  0001 C CNN "MFR2"
F 8 "-" H 6225 2725 60  0001 C CNN "MPN2"
F 9 "-" H 6225 2725 60  0001 C CNN "Package"
F 10 "-" H 6225 2725 60  0001 C CNN "SRC"
F 11 "-" H 6225 2725 60  0001 C CNN "SCRN"
F 12 "-" H 6225 2725 60  0001 C CNN "SRC2"
F 13 "-" H 6225 2725 60  0001 C CNN "SRC2N"
F 14 "-" H 6225 2725 60  0001 C CNN "Note"
F 15 "-" H 6225 2725 60  0001 C CNN "Used"
	1    6225 2725
	-1   0    0    1   
$EndComp
Text Notes 2275 3725 0    60   ~ 0
Charge power supply. Follows the reference design for LM5005
Text Notes 7475 2325 0    60   ~ 0
RT sets freq. 12.1K -> 450Khz\nC BST should be ~22nF, 100V\nC RAMP (pF) should be 10x L (uH): 33uH -> 330pF\nC SS controls soft start. XXX: Use same cap as for BST to lower BOM.\n22nF -> 2.2 ms start time.\nL - Use 33uH \n\n
$Comp
L Device:C_Small C61
U 1 1 5888AC3D
P 5775 2425
F 0 "C61" H 5625 2375 50  0000 C CNN
F 1 "330pF" H 5575 2475 50  0000 C CNN
F 2 "Capacitor_SMD:C_0805_2012Metric" H 5775 2425 50  0001 C CNN
F 3 "" H 5775 2425 50  0000 C CNN
F 4 "-" H 5775 2425 60  0001 C CNN "Characteristics"
F 5 "-" H 5775 2425 60  0001 C CNN "MFR"
F 6 "-" H 5775 2425 60  0001 C CNN "MPN"
F 7 "-" H 5775 2425 60  0001 C CNN "MFR2"
F 8 "-" H 5775 2425 60  0001 C CNN "MPN2"
F 9 "-" H 5775 2425 60  0001 C CNN "Package"
F 10 "-" H 5775 2425 60  0001 C CNN "SRC"
F 11 "-" H 5775 2425 60  0001 C CNN "SCRN"
F 12 "-" H 5775 2425 60  0001 C CNN "SRC2"
F 13 "-" H 5775 2425 60  0001 C CNN "SRC2N"
F 14 "-" H 5775 2425 60  0001 C CNN "Note"
F 15 "-" H 5775 2425 60  0001 C CNN "Used"
	1    5775 2425
	-1   0    0    1   
$EndComp
$Comp
L Device:R_Small R31
U 1 1 5AC02842
P 5775 2725
F 0 "R31" H 5675 2675 50  0000 C CNN
F 1 "10R" H 5625 2775 50  0000 C CNN
F 2 "Resistor_SMD:R_0603_1608Metric" H 5775 2725 50  0001 C CNN
F 3 "" H 5775 2725 50  0000 C CNN
F 4 "10R 5% 1/4W" H 5775 2725 60  0001 C CNN "Characteristics"
F 5 "-" H 5775 2725 60  0001 C CNN "MFR"
F 6 "-" H 5775 2725 60  0001 C CNN "MPN"
F 7 "-" H 5775 2725 60  0001 C CNN "MFR2"
F 8 "-" H 5775 2725 60  0001 C CNN "MPN2"
F 9 "-" H 5775 2725 60  0001 C CNN "Package"
F 10 "-" H 5775 2725 60  0001 C CNN "SRC"
F 11 "-" H 5775 2725 60  0001 C CNN "SCRN"
F 12 "-" H 5775 2725 60  0001 C CNN "SRC2"
F 13 "-" H 5775 2725 60  0001 C CNN "SRC2N"
F 14 "-" H 5775 2725 60  0001 C CNN "Note"
F 15 "-" H 5775 2725 60  0001 C CNN "Used"
	1    5775 2725
	-1   0    0    1   
$EndComp
$Comp
L Device:C_Small C59
U 1 1 58B16EAB
P 3500 1975
F 0 "C59" V 3575 1825 50  0000 C CNN
F 1 "100nF 25v" V 3625 2100 50  0000 C CNN
F 2 "Capacitor_SMD:C_0603_1608Metric" H 3500 1975 50  0001 C CNN
F 3 "" H 3500 1975 50  0000 C CNN
F 4 "-" H 3500 1975 60  0001 C CNN "Characteristics"
F 5 "-" H 3500 1975 60  0001 C CNN "MFR"
F 6 "-" H 3500 1975 60  0001 C CNN "MPN"
F 7 "-" H 3500 1975 60  0001 C CNN "MFR2"
F 8 "-" H 3500 1975 60  0001 C CNN "MPN2"
F 9 "-" H 3500 1975 60  0001 C CNN "Package"
F 10 "-" H 3500 1975 60  0001 C CNN "SRC"
F 11 "-" H 3500 1975 60  0001 C CNN "SCRN"
F 12 "-" H 3500 1975 60  0001 C CNN "SRC2"
F 13 "-" H 3500 1975 60  0001 C CNN "SRC2N"
F 14 "-" H 3500 1975 60  0001 C CNN "Note"
F 15 "-" H 3500 1975 60  0001 C CNN "Used"
	1    3500 1975
	0    1    1    0   
$EndComp
NoConn ~ 3825 2075
$Comp
L sy6280aac:SY6280AAC U11
U 1 1 5AC02844
P 4800 4400
F 0 "U11" H 4800 4756 60  0000 C CNN
F 1 "SY6280AAC" H 4800 4646 60  0000 C CNN
F 2 "Package_TO_SOT_SMD:SOT-23-5" H -4300 -300 60  0001 C CNN
F 3 "" H -4300 -300 60  0001 C CNN
F 4 "-" H 4800 4400 60  0001 C CNN "Characteristics"
F 5 "Silergy" H 4800 4400 60  0001 C CNN "MFR"
F 6 "SY6280AAC" H 4800 4400 60  0001 C CNN "MPN"
F 7 "-" H 4800 4400 60  0001 C CNN "MFR2"
F 8 "-" H 4800 4400 60  0001 C CNN "MPN2"
F 9 "-" H 4800 4400 60  0001 C CNN "Package"
F 10 "szlcsc" H 4800 4400 60  0001 C CNN "SRC"
F 11 "C55136" H 4800 4400 60  0001 C CNN "SCRN"
F 12 "-" H 4800 4400 60  0001 C CNN "SRC2"
F 13 "-" H 4800 4400 60  0001 C CNN "SRC2N"
F 14 "-" H 4800 4400 60  0001 C CNN "Note"
F 15 "-" H 4800 4400 60  0001 C CNN "Used"
	1    4800 4400
	1    0    0    -1  
$EndComp
Text Label 2575 4300 0    60   ~ 0
VBUS
$Comp
L Device:R_Small R33
U 1 1 5AC02845
P 4200 4650
F 0 "R33" H 4259 4697 50  0000 L CNN
F 1 "3.74K" H 4259 4604 50  0000 L CNN
F 2 "Resistor_SMD:R_0603_1608Metric" H 1400 -100 50  0001 C CNN
F 3 "" H 1400 -100 50  0001 C CNN
F 4 "3.4K 1%" H 4200 4650 60  0001 C CNN "Characteristics"
F 5 "-" H 4200 4650 60  0001 C CNN "MFR"
F 6 "-" H 4200 4650 60  0001 C CNN "MPN"
F 7 "-" H 4200 4650 60  0001 C CNN "MFR2"
F 8 "-" H 4200 4650 60  0001 C CNN "MPN2"
F 9 "-" H 4200 4650 60  0001 C CNN "Package"
F 10 "-" H 4200 4650 60  0001 C CNN "SRC"
F 11 "-" H 4200 4650 60  0001 C CNN "SCRN"
F 12 "-" H 4200 4650 60  0001 C CNN "SRC2"
F 13 "-" H 4200 4650 60  0001 C CNN "SRC2N"
F 14 "-" H 4200 4650 60  0001 C CNN "Note"
F 15 "-" H 4200 4650 60  0001 C CNN "Used"
	1    4200 4650
	1    0    0    -1  
$EndComp
Text Label 5900 4500 0    60   ~ 0
USB_EN
$Comp
L Device:C_Small C68
U 1 1 5AC02846
P 3400 4550
F 0 "C68" V 3500 4450 50  0000 C CNN
F 1 "22uF 10v" V 3500 4700 50  0000 C CNN
F 2 "Capacitor_SMD:C_0805_2012Metric" H 3400 4550 50  0001 C CNN
F 3 "" H 3400 4550 50  0000 C CNN
F 4 "22uF 10v ceramic cap" H 3400 4550 60  0001 C CNN "Characteristics"
F 5 "Samsung" H 3400 4550 60  0001 C CNN "MFR"
F 6 "CL21A226MPQNNNE" H 3400 4550 60  0001 C CNN "MPN"
F 7 "-" H 3400 4550 60  0001 C CNN "MFR2"
F 8 "-" H 3400 4550 60  0001 C CNN "MPN2"
F 9 "-" H 3400 4550 60  0001 C CNN "Package"
F 10 "-" H 3400 4550 60  0001 C CNN "SRC"
F 11 "-" H 3400 4550 60  0001 C CNN "SCRN"
F 12 "-" H 3400 4550 60  0001 C CNN "SRC2"
F 13 "-" H 3400 4550 60  0001 C CNN "SRC2N"
F 14 "-" H 3400 4550 60  0001 C CNN "Note"
F 15 "-" H 3400 4550 60  0001 C CNN "Used"
	1    3400 4550
	-1   0    0    1   
$EndComp
Text Label 5550 4300 0    60   ~ 0
5v
Text Label 5325 2775 0    60   ~ 0
5v
Text Label 2525 1975 0    60   ~ 0
5v
Wire Wire Line
	3075 2175 3325 2175
Wire Wire Line
	3325 2175 3825 2175
Wire Wire Line
	3325 2175 3325 2275
Wire Wire Line
	3325 2275 3825 2275
Connection ~ 3325 2175
Wire Wire Line
	4925 2875 5025 2875
Wire Wire Line
	5175 2875 5175 2925
Wire Wire Line
	3825 2775 3325 2775
Wire Wire Line
	3325 2775 3325 2825
Wire Wire Line
	3825 2675 3075 2675
Wire Wire Line
	3075 2675 3075 2825
Wire Wire Line
	3825 2875 3675 2875
Wire Wire Line
	5275 2275 4925 2275
Wire Wire Line
	5275 1975 5275 2075
Wire Wire Line
	5275 2075 5275 2175
Wire Wire Line
	5275 2175 5275 2275
Wire Wire Line
	5275 2075 4925 2075
Wire Wire Line
	4925 2175 5275 2175
Wire Wire Line
	5275 2175 5575 2175
Wire Wire Line
	5575 2175 5775 2175
Wire Wire Line
	5775 2175 5875 2175
Connection ~ 5275 2175
Wire Wire Line
	4975 1975 4925 1975
Wire Wire Line
	5175 1975 5275 1975
Connection ~ 5275 2075
Wire Wire Line
	4925 2375 5075 2375
Wire Wire Line
	5075 2375 5075 2475
Wire Wire Line
	4925 2475 5075 2475
Wire Wire Line
	5075 2475 5175 2475
Connection ~ 5075 2475
Wire Wire Line
	5575 2175 5575 2475
Wire Wire Line
	5575 2475 5475 2475
Connection ~ 5575 2175
Wire Wire Line
	3825 2475 3725 2475
Wire Wire Line
	3525 2475 3425 2475
Wire Wire Line
	2525 2475 3025 2475
Wire Wire Line
	3025 2475 3225 2475
Wire Wire Line
	3825 2575 3025 2575
Wire Wire Line
	3025 2575 3025 2475
Connection ~ 3025 2475
Wire Wire Line
	6075 2175 6225 2175
Wire Wire Line
	3075 3025 3075 3375
Wire Wire Line
	2525 3375 3075 3375
Wire Wire Line
	3075 3375 3325 3375
Wire Wire Line
	3325 3375 3675 3375
Wire Wire Line
	4375 3375 5175 3375
Wire Wire Line
	5175 3375 5575 3375
Wire Wire Line
	5575 3375 5775 3375
Wire Wire Line
	3325 3025 3325 3375
Connection ~ 3325 3375
Wire Wire Line
	5575 2575 5575 2675
Wire Wire Line
	5575 2675 5575 3375
Wire Wire Line
	5575 3375 5575 3475
Wire Wire Line
	5175 3125 5175 3200
Connection ~ 5175 3375
Wire Wire Line
	4925 2575 5575 2575
Connection ~ 5575 3375
Wire Wire Line
	4925 2675 5575 2675
Connection ~ 5575 2675
Wire Wire Line
	4925 2775 5325 2775
Wire Wire Line
	2525 2375 2525 2475
Wire Wire Line
	2525 2475 2525 2575
Connection ~ 2525 2475
Wire Wire Line
	2525 2775 2525 3375
Wire Wire Line
	2525 2175 2525 1975
Connection ~ 6225 2175
Wire Wire Line
	6225 3375 6225 2825
Connection ~ 3075 3375
Wire Notes Line
	2025 1425 10925 1425
Wire Notes Line
	10925 1425 10925 3825
Wire Notes Line
	10925 3825 2025 3825
Wire Notes Line
	2025 3825 2025 1425
Wire Wire Line
	4375 3175 4375 3375
Wire Wire Line
	5775 2325 5775 2175
Connection ~ 5775 2175
Wire Wire Line
	5775 2525 5775 2625
Wire Wire Line
	5775 2825 5775 3375
Connection ~ 5775 3375
Wire Wire Line
	3400 1975 3375 1975
Wire Wire Line
	5200 4300 5550 4300
Wire Wire Line
	4400 4400 3850 4400
Wire Wire Line
	4400 4300 3400 4300
Wire Wire Line
	3400 4300 2575 4300
Wire Wire Line
	4400 4500 4200 4500
Wire Wire Line
	4200 4500 4200 4550
Wire Wire Line
	4200 4750 4200 4800
Wire Wire Line
	5200 4500 5900 4500
Wire Wire Line
	3400 4450 3400 4300
Connection ~ 3400 4300
Wire Wire Line
	3400 4800 3400 4650
Text Notes 4550 4800 0    60   ~ 0
USB power switch. Up to 2A\nwith overcurrent protection
Text Notes 4150 5350 0    60   ~ 0
Rset = 6800 / Imax (A)\nImax = 1.8A\nRset = 6800 / 1.8 = 3777 Ohm = 3.74k 1%
Text Notes 3175 5925 0    60   ~ 0
Cnanelog:\n\nv1.2\n- Swap P1 polarity, was wrong.\n- Change C13 footprint to 0805 to match C6 and reduce BOM.
$Comp
L Device:D_Schottky D15
U 1 1 65F9B8F4
P 5325 2475
F 0 "D15" H 5550 2550 50  0000 C CNN
F 1 "SB10100L" H 5225 2550 50  0000 C CNN
F 2 "TO-277:TO-277A" H 5325 2475 50  0001 C CNN
F 3 "" H 5325 2475 50  0001 C CNN
F 4 "-" H 5325 2475 50  0001 C CNN "Characteristics"
F 5 "-" H 5325 2475 50  0001 C CNN "MFR"
F 6 "-" H 5325 2475 50  0001 C CNN "MPN"
F 7 "-" H 5325 2475 50  0001 C CNN "MFR2"
F 8 "-" H 5325 2475 50  0001 C CNN "MPN2"
F 9 "-" H 5325 2475 50  0001 C CNN "Package"
F 10 "-" H 5325 2475 50  0001 C CNN "SRC"
F 11 "-" H 5325 2475 50  0001 C CNN "SCRN"
F 12 "-" H 5325 2475 50  0001 C CNN "SRC2"
F 13 "-" H 5325 2475 50  0001 C CNN "SRC2N"
F 14 "-" H 5325 2475 50  0001 C CNN "Note"
F 15 "-" H 5325 2475 50  0001 C CNN "Used"
	1    5325 2475
	-1   0    0    1   
$EndComp
Text Label 3675 1975 0    79   ~ 0
12v
Wire Wire Line
	6225 2175 6600 2175
$Comp
L Device:CP_Small C64
U 1 1 65FFC78E
P 6525 2725
F 0 "C64" H 6616 2772 50  0000 L CNN
F 1 "150uF 6.3v" H 6616 2679 50  0000 L CNN
F 2 "Capacitor_SMD:CP_Elec_5x5.3" H 6525 2725 50  0001 C CNN
F 3 "" H 6525 2725 50  0000 C CNN
F 4 "-" H 6525 2725 50  0001 C CNN "Characteristics"
F 5 "-" H 6525 2725 50  0001 C CNN "MFR"
F 6 "-" H 6525 2725 50  0001 C CNN "MPN"
F 7 "-" H 6525 2725 50  0001 C CNN "MFR2"
F 8 "-" H 6525 2725 50  0001 C CNN "MPN2"
F 9 "-" H 6525 2725 50  0001 C CNN "Package"
F 10 "-" H 6525 2725 50  0001 C CNN "SRC"
F 11 "-" H 6525 2725 50  0001 C CNN "SCRN"
F 12 "-" H 6525 2725 50  0001 C CNN "SRC2"
F 13 "-" H 6525 2725 50  0001 C CNN "SRC2N"
F 14 "-" H 6525 2725 50  0001 C CNN "Note"
F 15 "-" H 6525 2725 50  0001 C CNN "Used"
	1    6525 2725
	1    0    0    -1  
$EndComp
Wire Wire Line
	6525 2625 6525 2375
Wire Wire Line
	6525 2375 6225 2375
Wire Wire Line
	6525 2825 6525 3375
Wire Wire Line
	5775 3375 6225 3375
Wire Wire Line
	6225 3375 6525 3375
$Comp
L Device:C_Small C58
U 1 1 6603859B
P 3500 1775
F 0 "C58" V 3625 1525 50  0000 C CNN
F 1 "100nF 25v" V 3625 1875 50  0000 C CNN
F 2 "Capacitor_SMD:C_0603_1608Metric" H 3500 1775 50  0001 C CNN
F 3 "" H 3500 1775 50  0000 C CNN
F 4 "-" H 3500 1775 60  0001 C CNN "Characteristics"
F 5 "-" H 3500 1775 60  0001 C CNN "MFR"
F 6 "-" H 3500 1775 60  0001 C CNN "MPN"
F 7 "-" H 3500 1775 60  0001 C CNN "MFR2"
F 8 "-" H 3500 1775 60  0001 C CNN "MPN2"
F 9 "-" H 3500 1775 60  0001 C CNN "Package"
F 10 "-" H 3500 1775 60  0001 C CNN "SRC"
F 11 "-" H 3500 1775 60  0001 C CNN "SCRN"
F 12 "-" H 3500 1775 60  0001 C CNN "SRC2"
F 13 "-" H 3500 1775 60  0001 C CNN "SRC2N"
F 14 "-" H 3500 1775 60  0001 C CNN "Note"
F 15 "-" H 3500 1775 60  0001 C CNN "Used"
	1    3500 1775
	0    1    -1   0   
$EndComp
Wire Wire Line
	3375 1775 3400 1775
Wire Wire Line
	3375 1775 3375 1975
Connection ~ 3375 1975
Wire Wire Line
	3375 1975 3350 1975
Wire Wire Line
	3600 1775 3650 1775
Wire Wire Line
	3650 1775 3650 1975
Wire Wire Line
	3650 1975 3825 1975
Wire Wire Line
	3650 1975 3600 1975
Connection ~ 3650 1975
$Comp
L Device:C_Small C60
U 1 1 6605EB12
P 5075 1975
F 0 "C60" V 5175 1900 50  0000 C CNN
F 1 "100nF 25v" V 5175 2100 50  0000 C CNN
F 2 "Capacitor_SMD:C_0603_1608Metric" H 5075 1975 50  0001 C CNN
F 3 "" H 5075 1975 50  0000 C CNN
F 4 "-" H 5075 1975 60  0001 C CNN "Characteristics"
F 5 "-" H 5075 1975 60  0001 C CNN "MFR"
F 6 "-" H 5075 1975 60  0001 C CNN "MPN"
F 7 "-" H 5075 1975 60  0001 C CNN "MFR2"
F 8 "-" H 5075 1975 60  0001 C CNN "MPN2"
F 9 "-" H 5075 1975 60  0001 C CNN "Package"
F 10 "-" H 5075 1975 60  0001 C CNN "SRC"
F 11 "-" H 5075 1975 60  0001 C CNN "SCRN"
F 12 "-" H 5075 1975 60  0001 C CNN "SRC2"
F 13 "-" H 5075 1975 60  0001 C CNN "SRC2N"
F 14 "-" H 5075 1975 60  0001 C CNN "Note"
F 15 "-" H 5075 1975 60  0001 C CNN "Used"
	1    5075 1975
	0    1    -1   0   
$EndComp
$Comp
L Device:C_Small C67
U 1 1 660603A0
P 5175 3025
F 0 "C67" V 5050 3125 50  0000 C CNN
F 1 "4.7nF" V 4975 3100 50  0000 C CNN
F 2 "Capacitor_SMD:C_0603_1608Metric" H 5175 3025 50  0001 C CNN
F 3 "" H 5175 3025 50  0000 C CNN
F 4 "4.7nF 16V X7R ceramic capacitor" H 5175 3025 60  0001 C CNN "Characteristics"
F 5 "-" H 5175 3025 60  0001 C CNN "MFR"
F 6 "-" H 5175 3025 60  0001 C CNN "MPN"
F 7 "-" H 5175 3025 60  0001 C CNN "MFR2"
F 8 "-" H 5175 3025 60  0001 C CNN "MPN2"
F 9 "-" H 5175 3025 60  0001 C CNN "Package"
F 10 "-" H 5175 3025 60  0001 C CNN "SRC"
F 11 "-" H 5175 3025 60  0001 C CNN "SCRN"
F 12 "-" H 5175 3025 60  0001 C CNN "SRC2"
F 13 "-" H 5175 3025 60  0001 C CNN "SRC2N"
F 14 "-" H 5175 3025 60  0001 C CNN "Note"
F 15 "-" H 5175 3025 60  0001 C CNN "Used"
	1    5175 3025
	-1   0    0    1   
$EndComp
$Comp
L Device:C_Small C66
U 1 1 660605DC
P 5025 3025
F 0 "C66" V 5250 3125 50  0000 C CNN
F 1 "4.7nF" V 5150 3100 50  0000 C CNN
F 2 "Capacitor_SMD:C_0603_1608Metric" H 5025 3025 50  0001 C CNN
F 3 "" H 5025 3025 50  0000 C CNN
F 4 "4.7nF 16V X7R ceramic capacitor" H 5025 3025 60  0001 C CNN "Characteristics"
F 5 "-" H 5025 3025 60  0001 C CNN "MFR"
F 6 "-" H 5025 3025 60  0001 C CNN "MPN"
F 7 "-" H 5025 3025 60  0001 C CNN "MFR2"
F 8 "-" H 5025 3025 60  0001 C CNN "MPN2"
F 9 "-" H 5025 3025 60  0001 C CNN "Package"
F 10 "-" H 5025 3025 60  0001 C CNN "SRC"
F 11 "-" H 5025 3025 60  0001 C CNN "SCRN"
F 12 "-" H 5025 3025 60  0001 C CNN "SRC2"
F 13 "-" H 5025 3025 60  0001 C CNN "SRC2N"
F 14 "-" H 5025 3025 60  0001 C CNN "Note"
F 15 "-" H 5025 3025 60  0001 C CNN "Used"
	1    5025 3025
	-1   0    0    1   
$EndComp
Wire Wire Line
	5025 2925 5025 2875
Connection ~ 5025 2875
Wire Wire Line
	5025 2875 5175 2875
Wire Wire Line
	5025 3125 5025 3200
Wire Wire Line
	5025 3200 5175 3200
Connection ~ 5175 3200
Wire Wire Line
	5175 3200 5175 3375
$Comp
L Device:R_Small R28
U 1 1 66075F31
P 2525 2275
F 0 "R28" H 2584 2322 50  0000 L CNN
F 1 "3.74K" H 2584 2229 50  0000 L CNN
F 2 "Resistor_SMD:R_0603_1608Metric" H -275 -2475 50  0001 C CNN
F 3 "" H -275 -2475 50  0001 C CNN
F 4 "3.4K 1%" H 2525 2275 60  0001 C CNN "Characteristics"
F 5 "-" H 2525 2275 60  0001 C CNN "MFR"
F 6 "-" H 2525 2275 60  0001 C CNN "MPN"
F 7 "-" H 2525 2275 60  0001 C CNN "MFR2"
F 8 "-" H 2525 2275 60  0001 C CNN "MPN2"
F 9 "-" H 2525 2275 60  0001 C CNN "Package"
F 10 "-" H 2525 2275 60  0001 C CNN "SRC"
F 11 "-" H 2525 2275 60  0001 C CNN "SCRN"
F 12 "-" H 2525 2275 60  0001 C CNN "SRC2"
F 13 "-" H 2525 2275 60  0001 C CNN "SRC2N"
F 14 "-" H 2525 2275 60  0001 C CNN "Note"
F 15 "-" H 2525 2275 60  0001 C CNN "Used"
	1    2525 2275
	1    0    0    -1  
$EndComp
Connection ~ 6225 3375
Connection ~ 6225 2375
Wire Wire Line
	6225 2375 6225 2625
Wire Wire Line
	6225 2175 6225 2375
Text HLabel 8025 2600 2    79   Output ~ 0
USB_VBUS
Wire Wire Line
	8025 2600 7575 2600
Text Label 7575 2600 0    60   ~ 0
VBUS
Wire Wire Line
	950  3400 1325 3400
Text Label 1325 3400 0    60   ~ 0
USB_EN
Text HLabel 950  3400 0    79   Input ~ 0
USB_EN
$Comp
L power:PWR_FLAG #FLG011
U 1 1 66BDB5A0
P 6600 2100
F 0 "#FLG011" H 6600 2175 50  0001 C CNN
F 1 "PWR_FLAG" H 6600 2278 50  0000 C CNN
F 2 "" H 6600 2100 50  0001 C CNN
F 3 "" H 6600 2100 50  0001 C CNN
	1    6600 2100
	1    0    0    -1  
$EndComp
Wire Wire Line
	6600 2100 6600 2175
Connection ~ 6600 2175
Wire Wire Line
	6600 2175 6825 2175
Text Label 3075 2175 0    79   ~ 0
60v
$Comp
L power:GND #PWR049
U 1 1 5ABFA5AF
P 3400 4800
F 0 "#PWR049" H 3400 4550 50  0001 C CNN
F 1 "GND" H 3405 4623 50  0000 C CNN
F 2 "" H 3400 4800 50  0001 C CNN
F 3 "" H 3400 4800 50  0001 C CNN
	1    3400 4800
	1    0    0    -1  
$EndComp
$Comp
L power:GND #PWR050
U 1 1 5ABFA5E4
P 4200 4800
F 0 "#PWR050" H 4200 4550 50  0001 C CNN
F 1 "GND" H 4205 4623 50  0000 C CNN
F 2 "" H 4200 4800 50  0001 C CNN
F 3 "" H 4200 4800 50  0001 C CNN
	1    4200 4800
	1    0    0    -1  
$EndComp
$Comp
L power:GND #PWR045
U 1 1 5ABFA619
P 3350 1975
F 0 "#PWR045" H 3350 1725 50  0001 C CNN
F 1 "GND" V 3355 1844 50  0000 R CNN
F 2 "" H 3350 1975 50  0001 C CNN
F 3 "" H 3350 1975 50  0001 C CNN
	1    3350 1975
	0    1    1    0   
$EndComp
$Comp
L power:GND #PWR047
U 1 1 5ABFAA3E
P 5575 3475
F 0 "#PWR047" H 5575 3225 50  0001 C CNN
F 1 "GND" H 5580 3298 50  0000 C CNN
F 2 "" H 5575 3475 50  0001 C CNN
F 3 "" H 5575 3475 50  0001 C CNN
	1    5575 3475
	1    0    0    -1  
$EndComp
$Comp
L power:GND #PWR046
U 1 1 5ABFAF5F
P 7775 3225
F 0 "#PWR046" H 7775 2975 50  0001 C CNN
F 1 "GND" H 7780 3048 50  0000 C CNN
F 2 "" H 7775 3225 50  0001 C CNN
F 3 "" H 7775 3225 50  0001 C CNN
	1    7775 3225
	1    0    0    -1  
$EndComp
$Comp
L power:GND #PWR048
U 1 1 5ABFB86E
P 3850 4400
F 0 "#PWR048" H 3850 4150 50  0001 C CNN
F 1 "GND" V 3855 4269 50  0000 R CNN
F 2 "" H 3850 4400 50  0001 C CNN
F 3 "" H 3850 4400 50  0001 C CNN
	1    3850 4400
	0    1    1    0   
$EndComp
Wire Wire Line
	3675 2875 3675 3375
$EndSCHEMATC
