(module LOGO (layer F.Cu)
  (at 0 0)
 (fp_text reference "G***" (at 0 0) (layer F.SilkS) hide
  (effects (font (thickness 0.3)))
  )
  (fp_text value "LOGO" (at 0.75 0) (layer F.SilkS) hide
  (effects (font (thickness 0.3)))
  )
  (fp_poly (pts (xy -28.871333 54.059667) (xy -28.913666 54.102000) (xy -28.956000 54.059667) (xy -28.913666 54.017334) (xy -28.871333 54.059667) )(layer F.SilkS) (width  0.010000)
  )
  (fp_poly (pts (xy -28.278666 52.535667) (xy -28.321000 52.578000) (xy -28.363333 52.535667) (xy -28.321000 52.493334) (xy -28.278666 52.535667) )(layer F.SilkS) (width  0.010000)
  )
  (fp_poly (pts (xy -26.246666 51.604334) (xy -26.289000 51.646667) (xy -26.331333 51.604334) (xy -26.289000 51.562000) (xy -26.246666 51.604334) )(layer F.SilkS) (width  0.010000)
  )
  (fp_poly (pts (xy -28.024666 51.350334) (xy -28.067000 51.392667) (xy -28.109333 51.350334) (xy -28.067000 51.308000) (xy -28.024666 51.350334) )(layer F.SilkS) (width  0.010000)
  )
  (fp_poly (pts (xy -26.077333 51.096334) (xy -26.119666 51.138667) (xy -26.162000 51.096334) (xy -26.119666 51.054000) (xy -26.077333 51.096334) )(layer F.SilkS) (width  0.010000)
  )
  (fp_poly (pts (xy 26.077334 51.096334) (xy 26.035000 51.138667) (xy 25.992667 51.096334) (xy 26.035000 51.054000) (xy 26.077334 51.096334) )(layer F.SilkS) (width  0.010000)
  )
  (fp_poly (pts (xy 27.855334 50.927000) (xy 27.813000 50.969334) (xy 27.770667 50.927000) (xy 27.813000 50.884667) (xy 27.855334 50.927000) )(layer F.SilkS) (width  0.010000)
  )
  (fp_poly (pts (xy -25.908000 50.503667) (xy -25.950333 50.546000) (xy -25.992666 50.503667) (xy -25.950333 50.461334) (xy -25.908000 50.503667) )(layer F.SilkS) (width  0.010000)
  )
  (fp_poly (pts (xy 26.135437 50.346690) (xy 26.119667 50.376667) (xy 26.039893 50.457524) (xy 26.025007 50.461334) (xy 26.019230 50.406643) (xy 26.035000 50.376667) (xy 26.114774 50.295810) (xy 26.129660 50.292000)
     (xy 26.135437 50.346690) )(layer F.SilkS) (width  0.010000)
  )
  (fp_poly (pts (xy 0.931334 49.572334) (xy 0.889000 49.614667) (xy 0.846667 49.572334) (xy 0.889000 49.530000) (xy 0.931334 49.572334) )(layer F.SilkS) (width  0.010000)
  )
  (fp_poly (pts (xy 27.601334 49.318334) (xy 27.559000 49.360667) (xy 27.516667 49.318334) (xy 27.559000 49.276000) (xy 27.601334 49.318334) )(layer F.SilkS) (width  0.010000)
  )
  (fp_poly (pts (xy 25.738667 49.149000) (xy 25.696334 49.191334) (xy 25.654000 49.149000) (xy 25.696334 49.106667) (xy 25.738667 49.149000) )(layer F.SilkS) (width  0.010000)
  )
  (fp_poly (pts (xy 27.432000 49.149000) (xy 27.389667 49.191334) (xy 27.347334 49.149000) (xy 27.389667 49.106667) (xy 27.432000 49.149000) )(layer F.SilkS) (width  0.010000)
  )
  (fp_poly (pts (xy 25.654000 48.979667) (xy 25.611667 49.022000) (xy 25.569334 48.979667) (xy 25.611667 48.937334) (xy 25.654000 48.979667) )(layer F.SilkS) (width  0.010000)
  )
  (fp_poly (pts (xy -25.569333 48.895000) (xy -25.611666 48.937334) (xy -25.654000 48.895000) (xy -25.611666 48.852667) (xy -25.569333 48.895000) )(layer F.SilkS) (width  0.010000)
  )
  (fp_poly (pts (xy -27.178000 48.387000) (xy -27.220333 48.429334) (xy -27.262666 48.387000) (xy -27.220333 48.344667) (xy -27.178000 48.387000) )(layer F.SilkS) (width  0.010000)
  )
  (fp_poly (pts (xy -25.428222 48.034222) (xy -25.418089 48.134702) (xy -25.428222 48.147111) (xy -25.478556 48.135489) (xy -25.484666 48.090667) (xy -25.453688 48.020977) (xy -25.428222 48.034222) )(layer F.SilkS) (width  0.010000)
  )
  (fp_poly (pts (xy 27.093334 48.048334) (xy 27.051000 48.090667) (xy 27.008667 48.048334) (xy 27.051000 48.006000) (xy 27.093334 48.048334) )(layer F.SilkS) (width  0.010000)
  )
  (fp_poly (pts (xy -25.230666 47.371000) (xy -25.273000 47.413334) (xy -25.315333 47.371000) (xy -25.273000 47.328667) (xy -25.230666 47.371000) )(layer F.SilkS) (width  0.010000)
  )
  (fp_poly (pts (xy -24.976666 46.355000) (xy -25.019000 46.397334) (xy -25.061333 46.355000) (xy -25.019000 46.312667) (xy -24.976666 46.355000) )(layer F.SilkS) (width  0.010000)
  )
  (fp_poly (pts (xy 24.299334 46.355000) (xy 24.257000 46.397334) (xy 24.214667 46.355000) (xy 24.257000 46.312667) (xy 24.299334 46.355000) )(layer F.SilkS) (width  0.010000)
  )
  (fp_poly (pts (xy 24.045334 46.101000) (xy 24.003000 46.143334) (xy 23.960667 46.101000) (xy 24.003000 46.058667) (xy 24.045334 46.101000) )(layer F.SilkS) (width  0.010000)
  )
  (fp_poly (pts (xy 4.656667 45.677667) (xy 4.614334 45.720000) (xy 4.572000 45.677667) (xy 4.614334 45.635334) (xy 4.656667 45.677667) )(layer F.SilkS) (width  0.010000)
  )
  (fp_poly (pts (xy -23.537333 43.984334) (xy -23.579666 44.026667) (xy -23.622000 43.984334) (xy -23.579666 43.942000) (xy -23.537333 43.984334) )(layer F.SilkS) (width  0.010000)
  )
  (fp_poly (pts (xy -24.722666 43.730334) (xy -24.765000 43.772667) (xy -24.807333 43.730334) (xy -24.765000 43.688000) (xy -24.722666 43.730334) )(layer F.SilkS) (width  0.010000)
  )
  (fp_poly (pts (xy -9.567333 43.476334) (xy -9.609666 43.518667) (xy -9.652000 43.476334) (xy -9.609666 43.434000) (xy -9.567333 43.476334) )(layer F.SilkS) (width  0.010000)
  )
  (fp_poly (pts (xy 24.976667 43.476334) (xy 24.934334 43.518667) (xy 24.892000 43.476334) (xy 24.934334 43.434000) (xy 24.976667 43.476334) )(layer F.SilkS) (width  0.010000)
  )
  (fp_poly (pts (xy 25.061334 43.307000) (xy 25.019000 43.349334) (xy 24.976667 43.307000) (xy 25.019000 43.264667) (xy 25.061334 43.307000) )(layer F.SilkS) (width  0.010000)
  )
  (fp_poly (pts (xy -9.821333 43.137667) (xy -9.863666 43.180000) (xy -9.906000 43.137667) (xy -9.863666 43.095334) (xy -9.821333 43.137667) )(layer F.SilkS) (width  0.010000)
  )
  (fp_poly (pts (xy 7.112000 42.375667) (xy 7.069667 42.418000) (xy 7.027334 42.375667) (xy 7.069667 42.333334) (xy 7.112000 42.375667) )(layer F.SilkS) (width  0.010000)
  )
  (fp_poly (pts (xy -10.583333 42.037000) (xy -10.625666 42.079334) (xy -10.668000 42.037000) (xy -10.625666 41.994667) (xy -10.583333 42.037000) )(layer F.SilkS) (width  0.010000)
  )
  (fp_poly (pts (xy -24.468666 41.698334) (xy -24.511000 41.740667) (xy -24.553333 41.698334) (xy -24.511000 41.656000) (xy -24.468666 41.698334) )(layer F.SilkS) (width  0.010000)
  )
  (fp_poly (pts (xy -10.837333 41.613667) (xy -10.879666 41.656000) (xy -10.922000 41.613667) (xy -10.879666 41.571334) (xy -10.837333 41.613667) )(layer F.SilkS) (width  0.010000)
  )
  (fp_poly (pts (xy -11.006666 41.529000) (xy -11.049000 41.571334) (xy -11.091333 41.529000) (xy -11.049000 41.486667) (xy -11.006666 41.529000) )(layer F.SilkS) (width  0.010000)
  )
  (fp_poly (pts (xy -24.214666 41.359667) (xy -24.257000 41.402000) (xy -24.299333 41.359667) (xy -24.257000 41.317334) (xy -24.214666 41.359667) )(layer F.SilkS) (width  0.010000)
  )
  (fp_poly (pts (xy -23.791333 40.851667) (xy -23.833666 40.894000) (xy -23.876000 40.851667) (xy -23.833666 40.809334) (xy -23.791333 40.851667) )(layer F.SilkS) (width  0.010000)
  )
  (fp_poly (pts (xy 7.958667 40.851667) (xy 7.916334 40.894000) (xy 7.874000 40.851667) (xy 7.916334 40.809334) (xy 7.958667 40.851667) )(layer F.SilkS) (width  0.010000)
  )
  (fp_poly (pts (xy 20.997334 40.343667) (xy 20.955000 40.386000) (xy 20.912667 40.343667) (xy 20.955000 40.301334) (xy 20.997334 40.343667) )(layer F.SilkS) (width  0.010000)
  )
  (fp_poly (pts (xy 20.997334 40.089667) (xy 20.955000 40.132000) (xy 20.912667 40.089667) (xy 20.955000 40.047334) (xy 20.997334 40.089667) )(layer F.SilkS) (width  0.010000)
  )
  (fp_poly (pts (xy -20.574000 39.920334) (xy -20.616333 39.962667) (xy -20.658666 39.920334) (xy -20.616333 39.878000) (xy -20.574000 39.920334) )(layer F.SilkS) (width  0.010000)
  )
  (fp_poly (pts (xy 20.912667 39.920334) (xy 20.870334 39.962667) (xy 20.828000 39.920334) (xy 20.870334 39.878000) (xy 20.912667 39.920334) )(layer F.SilkS) (width  0.010000)
  )
  (fp_poly (pts (xy -11.853333 39.751000) (xy -11.895666 39.793334) (xy -11.938000 39.751000) (xy -11.895666 39.708667) (xy -11.853333 39.751000) )(layer F.SilkS) (width  0.010000)
  )
  (fp_poly (pts (xy -11.853333 39.497000) (xy -11.895666 39.539334) (xy -11.938000 39.497000) (xy -11.895666 39.454667) (xy -11.853333 39.497000) )(layer F.SilkS) (width  0.010000)
  )
  (fp_poly (pts (xy 8.890000 39.327667) (xy 8.847667 39.370000) (xy 8.805334 39.327667) (xy 8.847667 39.285334) (xy 8.890000 39.327667) )(layer F.SilkS) (width  0.010000)
  )
  (fp_poly (pts (xy -19.727333 38.819667) (xy -19.769666 38.862000) (xy -19.812000 38.819667) (xy -19.769666 38.777334) (xy -19.727333 38.819667) )(layer F.SilkS) (width  0.010000)
  )
  (fp_poly (pts (xy 22.436667 38.819667) (xy 22.394334 38.862000) (xy 22.352000 38.819667) (xy 22.394334 38.777334) (xy 22.436667 38.819667) )(layer F.SilkS) (width  0.010000)
  )
  (fp_poly (pts (xy -12.361333 38.650334) (xy -12.403666 38.692667) (xy -12.446000 38.650334) (xy -12.403666 38.608000) (xy -12.361333 38.650334) )(layer F.SilkS) (width  0.010000)
  )
  (fp_poly (pts (xy -21.844000 38.481000) (xy -21.886333 38.523334) (xy -21.928666 38.481000) (xy -21.886333 38.438667) (xy -21.844000 38.481000) )(layer F.SilkS) (width  0.010000)
  )
  (fp_poly (pts (xy -21.674666 37.803667) (xy -21.717000 37.846000) (xy -21.759333 37.803667) (xy -21.717000 37.761334) (xy -21.674666 37.803667) )(layer F.SilkS) (width  0.010000)
  )
  (fp_poly (pts (xy -19.134666 37.719000) (xy -19.177000 37.761334) (xy -19.219333 37.719000) (xy -19.177000 37.676667) (xy -19.134666 37.719000) )(layer F.SilkS) (width  0.010000)
  )
  (fp_poly (pts (xy 19.981334 37.719000) (xy 19.939000 37.761334) (xy 19.896667 37.719000) (xy 19.939000 37.676667) (xy 19.981334 37.719000) )(layer F.SilkS) (width  0.010000)
  )
  (fp_poly (pts (xy 19.812000 37.295667) (xy 19.769667 37.338000) (xy 19.727334 37.295667) (xy 19.769667 37.253334) (xy 19.812000 37.295667) )(layer F.SilkS) (width  0.010000)
  )
  (fp_poly (pts (xy 10.160000 37.126334) (xy 10.117667 37.168667) (xy 10.075334 37.126334) (xy 10.117667 37.084000) (xy 10.160000 37.126334) )(layer F.SilkS) (width  0.010000)
  )
  (fp_poly (pts (xy 19.727334 36.957000) (xy 19.685000 36.999334) (xy 19.642667 36.957000) (xy 19.685000 36.914667) (xy 19.727334 36.957000) )(layer F.SilkS) (width  0.010000)
  )
  (fp_poly (pts (xy -18.992163 36.729459) (xy -18.982069 36.861782) (xy -18.998847 36.891736) (xy -19.037329 36.866485) (xy -19.043316 36.780611) (xy -19.022638 36.690269) (xy -18.992163 36.729459) )(layer F.SilkS) (width  0.010000)
  )
  (fp_poly (pts (xy -13.208000 36.787667) (xy -13.250333 36.830000) (xy -13.292666 36.787667) (xy -13.250333 36.745334) (xy -13.208000 36.787667) )(layer F.SilkS) (width  0.010000)
  )
  (fp_poly (pts (xy -13.377333 36.364334) (xy -13.419666 36.406667) (xy -13.462000 36.364334) (xy -13.419666 36.322000) (xy -13.377333 36.364334) )(layer F.SilkS) (width  0.010000)
  )
  (fp_poly (pts (xy -18.992163 35.967459) (xy -18.982069 36.099782) (xy -18.998847 36.129736) (xy -19.037329 36.104485) (xy -19.043316 36.018611) (xy -19.022638 35.928269) (xy -18.992163 35.967459) )(layer F.SilkS) (width  0.010000)
  )
  (fp_poly (pts (xy 21.166667 36.110334) (xy 21.124334 36.152667) (xy 21.082000 36.110334) (xy 21.124334 36.068000) (xy 21.166667 36.110334) )(layer F.SilkS) (width  0.010000)
  )
  (fp_poly (pts (xy 21.166667 35.771667) (xy 21.124334 35.814000) (xy 21.082000 35.771667) (xy 21.124334 35.729334) (xy 21.166667 35.771667) )(layer F.SilkS) (width  0.010000)
  )
  (fp_poly (pts (xy 10.668000 35.602334) (xy 10.625667 35.644667) (xy 10.583334 35.602334) (xy 10.625667 35.560000) (xy 10.668000 35.602334) )(layer F.SilkS) (width  0.010000)
  )
  (fp_poly (pts (xy 18.626667 35.602334) (xy 18.584334 35.644667) (xy 18.542000 35.602334) (xy 18.584334 35.560000) (xy 18.626667 35.602334) )(layer F.SilkS) (width  0.010000)
  )
  (fp_poly (pts (xy -13.716000 35.517667) (xy -13.758333 35.560000) (xy -13.800666 35.517667) (xy -13.758333 35.475334) (xy -13.716000 35.517667) )(layer F.SilkS) (width  0.010000)
  )
  (fp_poly (pts (xy 18.288000 35.179000) (xy 18.245667 35.221334) (xy 18.203334 35.179000) (xy 18.245667 35.136667) (xy 18.288000 35.179000) )(layer F.SilkS) (width  0.010000)
  )
  (fp_poly (pts (xy 10.837334 34.925000) (xy 10.795000 34.967334) (xy 10.752667 34.925000) (xy 10.795000 34.882667) (xy 10.837334 34.925000) )(layer F.SilkS) (width  0.010000)
  )
  (fp_poly (pts (xy -21.844000 34.755667) (xy -21.886333 34.798000) (xy -21.928666 34.755667) (xy -21.886333 34.713334) (xy -21.844000 34.755667) )(layer F.SilkS) (width  0.010000)
  )
  (fp_poly (pts (xy -19.304000 34.755667) (xy -19.346333 34.798000) (xy -19.388666 34.755667) (xy -19.346333 34.713334) (xy -19.304000 34.755667) )(layer F.SilkS) (width  0.010000)
  )
  (fp_poly (pts (xy 18.118667 34.671000) (xy 18.076334 34.713334) (xy 18.034000 34.671000) (xy 18.076334 34.628667) (xy 18.118667 34.671000) )(layer F.SilkS) (width  0.010000)
  )
  (fp_poly (pts (xy 20.828000 34.671000) (xy 20.785667 34.713334) (xy 20.743334 34.671000) (xy 20.785667 34.628667) (xy 20.828000 34.671000) )(layer F.SilkS) (width  0.010000)
  )
  (fp_poly (pts (xy -21.759333 34.586334) (xy -21.801666 34.628667) (xy -21.844000 34.586334) (xy -21.801666 34.544000) (xy -21.759333 34.586334) )(layer F.SilkS) (width  0.010000)
  )
  (fp_poly (pts (xy -21.844000 34.247667) (xy -21.886333 34.290000) (xy -21.928666 34.247667) (xy -21.886333 34.205334) (xy -21.844000 34.247667) )(layer F.SilkS) (width  0.010000)
  )
  (fp_poly (pts (xy -14.054666 34.247667) (xy -14.097000 34.290000) (xy -14.139333 34.247667) (xy -14.097000 34.205334) (xy -14.054666 34.247667) )(layer F.SilkS) (width  0.010000)
  )
  (fp_poly (pts (xy -22.013333 34.078334) (xy -22.055666 34.120667) (xy -22.098000 34.078334) (xy -22.055666 34.036000) (xy -22.013333 34.078334) )(layer F.SilkS) (width  0.010000)
  )
  (fp_poly (pts (xy -13.970000 34.078334) (xy -14.012333 34.120667) (xy -14.054666 34.078334) (xy -14.012333 34.036000) (xy -13.970000 34.078334) )(layer F.SilkS) (width  0.010000)
  )
  (fp_poly (pts (xy -19.473333 33.739667) (xy -19.515666 33.782000) (xy -19.558000 33.739667) (xy -19.515666 33.697334) (xy -19.473333 33.739667) )(layer F.SilkS) (width  0.010000)
  )
  (fp_poly (pts (xy -22.013333 33.570334) (xy -22.055666 33.612667) (xy -22.098000 33.570334) (xy -22.055666 33.528000) (xy -22.013333 33.570334) )(layer F.SilkS) (width  0.010000)
  )
  (fp_poly (pts (xy -22.182666 33.401000) (xy -22.225000 33.443334) (xy -22.267333 33.401000) (xy -22.225000 33.358667) (xy -22.182666 33.401000) )(layer F.SilkS) (width  0.010000)
  )
  (fp_poly (pts (xy -14.224000 33.316334) (xy -14.266333 33.358667) (xy -14.308666 33.316334) (xy -14.266333 33.274000) (xy -14.224000 33.316334) )(layer F.SilkS) (width  0.010000)
  )
  (fp_poly (pts (xy 11.176000 33.147000) (xy 11.133667 33.189334) (xy 11.091334 33.147000) (xy 11.133667 33.104667) (xy 11.176000 33.147000) )(layer F.SilkS) (width  0.010000)
  )
  (fp_poly (pts (xy -22.182666 32.893000) (xy -22.225000 32.935334) (xy -22.267333 32.893000) (xy -22.225000 32.850667) (xy -22.182666 32.893000) )(layer F.SilkS) (width  0.010000)
  )
  (fp_poly (pts (xy 11.091334 32.893000) (xy 11.049000 32.935334) (xy 11.006667 32.893000) (xy 11.049000 32.850667) (xy 11.091334 32.893000) )(layer F.SilkS) (width  0.010000)
  )
  (fp_poly (pts (xy -22.352000 32.723667) (xy -22.394333 32.766000) (xy -22.436666 32.723667) (xy -22.394333 32.681334) (xy -22.352000 32.723667) )(layer F.SilkS) (width  0.010000)
  )
  (fp_poly (pts (xy -19.812000 32.469667) (xy -19.854333 32.512000) (xy -19.896666 32.469667) (xy -19.854333 32.427334) (xy -19.812000 32.469667) )(layer F.SilkS) (width  0.010000)
  )
  (fp_poly (pts (xy 18.203334 32.469667) (xy 18.161000 32.512000) (xy 18.118667 32.469667) (xy 18.161000 32.427334) (xy 18.203334 32.469667) )(layer F.SilkS) (width  0.010000)
  )
  (fp_poly (pts (xy 18.118667 32.300334) (xy 18.076334 32.342667) (xy 18.034000 32.300334) (xy 18.076334 32.258000) (xy 18.118667 32.300334) )(layer F.SilkS) (width  0.010000)
  )
  (fp_poly (pts (xy -14.393333 32.046334) (xy -14.435666 32.088667) (xy -14.478000 32.046334) (xy -14.435666 32.004000) (xy -14.393333 32.046334) )(layer F.SilkS) (width  0.010000)
  )
  (fp_poly (pts (xy 11.318504 31.649459) (xy 11.328597 31.781782) (xy 11.311820 31.811736) (xy 11.273338 31.786485) (xy 11.267351 31.700611) (xy 11.288028 31.610269) (xy 11.318504 31.649459) )(layer F.SilkS) (width  0.010000)
  )
  (fp_poly (pts (xy -20.150666 31.453667) (xy -20.193000 31.496000) (xy -20.235333 31.453667) (xy -20.193000 31.411334) (xy -20.150666 31.453667) )(layer F.SilkS) (width  0.010000)
  )
  (fp_poly (pts (xy 11.260667 31.369000) (xy 11.218334 31.411334) (xy 11.176000 31.369000) (xy 11.218334 31.326667) (xy 11.260667 31.369000) )(layer F.SilkS) (width  0.010000)
  )
  (fp_poly (pts (xy 18.288000 31.284334) (xy 18.245667 31.326667) (xy 18.203334 31.284334) (xy 18.245667 31.242000) (xy 18.288000 31.284334) )(layer F.SilkS) (width  0.010000)
  )
  (fp_poly (pts (xy -22.690666 30.861000) (xy -22.733000 30.903334) (xy -22.775333 30.861000) (xy -22.733000 30.818667) (xy -22.690666 30.861000) )(layer F.SilkS) (width  0.010000)
  )
  (fp_poly (pts (xy -20.150666 30.776334) (xy -20.193000 30.818667) (xy -20.235333 30.776334) (xy -20.193000 30.734000) (xy -20.150666 30.776334) )(layer F.SilkS) (width  0.010000)
  )
  (fp_poly (pts (xy -20.320000 30.437667) (xy -20.362333 30.480000) (xy -20.404666 30.437667) (xy -20.362333 30.395334) (xy -20.320000 30.437667) )(layer F.SilkS) (width  0.010000)
  )
  (fp_poly (pts (xy 18.430504 30.125459) (xy 18.440597 30.257782) (xy 18.423820 30.287736) (xy 18.385338 30.262485) (xy 18.379351 30.176611) (xy 18.400028 30.086269) (xy 18.430504 30.125459) )(layer F.SilkS) (width  0.010000)
  )
  (fp_poly (pts (xy -14.588282 29.087605) (xy -14.586086 29.104167) (xy -14.572074 29.401052) (xy -14.586086 29.654500) (xy -14.602686 29.718402) (xy -14.614831 29.631962) (xy -14.620163 29.414158) (xy -14.620234 29.379334)
     (xy -14.615898 29.146728) (xy -14.604463 29.043159) (xy -14.588282 29.087605) )(layer F.SilkS) (width  0.010000)
  )
  (fp_poly (pts (xy 37.422667 29.845000) (xy 37.380334 29.887334) (xy 37.338000 29.845000) (xy 37.380334 29.802667) (xy 37.422667 29.845000) )(layer F.SilkS) (width  0.010000)
  )
  (fp_poly (pts (xy 37.676667 29.845000) (xy 37.634334 29.887334) (xy 37.592000 29.845000) (xy 37.634334 29.802667) (xy 37.676667 29.845000) )(layer F.SilkS) (width  0.010000)
  )
  (fp_poly (pts (xy -20.404666 29.760334) (xy -20.447000 29.802667) (xy -20.489333 29.760334) (xy -20.447000 29.718000) (xy -20.404666 29.760334) )(layer F.SilkS) (width  0.010000)
  )
  (fp_poly (pts (xy -20.320000 29.591000) (xy -20.362333 29.633334) (xy -20.404666 29.591000) (xy -20.362333 29.548667) (xy -20.320000 29.591000) )(layer F.SilkS) (width  0.010000)
  )
  (fp_poly (pts (xy 18.626667 29.591000) (xy 18.584334 29.633334) (xy 18.542000 29.591000) (xy 18.584334 29.548667) (xy 18.626667 29.591000) )(layer F.SilkS) (width  0.010000)
  )
  (fp_poly (pts (xy 36.491334 29.591000) (xy 36.449000 29.633334) (xy 36.406667 29.591000) (xy 36.449000 29.548667) (xy 36.491334 29.591000) )(layer F.SilkS) (width  0.010000)
  )
  (fp_poly (pts (xy -22.888222 28.984222) (xy -22.878089 29.084702) (xy -22.888222 29.097111) (xy -22.938556 29.085489) (xy -22.944666 29.040667) (xy -22.913688 28.970977) (xy -22.888222 28.984222) )(layer F.SilkS) (width  0.010000)
  )
  (fp_poly (pts (xy 20.970504 28.940125) (xy 20.980597 29.072449) (xy 20.963820 29.102403) (xy 20.925338 29.077152) (xy 20.919351 28.991278) (xy 20.940028 28.900936) (xy 20.970504 28.940125) )(layer F.SilkS) (width  0.010000)
  )
  (fp_poly (pts (xy -14.592850 28.286888) (xy -14.588660 28.301445) (xy -14.576265 28.485875) (xy -14.591797 28.555445) (xy -14.619592 28.558259) (xy -14.630944 28.425717) (xy -14.630828 28.405667) (xy -14.618619 28.274353)
     (xy -14.592850 28.286888) )(layer F.SilkS) (width  0.010000)
  )
  (fp_poly (pts (xy 35.390667 28.575000) (xy 35.348334 28.617334) (xy 35.306000 28.575000) (xy 35.348334 28.532667) (xy 35.390667 28.575000) )(layer F.SilkS) (width  0.010000)
  )
  (fp_poly (pts (xy 35.221334 28.321000) (xy 35.179000 28.363334) (xy 35.136667 28.321000) (xy 35.179000 28.278667) (xy 35.221334 28.321000) )(layer F.SilkS) (width  0.010000)
  )
  (fp_poly (pts (xy -20.517555 28.137556) (xy -20.507422 28.238035) (xy -20.517555 28.250445) (xy -20.567890 28.238822) (xy -20.574000 28.194000) (xy -20.543022 28.124310) (xy -20.517555 28.137556) )(layer F.SilkS) (width  0.010000)
  )
  (fp_poly (pts (xy -36.237333 28.151667) (xy -36.279666 28.194000) (xy -36.322000 28.151667) (xy -36.279666 28.109334) (xy -36.237333 28.151667) )(layer F.SilkS) (width  0.010000)
  )
  (fp_poly (pts (xy 35.306000 28.151667) (xy 35.263667 28.194000) (xy 35.221334 28.151667) (xy 35.263667 28.109334) (xy 35.306000 28.151667) )(layer F.SilkS) (width  0.010000)
  )
  (fp_poly (pts (xy 35.306000 27.813000) (xy 35.263667 27.855334) (xy 35.221334 27.813000) (xy 35.263667 27.770667) (xy 35.306000 27.813000) )(layer F.SilkS) (width  0.010000)
  )
  (fp_poly (pts (xy -34.798000 27.051000) (xy -34.840333 27.093334) (xy -34.882666 27.051000) (xy -34.840333 27.008667) (xy -34.798000 27.051000) )(layer F.SilkS) (width  0.010000)
  )
  (fp_poly (pts (xy 11.317111 26.698222) (xy 11.327244 26.798702) (xy 11.317111 26.811111) (xy 11.266777 26.799489) (xy 11.260667 26.754667) (xy 11.291645 26.684977) (xy 11.317111 26.698222) )(layer F.SilkS) (width  0.010000)
  )
  (fp_poly (pts (xy -22.860000 26.627667) (xy -22.902333 26.670000) (xy -22.944666 26.627667) (xy -22.902333 26.585334) (xy -22.860000 26.627667) )(layer F.SilkS) (width  0.010000)
  )
  (fp_poly (pts (xy -20.743333 26.373667) (xy -20.785666 26.416000) (xy -20.828000 26.373667) (xy -20.785666 26.331334) (xy -20.743333 26.373667) )(layer F.SilkS) (width  0.010000)
  )
  (fp_poly (pts (xy -22.888222 26.020889) (xy -22.878089 26.121369) (xy -22.888222 26.133778) (xy -22.938556 26.122156) (xy -22.944666 26.077334) (xy -22.913688 26.007643) (xy -22.888222 26.020889) )(layer F.SilkS) (width  0.010000)
  )
  (fp_poly (pts (xy -34.120666 26.035000) (xy -34.163000 26.077334) (xy -34.205333 26.035000) (xy -34.163000 25.992667) (xy -34.120666 26.035000) )(layer F.SilkS) (width  0.010000)
  )
  (fp_poly (pts (xy -14.393333 26.035000) (xy -14.435666 26.077334) (xy -14.478000 26.035000) (xy -14.435666 25.992667) (xy -14.393333 26.035000) )(layer F.SilkS) (width  0.010000)
  )
  (fp_poly (pts (xy -20.686889 25.851556) (xy -20.676756 25.952035) (xy -20.686889 25.964445) (xy -20.737223 25.952822) (xy -20.743333 25.908000) (xy -20.712355 25.838310) (xy -20.686889 25.851556) )(layer F.SilkS) (width  0.010000)
  )
  (fp_poly (pts (xy 11.147778 25.343556) (xy 11.157911 25.444035) (xy 11.147778 25.456445) (xy 11.097444 25.444822) (xy 11.091334 25.400000) (xy 11.122312 25.330310) (xy 11.147778 25.343556) )(layer F.SilkS) (width  0.010000)
  )
  (fp_poly (pts (xy 18.429111 25.174222) (xy 18.439244 25.274702) (xy 18.429111 25.287111) (xy 18.378777 25.275489) (xy 18.372667 25.230667) (xy 18.403645 25.160977) (xy 18.429111 25.174222) )(layer F.SilkS) (width  0.010000)
  )
  (fp_poly (pts (xy -14.252222 24.835556) (xy -14.242089 24.936035) (xy -14.252222 24.948445) (xy -14.302556 24.936822) (xy -14.308666 24.892000) (xy -14.277688 24.822310) (xy -14.252222 24.835556) )(layer F.SilkS) (width  0.010000)
  )
  (fp_poly (pts (xy 20.969111 24.835556) (xy 20.979244 24.936035) (xy 20.969111 24.948445) (xy 20.918777 24.936822) (xy 20.912667 24.892000) (xy 20.943645 24.822310) (xy 20.969111 24.835556) )(layer F.SilkS) (width  0.010000)
  )
  (fp_poly (pts (xy 18.542000 24.595667) (xy 18.499667 24.638000) (xy 18.457334 24.595667) (xy 18.499667 24.553334) (xy 18.542000 24.595667) )(layer F.SilkS) (width  0.010000)
  )
  (fp_poly (pts (xy 11.006667 24.426334) (xy 10.964334 24.468667) (xy 10.922000 24.426334) (xy 10.964334 24.384000) (xy 11.006667 24.426334) )(layer F.SilkS) (width  0.010000)
  )
  (fp_poly (pts (xy 18.542000 24.341667) (xy 18.499667 24.384000) (xy 18.457334 24.341667) (xy 18.499667 24.299334) (xy 18.542000 24.341667) )(layer F.SilkS) (width  0.010000)
  )
  (fp_poly (pts (xy -14.054666 24.003000) (xy -14.097000 24.045334) (xy -14.139333 24.003000) (xy -14.097000 23.960667) (xy -14.054666 24.003000) )(layer F.SilkS) (width  0.010000)
  )
  (fp_poly (pts (xy 10.811485 23.751658) (xy 10.763173 23.813911) (xy 10.691985 23.867416) (xy 10.709750 23.782578) (xy 10.715777 23.766515) (xy 10.782849 23.662837) (xy 10.820982 23.662093) (xy 10.811485 23.751658) )(layer F.SilkS) (width  0.010000)
  )
  (fp_poly (pts (xy 18.430504 23.690792) (xy 18.440597 23.823116) (xy 18.423820 23.853070) (xy 18.385338 23.827819) (xy 18.379351 23.741945) (xy 18.400028 23.651602) (xy 18.430504 23.690792) )(layer F.SilkS) (width  0.010000)
  )
  (fp_poly (pts (xy 20.743334 23.833667) (xy 20.701000 23.876000) (xy 20.658667 23.833667) (xy 20.701000 23.791334) (xy 20.743334 23.833667) )(layer F.SilkS) (width  0.010000)
  )
  (fp_poly (pts (xy -22.860000 23.579667) (xy -22.902333 23.622000) (xy -22.944666 23.579667) (xy -22.902333 23.537334) (xy -22.860000 23.579667) )(layer F.SilkS) (width  0.010000)
  )
  (fp_poly (pts (xy -33.020000 23.410334) (xy -33.062333 23.452667) (xy -33.104666 23.410334) (xy -33.062333 23.368000) (xy -33.020000 23.410334) )(layer F.SilkS) (width  0.010000)
  )
  (fp_poly (pts (xy 20.574000 22.987000) (xy 20.531667 23.029334) (xy 20.489334 22.987000) (xy 20.531667 22.944667) (xy 20.574000 22.987000) )(layer F.SilkS) (width  0.010000)
  )
  (fp_poly (pts (xy -13.729082 22.724915) (xy -13.638901 22.803620) (xy -13.631333 22.822664) (xy -13.671514 22.857463) (xy -13.755170 22.779487) (xy -13.766418 22.762252) (xy -13.776397 22.704315) (xy -13.729082 22.724915) )(layer F.SilkS) (width  0.010000)
  )
  (fp_poly (pts (xy 10.498667 22.563667) (xy 10.456334 22.606000) (xy 10.414000 22.563667) (xy 10.456334 22.521334) (xy 10.498667 22.563667) )(layer F.SilkS) (width  0.010000)
  )
  (fp_poly (pts (xy -13.546666 22.140334) (xy -13.589000 22.182667) (xy -13.631333 22.140334) (xy -13.589000 22.098000) (xy -13.546666 22.140334) )(layer F.SilkS) (width  0.010000)
  )
  (fp_poly (pts (xy 30.988000 22.140334) (xy 30.945667 22.182667) (xy 30.903334 22.140334) (xy 30.945667 22.098000) (xy 30.988000 22.140334) )(layer F.SilkS) (width  0.010000)
  )
  (fp_poly (pts (xy -22.436666 22.055667) (xy -22.479000 22.098000) (xy -22.521333 22.055667) (xy -22.479000 22.013334) (xy -22.436666 22.055667) )(layer F.SilkS) (width  0.010000)
  )
  (fp_poly (pts (xy 10.329334 22.055667) (xy 10.287000 22.098000) (xy 10.244667 22.055667) (xy 10.287000 22.013334) (xy 10.329334 22.055667) )(layer F.SilkS) (width  0.010000)
  )
  (fp_poly (pts (xy -20.658666 21.886334) (xy -20.701000 21.928667) (xy -20.743333 21.886334) (xy -20.701000 21.844000) (xy -20.658666 21.886334) )(layer F.SilkS) (width  0.010000)
  )
  (fp_poly (pts (xy 18.711334 21.801667) (xy 18.669000 21.844000) (xy 18.626667 21.801667) (xy 18.669000 21.759334) (xy 18.711334 21.801667) )(layer F.SilkS) (width  0.010000)
  )
  (fp_poly (pts (xy -13.377333 21.717000) (xy -13.419666 21.759334) (xy -13.462000 21.717000) (xy -13.419666 21.674667) (xy -13.377333 21.717000) )(layer F.SilkS) (width  0.010000)
  )
  (fp_poly (pts (xy 10.133437 21.644690) (xy 10.117667 21.674667) (xy 10.037893 21.755524) (xy 10.023007 21.759334) (xy 10.017230 21.704643) (xy 10.033000 21.674667) (xy 10.112774 21.593810) (xy 10.127660 21.590000)
     (xy 10.133437 21.644690) )(layer F.SilkS) (width  0.010000)
  )
  (fp_poly (pts (xy 18.598445 21.448889) (xy 18.608578 21.549369) (xy 18.598445 21.561778) (xy 18.548110 21.550156) (xy 18.542000 21.505334) (xy 18.572978 21.435643) (xy 18.598445 21.448889) )(layer F.SilkS) (width  0.010000)
  )
  (fp_poly (pts (xy 30.649334 21.547667) (xy 30.607000 21.590000) (xy 30.564667 21.547667) (xy 30.607000 21.505334) (xy 30.649334 21.547667) )(layer F.SilkS) (width  0.010000)
  )
  (fp_poly (pts (xy 18.600363 20.933834) (xy 18.613530 21.148567) (xy 18.600363 21.230167) (xy 18.575823 21.256517) (xy 18.562462 21.139445) (xy 18.561643 21.082000) (xy 18.570470 20.927965) (xy 18.592448 20.909811)
     (xy 18.600363 20.933834) )(layer F.SilkS) (width  0.010000)
  )
  (fp_poly (pts (xy -31.242000 21.124334) (xy -31.284333 21.166667) (xy -31.326666 21.124334) (xy -31.284333 21.082000) (xy -31.242000 21.124334) )(layer F.SilkS) (width  0.010000)
  )
  (fp_poly (pts (xy -30.903333 21.124334) (xy -30.945666 21.166667) (xy -30.988000 21.124334) (xy -30.945666 21.082000) (xy -30.903333 21.124334) )(layer F.SilkS) (width  0.010000)
  )
  (fp_poly (pts (xy 20.320000 21.039667) (xy 20.277667 21.082000) (xy 20.235334 21.039667) (xy 20.277667 20.997334) (xy 20.320000 21.039667) )(layer F.SilkS) (width  0.010000)
  )
  (fp_poly (pts (xy -13.038666 20.870334) (xy -13.081000 20.912667) (xy -13.123333 20.870334) (xy -13.081000 20.828000) (xy -13.038666 20.870334) )(layer F.SilkS) (width  0.010000)
  )
  (fp_poly (pts (xy -12.615333 20.193000) (xy -12.657666 20.235334) (xy -12.700000 20.193000) (xy -12.657666 20.150667) (xy -12.615333 20.193000) )(layer F.SilkS) (width  0.010000)
  )
  (fp_poly (pts (xy 20.150667 20.108334) (xy 20.108334 20.150667) (xy 20.066000 20.108334) (xy 20.108334 20.066000) (xy 20.150667 20.108334) )(layer F.SilkS) (width  0.010000)
  )
  (fp_poly (pts (xy 9.228667 20.023667) (xy 9.186334 20.066000) (xy 9.144000 20.023667) (xy 9.186334 19.981334) (xy 9.228667 20.023667) )(layer F.SilkS) (width  0.010000)
  )
  (fp_poly (pts (xy -26.500666 19.769667) (xy -26.543000 19.812000) (xy -26.585333 19.769667) (xy -26.543000 19.727334) (xy -26.500666 19.769667) )(layer F.SilkS) (width  0.010000)
  )
  (fp_poly (pts (xy 28.532667 19.769667) (xy 28.490334 19.812000) (xy 28.448000 19.769667) (xy 28.490334 19.727334) (xy 28.532667 19.769667) )(layer F.SilkS) (width  0.010000)
  )
  (fp_poly (pts (xy -17.102666 19.600334) (xy -17.145000 19.642667) (xy -17.187333 19.600334) (xy -17.145000 19.558000) (xy -17.102666 19.600334) )(layer F.SilkS) (width  0.010000)
  )
  (fp_poly (pts (xy -12.361333 19.515667) (xy -12.403666 19.558000) (xy -12.446000 19.515667) (xy -12.403666 19.473334) (xy -12.361333 19.515667) )(layer F.SilkS) (width  0.010000)
  )
  (fp_poly (pts (xy 8.890000 19.515667) (xy 8.847667 19.558000) (xy 8.805334 19.515667) (xy 8.847667 19.473334) (xy 8.890000 19.515667) )(layer F.SilkS) (width  0.010000)
  )
  (fp_poly (pts (xy 19.981334 18.838334) (xy 19.939000 18.880667) (xy 19.896667 18.838334) (xy 19.939000 18.796000) (xy 19.981334 18.838334) )(layer F.SilkS) (width  0.010000)
  )
  (fp_poly (pts (xy -11.853333 18.753667) (xy -11.895666 18.796000) (xy -11.938000 18.753667) (xy -11.895666 18.711334) (xy -11.853333 18.753667) )(layer F.SilkS) (width  0.010000)
  )
  (fp_poly (pts (xy 13.716000 17.991667) (xy 13.673667 18.034000) (xy 13.631334 17.991667) (xy 13.673667 17.949334) (xy 13.716000 17.991667) )(layer F.SilkS) (width  0.010000)
  )
  (fp_poly (pts (xy 12.954000 17.653000) (xy 12.911667 17.695334) (xy 12.869334 17.653000) (xy 12.911667 17.610667) (xy 12.954000 17.653000) )(layer F.SilkS) (width  0.010000)
  )
  (fp_poly (pts (xy 12.022667 17.483667) (xy 11.980334 17.526000) (xy 11.938000 17.483667) (xy 11.980334 17.441334) (xy 12.022667 17.483667) )(layer F.SilkS) (width  0.010000)
  )
  (fp_poly (pts (xy -26.416000 17.314334) (xy -26.458333 17.356667) (xy -26.500666 17.314334) (xy -26.458333 17.272000) (xy -26.416000 17.314334) )(layer F.SilkS) (width  0.010000)
  )
  (fp_poly (pts (xy 25.146000 17.314334) (xy 25.103667 17.356667) (xy 25.061334 17.314334) (xy 25.103667 17.272000) (xy 25.146000 17.314334) )(layer F.SilkS) (width  0.010000)
  )
  (fp_poly (pts (xy -24.045333 16.891000) (xy -24.087666 16.933334) (xy -24.130000 16.891000) (xy -24.087666 16.848667) (xy -24.045333 16.891000) )(layer F.SilkS) (width  0.010000)
  )
  (fp_poly (pts (xy 10.329334 16.806334) (xy 10.287000 16.848667) (xy 10.244667 16.806334) (xy 10.287000 16.764000) (xy 10.329334 16.806334) )(layer F.SilkS) (width  0.010000)
  )
  (fp_poly (pts (xy -26.162000 16.721667) (xy -26.204333 16.764000) (xy -26.246666 16.721667) (xy -26.204333 16.679334) (xy -26.162000 16.721667) )(layer F.SilkS) (width  0.010000)
  )
  (fp_poly (pts (xy -8.043333 16.552334) (xy -8.085666 16.594667) (xy -8.128000 16.552334) (xy -8.085666 16.510000) (xy -8.043333 16.552334) )(layer F.SilkS) (width  0.010000)
  )
  (fp_poly (pts (xy -26.274889 16.199556) (xy -26.264756 16.300035) (xy -26.274889 16.312445) (xy -26.325223 16.300822) (xy -26.331333 16.256000) (xy -26.300355 16.186310) (xy -26.274889 16.199556) )(layer F.SilkS) (width  0.010000)
  )
  (fp_poly (pts (xy 24.807334 16.213667) (xy 24.765000 16.256000) (xy 24.722667 16.213667) (xy 24.765000 16.171334) (xy 24.807334 16.213667) )(layer F.SilkS) (width  0.010000)
  )
  (fp_poly (pts (xy -23.904222 15.860889) (xy -23.894089 15.961369) (xy -23.904222 15.973778) (xy -23.954556 15.962156) (xy -23.960666 15.917334) (xy -23.929688 15.847643) (xy -23.904222 15.860889) )(layer F.SilkS) (width  0.010000)
  )
  (fp_poly (pts (xy 22.013334 15.959667) (xy 21.971000 16.002000) (xy 21.928667 15.959667) (xy 21.971000 15.917334) (xy 22.013334 15.959667) )(layer F.SilkS) (width  0.010000)
  )
  (fp_poly (pts (xy 2.032000 15.367000) (xy 1.989667 15.409334) (xy 1.947334 15.367000) (xy 1.989667 15.324667) (xy 2.032000 15.367000) )(layer F.SilkS) (width  0.010000)
  )
  (fp_poly (pts (xy 21.844000 15.367000) (xy 21.801667 15.409334) (xy 21.759334 15.367000) (xy 21.801667 15.324667) (xy 21.844000 15.367000) )(layer F.SilkS) (width  0.010000)
  )
  (fp_poly (pts (xy 24.638000 15.367000) (xy 24.595667 15.409334) (xy 24.553334 15.367000) (xy 24.595667 15.324667) (xy 24.638000 15.367000) )(layer F.SilkS) (width  0.010000)
  )
  (fp_poly (pts (xy 1.608667 14.774334) (xy 1.566334 14.816667) (xy 1.524000 14.774334) (xy 1.566334 14.732000) (xy 1.608667 14.774334) )(layer F.SilkS) (width  0.010000)
  )
  (fp_poly (pts (xy 21.674667 14.774334) (xy 21.632334 14.816667) (xy 21.590000 14.774334) (xy 21.632334 14.732000) (xy 21.674667 14.774334) )(layer F.SilkS) (width  0.010000)
  )
  (fp_poly (pts (xy 24.468667 14.605000) (xy 24.426334 14.647334) (xy 24.384000 14.605000) (xy 24.426334 14.562667) (xy 24.468667 14.605000) )(layer F.SilkS) (width  0.010000)
  )
  (fp_poly (pts (xy -5.588000 14.520334) (xy -5.630333 14.562667) (xy -5.672666 14.520334) (xy -5.630333 14.478000) (xy -5.588000 14.520334) )(layer F.SilkS) (width  0.010000)
  )
  (fp_poly (pts (xy -14.393333 14.435667) (xy -14.435666 14.478000) (xy -14.478000 14.435667) (xy -14.435666 14.393334) (xy -14.393333 14.435667) )(layer F.SilkS) (width  0.010000)
  )
  (fp_poly (pts (xy -26.274889 14.167556) (xy -26.264756 14.268035) (xy -26.274889 14.280445) (xy -26.325223 14.268822) (xy -26.331333 14.224000) (xy -26.300355 14.154310) (xy -26.274889 14.167556) )(layer F.SilkS) (width  0.010000)
  )
  (fp_poly (pts (xy -5.334000 14.097000) (xy -5.376333 14.139334) (xy -5.418666 14.097000) (xy -5.376333 14.054667) (xy -5.334000 14.097000) )(layer F.SilkS) (width  0.010000)
  )
  (fp_poly (pts (xy 1.185334 14.012334) (xy 1.143000 14.054667) (xy 1.100667 14.012334) (xy 1.143000 13.970000) (xy 1.185334 14.012334) )(layer F.SilkS) (width  0.010000)
  )
  (fp_poly (pts (xy -23.734889 13.659556) (xy -23.724756 13.760035) (xy -23.734889 13.772445) (xy -23.785223 13.760822) (xy -23.791333 13.716000) (xy -23.760355 13.646310) (xy -23.734889 13.659556) )(layer F.SilkS) (width  0.010000)
  )
  (fp_poly (pts (xy 4.826000 13.589000) (xy 4.783667 13.631334) (xy 4.741334 13.589000) (xy 4.783667 13.546667) (xy 4.826000 13.589000) )(layer F.SilkS) (width  0.010000)
  )
  (fp_poly (pts (xy 21.394104 13.432024) (xy 21.378334 13.462000) (xy 21.298559 13.542857) (xy 21.283673 13.546667) (xy 21.277897 13.491977) (xy 21.293667 13.462000) (xy 21.373441 13.381143) (xy 21.388327 13.377334)
     (xy 21.394104 13.432024) )(layer F.SilkS) (width  0.010000)
  )
  (fp_poly (pts (xy 0.762000 13.165667) (xy 0.719667 13.208000) (xy 0.677334 13.165667) (xy 0.719667 13.123334) (xy 0.762000 13.165667) )(layer F.SilkS) (width  0.010000)
  )
  (fp_poly (pts (xy 3.104445 13.066889) (xy 3.092822 13.117223) (xy 3.048000 13.123334) (xy 2.978310 13.092355) (xy 2.991556 13.066889) (xy 3.092035 13.056756) (xy 3.104445 13.066889) )(layer F.SilkS) (width  0.010000)
  )
  (fp_poly (pts (xy 4.233334 12.911667) (xy 4.191000 12.954000) (xy 4.148667 12.911667) (xy 4.191000 12.869334) (xy 4.233334 12.911667) )(layer F.SilkS) (width  0.010000)
  )
  (fp_poly (pts (xy 21.166667 12.827000) (xy 21.124334 12.869334) (xy 21.082000 12.827000) (xy 21.124334 12.784667) (xy 21.166667 12.827000) )(layer F.SilkS) (width  0.010000)
  )
  (fp_poly (pts (xy -23.537333 12.488334) (xy -23.579666 12.530667) (xy -23.622000 12.488334) (xy -23.579666 12.446000) (xy -23.537333 12.488334) )(layer F.SilkS) (width  0.010000)
  )
  (fp_poly (pts (xy 24.045334 12.488334) (xy 24.003000 12.530667) (xy 23.960667 12.488334) (xy 24.003000 12.446000) (xy 24.045334 12.488334) )(layer F.SilkS) (width  0.010000)
  )
  (fp_poly (pts (xy 20.997334 12.149667) (xy 20.955000 12.192000) (xy 20.912667 12.149667) (xy 20.955000 12.107334) (xy 20.997334 12.149667) )(layer F.SilkS) (width  0.010000)
  )
  (fp_poly (pts (xy -23.368000 11.895667) (xy -23.410333 11.938000) (xy -23.452666 11.895667) (xy -23.410333 11.853334) (xy -23.368000 11.895667) )(layer F.SilkS) (width  0.010000)
  )
  (fp_poly (pts (xy 20.828000 11.472334) (xy 20.785667 11.514667) (xy 20.743334 11.472334) (xy 20.785667 11.430000) (xy 20.828000 11.472334) )(layer F.SilkS) (width  0.010000)
  )
  (fp_poly (pts (xy 6.011334 11.387667) (xy 5.969000 11.430000) (xy 5.926667 11.387667) (xy 5.969000 11.345334) (xy 6.011334 11.387667) )(layer F.SilkS) (width  0.010000)
  )
  (fp_poly (pts (xy 23.706667 11.387667) (xy 23.664334 11.430000) (xy 23.622000 11.387667) (xy 23.664334 11.345334) (xy 23.706667 11.387667) )(layer F.SilkS) (width  0.010000)
  )
  (fp_poly (pts (xy -26.162000 11.049000) (xy -26.204333 11.091334) (xy -26.246666 11.049000) (xy -26.204333 11.006667) (xy -26.162000 11.049000) )(layer F.SilkS) (width  0.010000)
  )
  (fp_poly (pts (xy 20.658667 10.879667) (xy 20.616334 10.922000) (xy 20.574000 10.879667) (xy 20.616334 10.837334) (xy 20.658667 10.879667) )(layer F.SilkS) (width  0.010000)
  )
  (fp_poly (pts (xy -22.860000 10.710334) (xy -22.902333 10.752667) (xy -22.944666 10.710334) (xy -22.902333 10.668000) (xy -22.860000 10.710334) )(layer F.SilkS) (width  0.010000)
  )
  (fp_poly (pts (xy 23.368000 10.710334) (xy 23.325667 10.752667) (xy 23.283334 10.710334) (xy 23.325667 10.668000) (xy 23.368000 10.710334) )(layer F.SilkS) (width  0.010000)
  )
  (fp_poly (pts (xy 23.368000 10.371667) (xy 23.325667 10.414000) (xy 23.283334 10.371667) (xy 23.325667 10.329334) (xy 23.368000 10.371667) )(layer F.SilkS) (width  0.010000)
  )
  (fp_poly (pts (xy 20.489334 10.202334) (xy 20.447000 10.244667) (xy 20.404667 10.202334) (xy 20.447000 10.160000) (xy 20.489334 10.202334) )(layer F.SilkS) (width  0.010000)
  )
  (fp_poly (pts (xy -25.823333 9.948334) (xy -25.865666 9.990667) (xy -25.908000 9.948334) (xy -25.865666 9.906000) (xy -25.823333 9.948334) )(layer F.SilkS) (width  0.010000)
  )
  (fp_poly (pts (xy 1.947334 9.609667) (xy 1.905000 9.652000) (xy 1.862667 9.609667) (xy 1.905000 9.567334) (xy 1.947334 9.609667) )(layer F.SilkS) (width  0.010000)
  )
  (fp_poly (pts (xy -22.267333 9.355667) (xy -22.309666 9.398000) (xy -22.352000 9.355667) (xy -22.309666 9.313334) (xy -22.267333 9.355667) )(layer F.SilkS) (width  0.010000)
  )
  (fp_poly (pts (xy 20.208770 8.860024) (xy 20.193000 8.890000) (xy 20.113226 8.970857) (xy 20.098340 8.974667) (xy 20.092563 8.919977) (xy 20.108334 8.890000) (xy 20.188108 8.809143) (xy 20.202994 8.805334)
     (xy 20.208770 8.860024) )(layer F.SilkS) (width  0.010000)
  )
  (fp_poly (pts (xy -5.418666 8.847667) (xy -5.461000 8.890000) (xy -5.503333 8.847667) (xy -5.461000 8.805334) (xy -5.418666 8.847667) )(layer F.SilkS) (width  0.010000)
  )
  (fp_poly (pts (xy 1.270000 8.763000) (xy 1.227667 8.805334) (xy 1.185334 8.763000) (xy 1.227667 8.720667) (xy 1.270000 8.763000) )(layer F.SilkS) (width  0.010000)
  )
  (fp_poly (pts (xy -21.844000 8.678334) (xy -21.886333 8.720667) (xy -21.928666 8.678334) (xy -21.886333 8.636000) (xy -21.844000 8.678334) )(layer F.SilkS) (width  0.010000)
  )
  (fp_poly (pts (xy -25.569333 8.593667) (xy -25.611666 8.636000) (xy -25.654000 8.593667) (xy -25.611666 8.551334) (xy -25.569333 8.593667) )(layer F.SilkS) (width  0.010000)
  )
  (fp_poly (pts (xy 22.690667 8.509000) (xy 22.648334 8.551334) (xy 22.606000 8.509000) (xy 22.648334 8.466667) (xy 22.690667 8.509000) )(layer F.SilkS) (width  0.010000)
  )
  (fp_poly (pts (xy -21.844000 8.339667) (xy -21.886333 8.382000) (xy -21.928666 8.339667) (xy -21.886333 8.297334) (xy -21.844000 8.339667) )(layer F.SilkS) (width  0.010000)
  )
  (fp_poly (pts (xy 3.471334 8.339667) (xy 3.429000 8.382000) (xy 3.386667 8.339667) (xy 3.429000 8.297334) (xy 3.471334 8.339667) )(layer F.SilkS) (width  0.010000)
  )
  (fp_poly (pts (xy 3.556000 7.916334) (xy 3.513667 7.958667) (xy 3.471334 7.916334) (xy 3.513667 7.874000) (xy 3.556000 7.916334) )(layer F.SilkS) (width  0.010000)
  )
  (fp_poly (pts (xy -7.986889 7.732889) (xy -7.976756 7.833369) (xy -7.986889 7.845778) (xy -8.037223 7.834156) (xy -8.043333 7.789334) (xy -8.012355 7.719643) (xy -7.986889 7.732889) )(layer F.SilkS) (width  0.010000)
  )
  (fp_poly (pts (xy -21.505333 7.662334) (xy -21.547666 7.704667) (xy -21.590000 7.662334) (xy -21.547666 7.620000) (xy -21.505333 7.662334) )(layer F.SilkS) (width  0.010000)
  )
  (fp_poly (pts (xy 19.896667 7.662334) (xy 19.854334 7.704667) (xy 19.812000 7.662334) (xy 19.854334 7.620000) (xy 19.896667 7.662334) )(layer F.SilkS) (width  0.010000)
  )
  (fp_poly (pts (xy 3.471334 7.239000) (xy 3.429000 7.281334) (xy 3.386667 7.239000) (xy 3.429000 7.196667) (xy 3.471334 7.239000) )(layer F.SilkS) (width  0.010000)
  )
  (fp_poly (pts (xy 19.700770 7.082024) (xy 19.685000 7.112000) (xy 19.605226 7.192857) (xy 19.590340 7.196667) (xy 19.584563 7.141977) (xy 19.600334 7.112000) (xy 19.680108 7.031143) (xy 19.694994 7.027334)
     (xy 19.700770 7.082024) )(layer F.SilkS) (width  0.010000)
  )
  (fp_poly (pts (xy -25.061333 7.069667) (xy -25.103666 7.112000) (xy -25.146000 7.069667) (xy -25.103666 7.027334) (xy -25.061333 7.069667) )(layer F.SilkS) (width  0.010000)
  )
  (fp_poly (pts (xy 1.185334 7.069667) (xy 1.143000 7.112000) (xy 1.100667 7.069667) (xy 1.143000 7.027334) (xy 1.185334 7.069667) )(layer F.SilkS) (width  0.010000)
  )
  (fp_poly (pts (xy -7.450666 6.900334) (xy -7.493000 6.942667) (xy -7.535333 6.900334) (xy -7.493000 6.858000) (xy -7.450666 6.900334) )(layer F.SilkS) (width  0.010000)
  )
  (fp_poly (pts (xy -21.362830 6.503459) (xy -21.352736 6.635782) (xy -21.369514 6.665736) (xy -21.407996 6.640485) (xy -21.413982 6.554611) (xy -21.393305 6.464269) (xy -21.362830 6.503459) )(layer F.SilkS) (width  0.010000)
  )
  (fp_poly (pts (xy 19.473334 6.561667) (xy 19.431000 6.604000) (xy 19.388667 6.561667) (xy 19.431000 6.519334) (xy 19.473334 6.561667) )(layer F.SilkS) (width  0.010000)
  )
  (fp_poly (pts (xy -14.054666 6.477000) (xy -14.097000 6.519334) (xy -14.139333 6.477000) (xy -14.097000 6.434667) (xy -14.054666 6.477000) )(layer F.SilkS) (width  0.010000)
  )
  (fp_poly (pts (xy -12.220222 6.462889) (xy -12.231844 6.513223) (xy -12.276666 6.519334) (xy -12.346357 6.488355) (xy -12.333111 6.462889) (xy -12.232631 6.452756) (xy -12.220222 6.462889) )(layer F.SilkS) (width  0.010000)
  )
  (fp_poly (pts (xy -13.885333 6.392334) (xy -13.927666 6.434667) (xy -13.970000 6.392334) (xy -13.927666 6.350000) (xy -13.885333 6.392334) )(layer F.SilkS) (width  0.010000)
  )
  (fp_poly (pts (xy -14.393333 6.307667) (xy -14.435666 6.350000) (xy -14.478000 6.307667) (xy -14.435666 6.265334) (xy -14.393333 6.307667) )(layer F.SilkS) (width  0.010000)
  )
  (fp_poly (pts (xy -10.922000 6.307667) (xy -10.964333 6.350000) (xy -11.006666 6.307667) (xy -10.964333 6.265334) (xy -10.922000 6.307667) )(layer F.SilkS) (width  0.010000)
  )
  (fp_poly (pts (xy -4.402666 6.307667) (xy -4.445000 6.350000) (xy -4.487333 6.307667) (xy -4.445000 6.265334) (xy -4.402666 6.307667) )(layer F.SilkS) (width  0.010000)
  )
  (fp_poly (pts (xy 19.304000 6.053667) (xy 19.261667 6.096000) (xy 19.219334 6.053667) (xy 19.261667 6.011334) (xy 19.304000 6.053667) )(layer F.SilkS) (width  0.010000)
  )
  (fp_poly (pts (xy 8.805334 5.630334) (xy 8.763000 5.672667) (xy 8.720667 5.630334) (xy 8.763000 5.588000) (xy 8.805334 5.630334) )(layer F.SilkS) (width  0.010000)
  )
  (fp_poly (pts (xy 19.134667 5.545667) (xy 19.092334 5.588000) (xy 19.050000 5.545667) (xy 19.092334 5.503334) (xy 19.134667 5.545667) )(layer F.SilkS) (width  0.010000)
  )
  (fp_poly (pts (xy 8.212667 5.461000) (xy 8.170334 5.503334) (xy 8.128000 5.461000) (xy 8.170334 5.418667) (xy 8.212667 5.461000) )(layer F.SilkS) (width  0.010000)
  )
  (fp_poly (pts (xy -18.796000 5.122334) (xy -18.838333 5.164667) (xy -18.880666 5.122334) (xy -18.838333 5.080000) (xy -18.796000 5.122334) )(layer F.SilkS) (width  0.010000)
  )
  (fp_poly (pts (xy 18.965334 5.122334) (xy 18.923000 5.164667) (xy 18.880667 5.122334) (xy 18.923000 5.080000) (xy 18.965334 5.122334) )(layer F.SilkS) (width  0.010000)
  )
  (fp_poly (pts (xy -23.706666 4.275667) (xy -23.749000 4.318000) (xy -23.791333 4.275667) (xy -23.749000 4.233334) (xy -23.706666 4.275667) )(layer F.SilkS) (width  0.010000)
  )
  (fp_poly (pts (xy 20.828000 4.275667) (xy 20.785667 4.318000) (xy 20.743334 4.275667) (xy 20.785667 4.233334) (xy 20.828000 4.275667) )(layer F.SilkS) (width  0.010000)
  )
  (fp_poly (pts (xy 14.647334 4.106334) (xy 14.605000 4.148667) (xy 14.562667 4.106334) (xy 14.605000 4.064000) (xy 14.647334 4.106334) )(layer F.SilkS) (width  0.010000)
  )
  (fp_poly (pts (xy 14.986000 4.106334) (xy 14.943667 4.148667) (xy 14.901334 4.106334) (xy 14.943667 4.064000) (xy 14.986000 4.106334) )(layer F.SilkS) (width  0.010000)
  )
  (fp_poly (pts (xy 16.233070 3.928181) (xy 16.207819 3.966663) (xy 16.121945 3.972649) (xy 16.031602 3.951972) (xy 16.070792 3.921497) (xy 16.203116 3.911403) (xy 16.233070 3.928181) )(layer F.SilkS) (width  0.010000)
  )
  (fp_poly (pts (xy 20.658667 3.937000) (xy 20.616334 3.979334) (xy 20.574000 3.937000) (xy 20.616334 3.894667) (xy 20.658667 3.937000) )(layer F.SilkS) (width  0.010000)
  )
  (fp_poly (pts (xy -8.974666 3.852334) (xy -9.017000 3.894667) (xy -9.059333 3.852334) (xy -9.017000 3.810000) (xy -8.974666 3.852334) )(layer F.SilkS) (width  0.010000)
  )
  (fp_poly (pts (xy -6.688666 3.852334) (xy -6.731000 3.894667) (xy -6.773333 3.852334) (xy -6.731000 3.810000) (xy -6.688666 3.852334) )(layer F.SilkS) (width  0.010000)
  )
  (fp_poly (pts (xy -10.329333 3.683000) (xy -10.371666 3.725334) (xy -10.414000 3.683000) (xy -10.371666 3.640667) (xy -10.329333 3.683000) )(layer F.SilkS) (width  0.010000)
  )
  (fp_poly (pts (xy 2.032000 3.683000) (xy 1.989667 3.725334) (xy 1.947334 3.683000) (xy 1.989667 3.640667) (xy 2.032000 3.683000) )(layer F.SilkS) (width  0.010000)
  )
  (fp_poly (pts (xy -11.260666 3.513667) (xy -11.303000 3.556000) (xy -11.345333 3.513667) (xy -11.303000 3.471334) (xy -11.260666 3.513667) )(layer F.SilkS) (width  0.010000)
  )
  (fp_poly (pts (xy -12.615333 3.344334) (xy -12.657666 3.386667) (xy -12.700000 3.344334) (xy -12.657666 3.302000) (xy -12.615333 3.344334) )(layer F.SilkS) (width  0.010000)
  )
  (fp_poly (pts (xy -12.107333 3.344334) (xy -12.149666 3.386667) (xy -12.192000 3.344334) (xy -12.149666 3.302000) (xy -12.107333 3.344334) )(layer F.SilkS) (width  0.010000)
  )
  (fp_poly (pts (xy 1.862667 3.175000) (xy 1.820334 3.217334) (xy 1.778000 3.175000) (xy 1.820334 3.132667) (xy 1.862667 3.175000) )(layer F.SilkS) (width  0.010000)
  )
  (fp_poly (pts (xy 20.150667 3.175000) (xy 20.108334 3.217334) (xy 20.066000 3.175000) (xy 20.108334 3.132667) (xy 20.150667 3.175000) )(layer F.SilkS) (width  0.010000)
  )
  (fp_poly (pts (xy -6.462889 2.991556) (xy -6.452756 3.092035) (xy -6.462889 3.104445) (xy -6.513223 3.092822) (xy -6.519333 3.048000) (xy -6.488355 2.978310) (xy -6.462889 2.991556) )(layer F.SilkS) (width  0.010000)
  )
  (fp_poly (pts (xy -13.631333 3.005667) (xy -13.673666 3.048000) (xy -13.716000 3.005667) (xy -13.673666 2.963334) (xy -13.631333 3.005667) )(layer F.SilkS) (width  0.010000)
  )
  (fp_poly (pts (xy -14.393333 2.836334) (xy -14.435666 2.878667) (xy -14.478000 2.836334) (xy -14.435666 2.794000) (xy -14.393333 2.836334) )(layer F.SilkS) (width  0.010000)
  )
  (fp_poly (pts (xy -16.002000 2.497667) (xy -16.044333 2.540000) (xy -16.086666 2.497667) (xy -16.044333 2.455334) (xy -16.002000 2.497667) )(layer F.SilkS) (width  0.010000)
  )
  (fp_poly (pts (xy 11.006667 2.497667) (xy 10.964334 2.540000) (xy 10.922000 2.497667) (xy 10.964334 2.455334) (xy 11.006667 2.497667) )(layer F.SilkS) (width  0.010000)
  )
  (fp_poly (pts (xy 10.583334 2.413000) (xy 10.541000 2.455334) (xy 10.498667 2.413000) (xy 10.541000 2.370667) (xy 10.583334 2.413000) )(layer F.SilkS) (width  0.010000)
  )
  (fp_poly (pts (xy -20.320000 2.328334) (xy -20.362333 2.370667) (xy -20.404666 2.328334) (xy -20.362333 2.286000) (xy -20.320000 2.328334) )(layer F.SilkS) (width  0.010000)
  )
  (fp_poly (pts (xy -17.018000 2.328334) (xy -17.060333 2.370667) (xy -17.102666 2.328334) (xy -17.060333 2.286000) (xy -17.018000 2.328334) )(layer F.SilkS) (width  0.010000)
  )
  (fp_poly (pts (xy -18.944166 2.140086) (xy -18.880265 2.156687) (xy -18.966705 2.168831) (xy -19.184509 2.174164) (xy -19.219333 2.174234) (xy -19.451939 2.169899) (xy -19.555507 2.158463) (xy -19.511061 2.142282)
     (xy -19.494500 2.140086) (xy -19.197615 2.126074) (xy -18.944166 2.140086) )(layer F.SilkS) (width  0.010000)
  )
  (fp_poly (pts (xy -6.293555 1.806222) (xy -6.283422 1.906702) (xy -6.293555 1.919111) (xy -6.343890 1.907489) (xy -6.350000 1.862667) (xy -6.319022 1.792977) (xy -6.293555 1.806222) )(layer F.SilkS) (width  0.010000)
  )
  (fp_poly (pts (xy 1.524000 1.905000) (xy 1.481667 1.947334) (xy 1.439334 1.905000) (xy 1.481667 1.862667) (xy 1.524000 1.905000) )(layer F.SilkS) (width  0.010000)
  )
  (fp_poly (pts (xy 12.530667 1.820334) (xy 12.488334 1.862667) (xy 12.446000 1.820334) (xy 12.488334 1.778000) (xy 12.530667 1.820334) )(layer F.SilkS) (width  0.010000)
  )
  (fp_poly (pts (xy 13.123334 1.651000) (xy 13.081000 1.693334) (xy 13.038667 1.651000) (xy 13.081000 1.608667) (xy 13.123334 1.651000) )(layer F.SilkS) (width  0.010000)
  )
  (fp_poly (pts (xy 15.240000 1.312334) (xy 15.197667 1.354667) (xy 15.155334 1.312334) (xy 15.197667 1.270000) (xy 15.240000 1.312334) )(layer F.SilkS) (width  0.010000)
  )
  (fp_poly (pts (xy 17.187334 1.312334) (xy 17.145000 1.354667) (xy 17.102667 1.312334) (xy 17.145000 1.270000) (xy 17.187334 1.312334) )(layer F.SilkS) (width  0.010000)
  )
  (fp_poly (pts (xy 1.326445 0.790222) (xy 1.336578 0.890702) (xy 1.326445 0.903111) (xy 1.276110 0.891489) (xy 1.270000 0.846667) (xy 1.300978 0.776977) (xy 1.326445 0.790222) )(layer F.SilkS) (width  0.010000)
  )
  (fp_poly (pts (xy -6.096000 -1.143000) (xy -6.138333 -1.100666) (xy -6.180666 -1.143000) (xy -6.138333 -1.185333) (xy -6.096000 -1.143000) )(layer F.SilkS) (width  0.010000)
  )
  (fp_poly (pts (xy -6.265333 -1.397000) (xy -6.307666 -1.354666) (xy -6.350000 -1.397000) (xy -6.307666 -1.439333) (xy -6.265333 -1.397000) )(layer F.SilkS) (width  0.010000)
  )
  (fp_poly (pts (xy 1.158504 -1.793875) (xy 1.168597 -1.661551) (xy 1.151820 -1.631597) (xy 1.113338 -1.656848) (xy 1.107351 -1.742722) (xy 1.128028 -1.833064) (xy 1.158504 -1.793875) )(layer F.SilkS) (width  0.010000)
  )
  (fp_poly (pts (xy -6.434666 -1.989666) (xy -6.477000 -1.947333) (xy -6.519333 -1.989666) (xy -6.477000 -2.032000) (xy -6.434666 -1.989666) )(layer F.SilkS) (width  0.010000)
  )
  (fp_poly (pts (xy -6.519333 -2.497666) (xy -6.561666 -2.455333) (xy -6.604000 -2.497666) (xy -6.561666 -2.540000) (xy -6.519333 -2.497666) )(layer F.SilkS) (width  0.010000)
  )
  (fp_poly (pts (xy -7.874000 -5.207000) (xy -7.916333 -5.164666) (xy -7.958666 -5.207000) (xy -7.916333 -5.249333) (xy -7.874000 -5.207000) )(layer F.SilkS) (width  0.010000)
  )
  (fp_poly (pts (xy 5.164667 -5.461000) (xy 5.122334 -5.418666) (xy 5.080000 -5.461000) (xy 5.122334 -5.503333) (xy 5.164667 -5.461000) )(layer F.SilkS) (width  0.010000)
  )
  (fp_poly (pts (xy 5.588000 -5.799666) (xy 5.545667 -5.757333) (xy 5.503334 -5.799666) (xy 5.545667 -5.842000) (xy 5.588000 -5.799666) )(layer F.SilkS) (width  0.010000)
  )
  (fp_poly (pts (xy 1.934252 -6.061751) (xy 2.024432 -5.983047) (xy 2.032000 -5.964003) (xy 1.991819 -5.929204) (xy 1.908164 -6.007180) (xy 1.896915 -6.024415) (xy 1.886936 -6.082352) (xy 1.934252 -6.061751) )(layer F.SilkS) (width  0.010000)
  )
  (fp_poly (pts (xy -12.615333 -6.307666) (xy -12.657666 -6.265333) (xy -12.700000 -6.307666) (xy -12.657666 -6.350000) (xy -12.615333 -6.307666) )(layer F.SilkS) (width  0.010000)
  )
  (fp_poly (pts (xy 2.201334 -6.561666) (xy 2.159000 -6.519333) (xy 2.116667 -6.561666) (xy 2.159000 -6.604000) (xy 2.201334 -6.561666) )(layer F.SilkS) (width  0.010000)
  )
  (fp_poly (pts (xy -9.313333 -6.646333) (xy -9.355666 -6.604000) (xy -9.398000 -6.646333) (xy -9.355666 -6.688666) (xy -9.313333 -6.646333) )(layer F.SilkS) (width  0.010000)
  )
  (fp_poly (pts (xy -9.736666 -7.154333) (xy -9.779000 -7.112000) (xy -9.821333 -7.154333) (xy -9.779000 -7.196666) (xy -9.736666 -7.154333) )(layer F.SilkS) (width  0.010000)
  )
  (fp_poly (pts (xy 2.370667 -7.747000) (xy 2.328334 -7.704666) (xy 2.286000 -7.747000) (xy 2.328334 -7.789333) (xy 2.370667 -7.747000) )(layer F.SilkS) (width  0.010000)
  )
  (fp_poly (pts (xy -10.329333 -7.916333) (xy -10.371666 -7.874000) (xy -10.414000 -7.916333) (xy -10.371666 -7.958666) (xy -10.329333 -7.916333) )(layer F.SilkS) (width  0.010000)
  )
  (fp_poly (pts (xy 2.540000 -8.001000) (xy 2.497667 -7.958666) (xy 2.455334 -8.001000) (xy 2.497667 -8.043333) (xy 2.540000 -8.001000) )(layer F.SilkS) (width  0.010000)
  )
  (fp_poly (pts (xy -14.308666 -8.509000) (xy -14.351000 -8.466666) (xy -14.393333 -8.509000) (xy -14.351000 -8.551333) (xy -14.308666 -8.509000) )(layer F.SilkS) (width  0.010000)
  )
  (fp_poly (pts (xy -14.562666 -8.763000) (xy -14.605000 -8.720666) (xy -14.647333 -8.763000) (xy -14.605000 -8.805333) (xy -14.562666 -8.763000) )(layer F.SilkS) (width  0.010000)
  )
  (fp_poly (pts (xy -14.901333 -9.271000) (xy -14.943666 -9.228666) (xy -14.986000 -9.271000) (xy -14.943666 -9.313333) (xy -14.901333 -9.271000) )(layer F.SilkS) (width  0.010000)
  )
  (fp_poly (pts (xy 2.540000 -9.525000) (xy 2.497667 -9.482666) (xy 2.455334 -9.525000) (xy 2.497667 -9.567333) (xy 2.540000 -9.525000) )(layer F.SilkS) (width  0.010000)
  )
  (fp_poly (pts (xy 6.265334 -9.525000) (xy 6.223000 -9.482666) (xy 6.180667 -9.525000) (xy 6.223000 -9.567333) (xy 6.265334 -9.525000) )(layer F.SilkS) (width  0.010000)
  )
  (fp_poly (pts (xy -7.817555 -9.793111) (xy -7.807422 -9.692631) (xy -7.817555 -9.680222) (xy -7.867890 -9.691844) (xy -7.874000 -9.736666) (xy -7.843022 -9.806357) (xy -7.817555 -9.793111) )(layer F.SilkS) (width  0.010000)
  )
  (fp_poly (pts (xy -12.022666 -10.117666) (xy -12.065000 -10.075333) (xy -12.107333 -10.117666) (xy -12.065000 -10.160000) (xy -12.022666 -10.117666) )(layer F.SilkS) (width  0.010000)
  )
  (fp_poly (pts (xy 6.604000 -10.117666) (xy 6.561667 -10.075333) (xy 6.519334 -10.117666) (xy 6.561667 -10.160000) (xy 6.604000 -10.117666) )(layer F.SilkS) (width  0.010000)
  )
  (fp_poly (pts (xy -7.620000 -10.795000) (xy -7.662333 -10.752666) (xy -7.704666 -10.795000) (xy -7.662333 -10.837333) (xy -7.620000 -10.795000) )(layer F.SilkS) (width  0.010000)
  )
  (fp_poly (pts (xy 2.370667 -10.964333) (xy 2.328334 -10.922000) (xy 2.286000 -10.964333) (xy 2.328334 -11.006666) (xy 2.370667 -10.964333) )(layer F.SilkS) (width  0.010000)
  )
  (fp_poly (pts (xy 7.281334 -11.218333) (xy 7.239000 -11.176000) (xy 7.196667 -11.218333) (xy 7.239000 -11.260666) (xy 7.281334 -11.218333) )(layer F.SilkS) (width  0.010000)
  )
  (fp_poly (pts (xy -15.917333 -11.303000) (xy -15.959666 -11.260666) (xy -16.002000 -11.303000) (xy -15.959666 -11.345333) (xy -15.917333 -11.303000) )(layer F.SilkS) (width  0.010000)
  )
  (fp_poly (pts (xy 10.752667 -11.557000) (xy 10.710334 -11.514666) (xy 10.668000 -11.557000) (xy 10.710334 -11.599333) (xy 10.752667 -11.557000) )(layer F.SilkS) (width  0.010000)
  )
  (fp_poly (pts (xy -6.942666 -12.065000) (xy -6.985000 -12.022666) (xy -7.027333 -12.065000) (xy -6.985000 -12.107333) (xy -6.942666 -12.065000) )(layer F.SilkS) (width  0.010000)
  )
  (fp_poly (pts (xy -16.594666 -12.911666) (xy -16.637000 -12.869333) (xy -16.679333 -12.911666) (xy -16.637000 -12.954000) (xy -16.594666 -12.911666) )(layer F.SilkS) (width  0.010000)
  )
  (fp_poly (pts (xy 11.684000 -13.081000) (xy 11.641667 -13.038666) (xy 11.599334 -13.081000) (xy 11.641667 -13.123333) (xy 11.684000 -13.081000) )(layer F.SilkS) (width  0.010000)
  )
  (fp_poly (pts (xy -6.288264 -13.851819) (xy -6.313515 -13.813337) (xy -6.399389 -13.807351) (xy -6.489731 -13.828028) (xy -6.450541 -13.858503) (xy -6.318218 -13.868597) (xy -6.288264 -13.851819) )(layer F.SilkS) (width  0.010000)
  )
  (fp_poly (pts (xy -5.480555 -13.856202) (xy -5.477741 -13.828408) (xy -5.610283 -13.817056) (xy -5.630333 -13.817172) (xy -5.761647 -13.829381) (xy -5.749112 -13.855150) (xy -5.734555 -13.859340) (xy -5.550125 -13.871735)
     (xy -5.480555 -13.856202) )(layer F.SilkS) (width  0.010000)
  )
  (fp_poly (pts (xy -7.196666 -14.012333) (xy -7.239000 -13.970000) (xy -7.281333 -14.012333) (xy -7.239000 -14.054666) (xy -7.196666 -14.012333) )(layer F.SilkS) (width  0.010000)
  )
  (fp_poly (pts (xy 12.022667 -14.012333) (xy 11.980334 -13.970000) (xy 11.938000 -14.012333) (xy 11.980334 -14.054666) (xy 12.022667 -14.012333) )(layer F.SilkS) (width  0.010000)
  )
  (fp_poly (pts (xy -17.610666 -14.520333) (xy -17.653000 -14.478000) (xy -17.695333 -14.520333) (xy -17.653000 -14.562666) (xy -17.610666 -14.520333) )(layer F.SilkS) (width  0.010000)
  )
  (fp_poly (pts (xy 0.000000 -14.520333) (xy -0.042333 -14.478000) (xy -0.084666 -14.520333) (xy -0.042333 -14.562666) (xy 0.000000 -14.520333) )(layer F.SilkS) (width  0.010000)
  )
  (fp_poly (pts (xy 1.354667 -14.520333) (xy 1.312334 -14.478000) (xy 1.270000 -14.520333) (xy 1.312334 -14.562666) (xy 1.354667 -14.520333) )(layer F.SilkS) (width  0.010000)
  )
  (fp_poly (pts (xy 10.160000 -14.605000) (xy 10.117667 -14.562666) (xy 10.075334 -14.605000) (xy 10.117667 -14.647333) (xy 10.160000 -14.605000) )(layer F.SilkS) (width  0.010000)
  )
  (fp_poly (pts (xy 12.192000 -14.689666) (xy 12.149667 -14.647333) (xy 12.107334 -14.689666) (xy 12.149667 -14.732000) (xy 12.192000 -14.689666) )(layer F.SilkS) (width  0.010000)
  )
  (fp_poly (pts (xy 10.498667 -15.197666) (xy 10.456334 -15.155333) (xy 10.414000 -15.197666) (xy 10.456334 -15.240000) (xy 10.498667 -15.197666) )(layer F.SilkS) (width  0.010000)
  )
  (fp_poly (pts (xy 12.361334 -15.536333) (xy 12.319000 -15.494000) (xy 12.276667 -15.536333) (xy 12.319000 -15.578666) (xy 12.361334 -15.536333) )(layer F.SilkS) (width  0.010000)
  )
  (fp_poly (pts (xy 10.668000 -15.959666) (xy 10.625667 -15.917333) (xy 10.583334 -15.959666) (xy 10.625667 -16.002000) (xy 10.668000 -15.959666) )(layer F.SilkS) (width  0.010000)
  )
  (fp_poly (pts (xy -18.060563 -16.201310) (xy -18.076333 -16.171333) (xy -18.156107 -16.090476) (xy -18.170993 -16.086666) (xy -18.176770 -16.141357) (xy -18.161000 -16.171333) (xy -18.081226 -16.252190) (xy -18.066340 -16.256000)
     (xy -18.060563 -16.201310) )(layer F.SilkS) (width  0.010000)
  )
  (fp_poly (pts (xy -15.776222 -16.481778) (xy -15.766089 -16.381298) (xy -15.776222 -16.368889) (xy -15.826556 -16.380511) (xy -15.832666 -16.425333) (xy -15.801688 -16.495023) (xy -15.776222 -16.481778) )(layer F.SilkS) (width  0.010000)
  )
  (fp_poly (pts (xy 6.096000 -16.637000) (xy 6.053667 -16.594666) (xy 6.011334 -16.637000) (xy 6.053667 -16.679333) (xy 6.096000 -16.637000) )(layer F.SilkS) (width  0.010000)
  )
  (fp_poly (pts (xy -18.288000 -16.721666) (xy -18.330333 -16.679333) (xy -18.372666 -16.721666) (xy -18.330333 -16.764000) (xy -18.288000 -16.721666) )(layer F.SilkS) (width  0.010000)
  )
  (fp_poly (pts (xy -15.917333 -16.721666) (xy -15.959666 -16.679333) (xy -16.002000 -16.721666) (xy -15.959666 -16.764000) (xy -15.917333 -16.721666) )(layer F.SilkS) (width  0.010000)
  )
  (fp_poly (pts (xy 12.503837 -17.287875) (xy 12.513931 -17.155551) (xy 12.497153 -17.125597) (xy 12.458671 -17.150848) (xy 12.452684 -17.236722) (xy 12.473362 -17.327064) (xy 12.503837 -17.287875) )(layer F.SilkS) (width  0.010000)
  )
  (fp_poly (pts (xy -11.853333 -17.229666) (xy -11.895666 -17.187333) (xy -11.938000 -17.229666) (xy -11.895666 -17.272000) (xy -11.853333 -17.229666) )(layer F.SilkS) (width  0.010000)
  )
  (fp_poly (pts (xy -15.917333 -17.399000) (xy -15.959666 -17.356666) (xy -16.002000 -17.399000) (xy -15.959666 -17.441333) (xy -15.917333 -17.399000) )(layer F.SilkS) (width  0.010000)
  )
  (fp_poly (pts (xy -18.485555 -17.667111) (xy -18.475422 -17.566631) (xy -18.485555 -17.554222) (xy -18.535890 -17.565844) (xy -18.542000 -17.610666) (xy -18.511022 -17.680357) (xy -18.485555 -17.667111) )(layer F.SilkS) (width  0.010000)
  )
  (fp_poly (pts (xy 6.336918 -17.661085) (xy 6.427099 -17.582380) (xy 6.434667 -17.563336) (xy 6.394486 -17.528537) (xy 6.310830 -17.606513) (xy 6.299582 -17.623748) (xy 6.289603 -17.681685) (xy 6.336918 -17.661085) )(layer F.SilkS) (width  0.010000)
  )
  (fp_poly (pts (xy 12.446000 -17.653000) (xy 12.403667 -17.610666) (xy 12.361334 -17.653000) (xy 12.403667 -17.695333) (xy 12.446000 -17.653000) )(layer F.SilkS) (width  0.010000)
  )
  (fp_poly (pts (xy -12.047452 -18.392846) (xy -12.033820 -18.172236) (xy -12.049160 -18.054179) (xy -12.072046 -18.034388) (xy -12.084888 -18.155974) (xy -12.085982 -18.245666) (xy -12.077646 -18.409631) (xy -12.058523 -18.434506)
     (xy -12.047452 -18.392846) )(layer F.SilkS) (width  0.010000)
  )
  (fp_poly (pts (xy 6.604000 -18.245666) (xy 6.561667 -18.203333) (xy 6.519334 -18.245666) (xy 6.561667 -18.288000) (xy 6.604000 -18.245666) )(layer F.SilkS) (width  0.010000)
  )
  (fp_poly (pts (xy -16.086666 -18.330333) (xy -16.129000 -18.288000) (xy -16.171333 -18.330333) (xy -16.129000 -18.372666) (xy -16.086666 -18.330333) )(layer F.SilkS) (width  0.010000)
  )
  (fp_poly (pts (xy -18.457333 -18.415000) (xy -18.499666 -18.372666) (xy -18.542000 -18.415000) (xy -18.499666 -18.457333) (xy -18.457333 -18.415000) )(layer F.SilkS) (width  0.010000)
  )
  (fp_poly (pts (xy -18.626666 -18.753666) (xy -18.669000 -18.711333) (xy -18.711333 -18.753666) (xy -18.669000 -18.796000) (xy -18.626666 -18.753666) )(layer F.SilkS) (width  0.010000)
  )
  (fp_poly (pts (xy -11.853333 -18.838333) (xy -11.895666 -18.796000) (xy -11.938000 -18.838333) (xy -11.895666 -18.880666) (xy -11.853333 -18.838333) )(layer F.SilkS) (width  0.010000)
  )
  (fp_poly (pts (xy 6.773334 -19.007666) (xy 6.731000 -18.965333) (xy 6.688667 -19.007666) (xy 6.731000 -19.050000) (xy 6.773334 -19.007666) )(layer F.SilkS) (width  0.010000)
  )
  (fp_poly (pts (xy -16.256000 -19.177000) (xy -16.298333 -19.134666) (xy -16.340666 -19.177000) (xy -16.298333 -19.219333) (xy -16.256000 -19.177000) )(layer F.SilkS) (width  0.010000)
  )
  (fp_poly (pts (xy 12.530667 -19.431000) (xy 12.488334 -19.388666) (xy 12.446000 -19.431000) (xy 12.488334 -19.473333) (xy 12.530667 -19.431000) )(layer F.SilkS) (width  0.010000)
  )
  (fp_poly (pts (xy 6.942667 -19.854333) (xy 6.900334 -19.812000) (xy 6.858000 -19.854333) (xy 6.900334 -19.896666) (xy 6.942667 -19.854333) )(layer F.SilkS) (width  0.010000)
  )
  (fp_poly (pts (xy -16.453555 -20.037778) (xy -16.443422 -19.937298) (xy -16.453555 -19.924889) (xy -16.503890 -19.936511) (xy -16.510000 -19.981333) (xy -16.479022 -20.051023) (xy -16.453555 -20.037778) )(layer F.SilkS) (width  0.010000)
  )
  (fp_poly (pts (xy 12.671778 -20.207111) (xy 12.681911 -20.106631) (xy 12.671778 -20.094222) (xy 12.621444 -20.105844) (xy 12.615334 -20.150666) (xy 12.646312 -20.220357) (xy 12.671778 -20.207111) )(layer F.SilkS) (width  0.010000)
  )
  (fp_poly (pts (xy -18.822830 -20.420541) (xy -18.812736 -20.288218) (xy -18.829514 -20.258264) (xy -18.867996 -20.283515) (xy -18.873982 -20.369389) (xy -18.853305 -20.459731) (xy -18.822830 -20.420541) )(layer F.SilkS) (width  0.010000)
  )
  (fp_poly (pts (xy -11.768666 -20.277666) (xy -11.811000 -20.235333) (xy -11.853333 -20.277666) (xy -11.811000 -20.320000) (xy -11.768666 -20.277666) )(layer F.SilkS) (width  0.010000)
  )
  (fp_poly (pts (xy 7.014252 -20.624418) (xy 7.104432 -20.545713) (xy 7.112000 -20.526670) (xy 7.071819 -20.491871) (xy 6.988164 -20.569846) (xy 6.976915 -20.587082) (xy 6.966936 -20.645019) (xy 7.014252 -20.624418) )(layer F.SilkS) (width  0.010000)
  )
  (fp_poly (pts (xy 7.112000 -20.955000) (xy 7.069667 -20.912666) (xy 7.027334 -20.955000) (xy 7.069667 -20.997333) (xy 7.112000 -20.955000) )(layer F.SilkS) (width  0.010000)
  )
  (fp_poly (pts (xy 7.281334 -21.124333) (xy 7.239000 -21.082000) (xy 7.196667 -21.124333) (xy 7.239000 -21.166666) (xy 7.281334 -21.124333) )(layer F.SilkS) (width  0.010000)
  )
  (fp_poly (pts (xy -16.764000 -21.209000) (xy -16.806333 -21.166666) (xy -16.848666 -21.209000) (xy -16.806333 -21.251333) (xy -16.764000 -21.209000) )(layer F.SilkS) (width  0.010000)
  )
  (fp_poly (pts (xy -12.050889 -21.392444) (xy -12.040756 -21.291965) (xy -12.050889 -21.279555) (xy -12.101223 -21.291178) (xy -12.107333 -21.336000) (xy -12.076355 -21.405690) (xy -12.050889 -21.392444) )(layer F.SilkS) (width  0.010000)
  )
  (fp_poly (pts (xy 12.841111 -21.561778) (xy 12.851244 -21.461298) (xy 12.841111 -21.448889) (xy 12.790777 -21.460511) (xy 12.784667 -21.505333) (xy 12.815645 -21.575023) (xy 12.841111 -21.561778) )(layer F.SilkS) (width  0.010000)
  )
  (fp_poly (pts (xy 10.837334 -21.632333) (xy 10.795000 -21.590000) (xy 10.752667 -21.632333) (xy 10.795000 -21.674666) (xy 10.837334 -21.632333) )(layer F.SilkS) (width  0.010000)
  )
  (fp_poly (pts (xy -16.792222 -22.069778) (xy -16.782089 -21.969298) (xy -16.792222 -21.956889) (xy -16.842556 -21.968511) (xy -16.848666 -22.013333) (xy -16.817688 -22.083023) (xy -16.792222 -22.069778) )(layer F.SilkS) (width  0.010000)
  )
  (fp_poly (pts (xy 7.281334 -22.817666) (xy 7.239000 -22.775333) (xy 7.196667 -22.817666) (xy 7.239000 -22.860000) (xy 7.281334 -22.817666) )(layer F.SilkS) (width  0.010000)
  )
  (fp_poly (pts (xy 13.208000 -22.817666) (xy 13.165667 -22.775333) (xy 13.123334 -22.817666) (xy 13.165667 -22.860000) (xy 13.208000 -22.817666) )(layer F.SilkS) (width  0.010000)
  )
  (fp_poly (pts (xy -18.992163 -23.214541) (xy -18.982069 -23.082218) (xy -18.998847 -23.052264) (xy -19.037329 -23.077515) (xy -19.043316 -23.163389) (xy -19.022638 -23.253731) (xy -18.992163 -23.214541) )(layer F.SilkS) (width  0.010000)
  )
  (fp_poly (pts (xy 6.942667 -23.918333) (xy 6.900334 -23.876000) (xy 6.858000 -23.918333) (xy 6.900334 -23.960666) (xy 6.942667 -23.918333) )(layer F.SilkS) (width  0.010000)
  )
  (fp_poly (pts (xy -11.853333 -24.087666) (xy -11.895666 -24.045333) (xy -11.938000 -24.087666) (xy -11.895666 -24.130000) (xy -11.853333 -24.087666) )(layer F.SilkS) (width  0.010000)
  )
  (fp_poly (pts (xy 11.684000 -24.172333) (xy 11.641667 -24.130000) (xy 11.599334 -24.172333) (xy 11.641667 -24.214666) (xy 11.684000 -24.172333) )(layer F.SilkS) (width  0.010000)
  )
  (fp_poly (pts (xy -16.861748 -24.603751) (xy -16.770855 -24.518501) (xy -16.789500 -24.469491) (xy -16.801336 -24.468666) (xy -16.872949 -24.528803) (xy -16.899085 -24.566415) (xy -16.909064 -24.624352) (xy -16.861748 -24.603751) )(layer F.SilkS) (width  0.010000)
  )
  (fp_poly (pts (xy -16.594666 -25.019000) (xy -16.637000 -24.976666) (xy -16.679333 -25.019000) (xy -16.637000 -25.061333) (xy -16.594666 -25.019000) )(layer F.SilkS) (width  0.010000)
  )
  (fp_poly (pts (xy 6.434667 -25.103666) (xy 6.392334 -25.061333) (xy 6.350000 -25.103666) (xy 6.392334 -25.146000) (xy 6.434667 -25.103666) )(layer F.SilkS) (width  0.010000)
  )
  (fp_poly (pts (xy -16.594666 -25.357666) (xy -16.637000 -25.315333) (xy -16.679333 -25.357666) (xy -16.637000 -25.400000) (xy -16.594666 -25.357666) )(layer F.SilkS) (width  0.010000)
  )
  (fp_poly (pts (xy 10.837334 -25.357666) (xy 10.795000 -25.315333) (xy 10.752667 -25.357666) (xy 10.795000 -25.400000) (xy 10.837334 -25.357666) )(layer F.SilkS) (width  0.010000)
  )
  (fp_poly (pts (xy 13.038667 -25.442333) (xy 12.996334 -25.400000) (xy 12.954000 -25.442333) (xy 12.996334 -25.484666) (xy 13.038667 -25.442333) )(layer F.SilkS) (width  0.010000)
  )
  (fp_poly (pts (xy -16.425333 -25.527000) (xy -16.467666 -25.484666) (xy -16.510000 -25.527000) (xy -16.467666 -25.569333) (xy -16.425333 -25.527000) )(layer F.SilkS) (width  0.010000)
  )
  (fp_poly (pts (xy 12.361334 -25.696333) (xy 12.319000 -25.654000) (xy 12.276667 -25.696333) (xy 12.319000 -25.738666) (xy 12.361334 -25.696333) )(layer F.SilkS) (width  0.010000)
  )
  (fp_poly (pts (xy 11.176000 -25.950333) (xy 11.133667 -25.908000) (xy 11.091334 -25.950333) (xy 11.133667 -25.992666) (xy 11.176000 -25.950333) )(layer F.SilkS) (width  0.010000)
  )
  (fp_poly (pts (xy 13.208000 -26.035000) (xy 13.165667 -25.992666) (xy 13.123334 -26.035000) (xy 13.165667 -26.077333) (xy 13.208000 -26.035000) )(layer F.SilkS) (width  0.010000)
  )
  (fp_poly (pts (xy -17.610666 -26.543000) (xy -17.653000 -26.500666) (xy -17.695333 -26.543000) (xy -17.653000 -26.585333) (xy -17.610666 -26.543000) )(layer F.SilkS) (width  0.010000)
  )
  (fp_poly (pts (xy 5.757334 -26.543000) (xy 5.715000 -26.500666) (xy 5.672667 -26.543000) (xy 5.715000 -26.585333) (xy 5.757334 -26.543000) )(layer F.SilkS) (width  0.010000)
  )
  (fp_poly (pts (xy -16.510000 -26.797000) (xy -16.552333 -26.754666) (xy -16.594666 -26.797000) (xy -16.552333 -26.839333) (xy -16.510000 -26.797000) )(layer F.SilkS) (width  0.010000)
  )
  (fp_poly (pts (xy 13.716000 -26.966333) (xy 13.673667 -26.924000) (xy 13.631334 -26.966333) (xy 13.673667 -27.008666) (xy 13.716000 -26.966333) )(layer F.SilkS) (width  0.010000)
  )
  (fp_poly (pts (xy -10.498666 -27.135666) (xy -10.541000 -27.093333) (xy -10.583333 -27.135666) (xy -10.541000 -27.178000) (xy -10.498666 -27.135666) )(layer F.SilkS) (width  0.010000)
  )
  (fp_poly (pts (xy 5.418667 -27.305000) (xy 5.376334 -27.262666) (xy 5.334000 -27.305000) (xy 5.376334 -27.347333) (xy 5.418667 -27.305000) )(layer F.SilkS) (width  0.010000)
  )
  (fp_poly (pts (xy -18.118666 -27.559000) (xy -18.161000 -27.516666) (xy -18.203333 -27.559000) (xy -18.161000 -27.601333) (xy -18.118666 -27.559000) )(layer F.SilkS) (width  0.010000)
  )
  (fp_poly (pts (xy 5.249334 -27.643666) (xy 5.207000 -27.601333) (xy 5.164667 -27.643666) (xy 5.207000 -27.686000) (xy 5.249334 -27.643666) )(layer F.SilkS) (width  0.010000)
  )
  (fp_poly (pts (xy -10.075333 -27.897666) (xy -10.117666 -27.855333) (xy -10.160000 -27.897666) (xy -10.117666 -27.940000) (xy -10.075333 -27.897666) )(layer F.SilkS) (width  0.010000)
  )
  (fp_poly (pts (xy 15.240000 -29.337000) (xy 15.197667 -29.294666) (xy 15.155334 -29.337000) (xy 15.197667 -29.379333) (xy 15.240000 -29.337000) )(layer F.SilkS) (width  0.010000)
  )
  (fp_poly (pts (xy 15.494000 -29.675666) (xy 15.451667 -29.633333) (xy 15.409334 -29.675666) (xy 15.451667 -29.718000) (xy 15.494000 -29.675666) )(layer F.SilkS) (width  0.010000)
  )
  (fp_poly (pts (xy 3.894667 -29.760333) (xy 3.852334 -29.718000) (xy 3.810000 -29.760333) (xy 3.852334 -29.802666) (xy 3.894667 -29.760333) )(layer F.SilkS) (width  0.010000)
  )
  (fp_poly (pts (xy 15.663334 -30.099000) (xy 15.621000 -30.056666) (xy 15.578667 -30.099000) (xy 15.621000 -30.141333) (xy 15.663334 -30.099000) )(layer F.SilkS) (width  0.010000)
  )
  (fp_poly (pts (xy 3.302000 -30.522333) (xy 3.259667 -30.480000) (xy 3.217334 -30.522333) (xy 3.259667 -30.564666) (xy 3.302000 -30.522333) )(layer F.SilkS) (width  0.010000)
  )
  (fp_poly (pts (xy 15.748000 -30.522333) (xy 15.705667 -30.480000) (xy 15.663334 -30.522333) (xy 15.705667 -30.564666) (xy 15.748000 -30.522333) )(layer F.SilkS) (width  0.010000)
  )
  (fp_poly (pts (xy -8.466666 -30.691666) (xy -8.509000 -30.649333) (xy -8.551333 -30.691666) (xy -8.509000 -30.734000) (xy -8.466666 -30.691666) )(layer F.SilkS) (width  0.010000)
  )
  (fp_poly (pts (xy 3.217334 -30.691666) (xy 3.175000 -30.649333) (xy 3.132667 -30.691666) (xy 3.175000 -30.734000) (xy 3.217334 -30.691666) )(layer F.SilkS) (width  0.010000)
  )
  (fp_poly (pts (xy 3.048000 -31.369000) (xy 3.005667 -31.326666) (xy 2.963334 -31.369000) (xy 3.005667 -31.411333) (xy 3.048000 -31.369000) )(layer F.SilkS) (width  0.010000)
  )
  (fp_poly (pts (xy -11.514666 -31.623000) (xy -11.557000 -31.580666) (xy -11.599333 -31.623000) (xy -11.557000 -31.665333) (xy -11.514666 -31.623000) )(layer F.SilkS) (width  0.010000)
  )
  (fp_poly (pts (xy -13.292666 -31.707666) (xy -13.335000 -31.665333) (xy -13.377333 -31.707666) (xy -13.335000 -31.750000) (xy -13.292666 -31.707666) )(layer F.SilkS) (width  0.010000)
  )
  (fp_poly (pts (xy -16.961555 -31.806444) (xy -16.973178 -31.756110) (xy -17.018000 -31.750000) (xy -17.087690 -31.780978) (xy -17.074444 -31.806444) (xy -16.973965 -31.816577) (xy -16.961555 -31.806444) )(layer F.SilkS) (width  0.010000)
  )
  (fp_poly (pts (xy -17.780000 -31.961666) (xy -17.822333 -31.919333) (xy -17.864666 -31.961666) (xy -17.822333 -32.004000) (xy -17.780000 -31.961666) )(layer F.SilkS) (width  0.010000)
  )
  (fp_poly (pts (xy -18.457333 -32.046333) (xy -18.499666 -32.004000) (xy -18.542000 -32.046333) (xy -18.499666 -32.088666) (xy -18.457333 -32.046333) )(layer F.SilkS) (width  0.010000)
  )
  (fp_poly (pts (xy -6.955748 -32.393085) (xy -6.865568 -32.314380) (xy -6.858000 -32.295336) (xy -6.898181 -32.260537) (xy -6.981836 -32.338513) (xy -6.993085 -32.355748) (xy -7.003064 -32.413685) (xy -6.955748 -32.393085) )(layer F.SilkS) (width  0.010000)
  )
  (fp_poly (pts (xy 6.858000 -32.639000) (xy 6.815667 -32.596666) (xy 6.773334 -32.639000) (xy 6.815667 -32.681333) (xy 6.858000 -32.639000) )(layer F.SilkS) (width  0.010000)
  )
  (fp_poly (pts (xy 8.297334 -32.723666) (xy 8.255000 -32.681333) (xy 8.212667 -32.723666) (xy 8.255000 -32.766000) (xy 8.297334 -32.723666) )(layer F.SilkS) (width  0.010000)
  )
  (fp_poly (pts (xy -6.773333 -32.808333) (xy -6.815666 -32.766000) (xy -6.858000 -32.808333) (xy -6.815666 -32.850666) (xy -6.773333 -32.808333) )(layer F.SilkS) (width  0.010000)
  )
  (fp_poly (pts (xy 9.713736 -32.817153) (xy 9.688485 -32.778671) (xy 9.602611 -32.772684) (xy 9.512269 -32.793361) (xy 9.551459 -32.823837) (xy 9.683782 -32.833930) (xy 9.713736 -32.817153) )(layer F.SilkS) (width  0.010000)
  )
  (fp_poly (pts (xy -6.604000 -32.977666) (xy -6.646333 -32.935333) (xy -6.688666 -32.977666) (xy -6.646333 -33.020000) (xy -6.604000 -32.977666) )(layer F.SilkS) (width  0.010000)
  )
  (fp_poly (pts (xy -6.617082 -33.324418) (xy -6.526901 -33.245713) (xy -6.519333 -33.226670) (xy -6.559514 -33.191871) (xy -6.643170 -33.269846) (xy -6.654418 -33.287082) (xy -6.664397 -33.345019) (xy -6.617082 -33.324418) )(layer F.SilkS) (width  0.010000)
  )
  (fp_poly (pts (xy -26.416000 -33.316333) (xy -26.458333 -33.274000) (xy -26.500666 -33.316333) (xy -26.458333 -33.358666) (xy -26.416000 -33.316333) )(layer F.SilkS) (width  0.010000)
  )
  (fp_poly (pts (xy 2.540000 -33.316333) (xy 2.497667 -33.274000) (xy 2.455334 -33.316333) (xy 2.497667 -33.358666) (xy 2.540000 -33.316333) )(layer F.SilkS) (width  0.010000)
  )
  (fp_poly (pts (xy -11.514666 -33.401000) (xy -11.557000 -33.358666) (xy -11.599333 -33.401000) (xy -11.557000 -33.443333) (xy -11.514666 -33.401000) )(layer F.SilkS) (width  0.010000)
  )
  (fp_poly (pts (xy 0.931334 -33.401000) (xy 0.889000 -33.358666) (xy 0.846667 -33.401000) (xy 0.889000 -33.443333) (xy 0.931334 -33.401000) )(layer F.SilkS) (width  0.010000)
  )
  (fp_poly (pts (xy 2.370667 -33.401000) (xy 2.328334 -33.358666) (xy 2.286000 -33.401000) (xy 2.328334 -33.443333) (xy 2.370667 -33.401000) )(layer F.SilkS) (width  0.010000)
  )
  (fp_poly (pts (xy 0.508000 -33.485666) (xy 0.465667 -33.443333) (xy 0.423334 -33.485666) (xy 0.465667 -33.528000) (xy 0.508000 -33.485666) )(layer F.SilkS) (width  0.010000)
  )
  (fp_poly (pts (xy -11.853333 -33.570333) (xy -11.895666 -33.528000) (xy -11.938000 -33.570333) (xy -11.895666 -33.612666) (xy -11.853333 -33.570333) )(layer F.SilkS) (width  0.010000)
  )
  (fp_poly (pts (xy -12.700000 -33.739666) (xy -12.742333 -33.697333) (xy -12.784666 -33.739666) (xy -12.742333 -33.782000) (xy -12.700000 -33.739666) )(layer F.SilkS) (width  0.010000)
  )
  (fp_poly (pts (xy -6.447748 -33.832418) (xy -6.356855 -33.747168) (xy -6.375500 -33.698157) (xy -6.387336 -33.697333) (xy -6.458949 -33.757470) (xy -6.485085 -33.795082) (xy -6.495064 -33.853019) (xy -6.447748 -33.832418) )(layer F.SilkS) (width  0.010000)
  )
  (fp_poly (pts (xy 14.732000 -33.993666) (xy 14.689667 -33.951333) (xy 14.647334 -33.993666) (xy 14.689667 -34.036000) (xy 14.732000 -33.993666) )(layer F.SilkS) (width  0.010000)
  )
  (fp_poly (pts (xy -21.674666 -34.078333) (xy -21.717000 -34.036000) (xy -21.759333 -34.078333) (xy -21.717000 -34.120666) (xy -21.674666 -34.078333) )(layer F.SilkS) (width  0.010000)
  )
  (fp_poly (pts (xy -16.933333 -34.078333) (xy -16.975666 -34.036000) (xy -17.018000 -34.078333) (xy -16.975666 -34.120666) (xy -16.933333 -34.078333) )(layer F.SilkS) (width  0.010000)
  )
  (fp_poly (pts (xy -15.324666 -34.078333) (xy -15.367000 -34.036000) (xy -15.409333 -34.078333) (xy -15.367000 -34.120666) (xy -15.324666 -34.078333) )(layer F.SilkS) (width  0.010000)
  )
  (fp_poly (pts (xy 0.508000 -34.078333) (xy 0.465667 -34.036000) (xy 0.423334 -34.078333) (xy 0.465667 -34.120666) (xy 0.508000 -34.078333) )(layer F.SilkS) (width  0.010000)
  )
  (fp_poly (pts (xy -16.086666 -34.163000) (xy -16.129000 -34.120666) (xy -16.171333 -34.163000) (xy -16.129000 -34.205333) (xy -16.086666 -34.163000) )(layer F.SilkS) (width  0.010000)
  )
  (fp_poly (pts (xy -6.265333 -34.247666) (xy -6.307666 -34.205333) (xy -6.350000 -34.247666) (xy -6.307666 -34.290000) (xy -6.265333 -34.247666) )(layer F.SilkS) (width  0.010000)
  )
  (fp_poly (pts (xy 6.180667 -34.247666) (xy 6.138334 -34.205333) (xy 6.096000 -34.247666) (xy 6.138334 -34.290000) (xy 6.180667 -34.247666) )(layer F.SilkS) (width  0.010000)
  )
  (fp_poly (pts (xy -27.093333 -34.332333) (xy -27.135666 -34.290000) (xy -27.178000 -34.332333) (xy -27.135666 -34.374666) (xy -27.093333 -34.332333) )(layer F.SilkS) (width  0.010000)
  )
  (fp_poly (pts (xy -21.674666 -34.417000) (xy -21.717000 -34.374666) (xy -21.759333 -34.417000) (xy -21.717000 -34.459333) (xy -21.674666 -34.417000) )(layer F.SilkS) (width  0.010000)
  )
  (fp_poly (pts (xy 18.711334 -34.586333) (xy 18.669000 -34.544000) (xy 18.626667 -34.586333) (xy 18.669000 -34.628666) (xy 18.711334 -34.586333) )(layer F.SilkS) (width  0.010000)
  )
  (fp_poly (pts (xy 19.219334 -34.586333) (xy 19.177000 -34.544000) (xy 19.134667 -34.586333) (xy 19.177000 -34.628666) (xy 19.219334 -34.586333) )(layer F.SilkS) (width  0.010000)
  )
  (fp_poly (pts (xy 9.398000 -34.671000) (xy 9.355667 -34.628666) (xy 9.313334 -34.671000) (xy 9.355667 -34.713333) (xy 9.398000 -34.671000) )(layer F.SilkS) (width  0.010000)
  )
  (fp_poly (pts (xy 9.821334 -34.755666) (xy 9.779000 -34.713333) (xy 9.736667 -34.755666) (xy 9.779000 -34.798000) (xy 9.821334 -34.755666) )(layer F.SilkS) (width  0.010000)
  )
  (fp_poly (pts (xy 18.965334 -34.755666) (xy 18.923000 -34.713333) (xy 18.880667 -34.755666) (xy 18.923000 -34.798000) (xy 18.965334 -34.755666) )(layer F.SilkS) (width  0.010000)
  )
  (fp_poly (pts (xy -21.844000 -34.840333) (xy -21.886333 -34.798000) (xy -21.928666 -34.840333) (xy -21.886333 -34.882666) (xy -21.844000 -34.840333) )(layer F.SilkS) (width  0.010000)
  )
  (fp_poly (pts (xy 11.599334 -35.094333) (xy 11.557000 -35.052000) (xy 11.514667 -35.094333) (xy 11.557000 -35.136666) (xy 11.599334 -35.094333) )(layer F.SilkS) (width  0.010000)
  )
  (fp_poly (pts (xy -19.812000 -35.263666) (xy -19.854333 -35.221333) (xy -19.896666 -35.263666) (xy -19.854333 -35.306000) (xy -19.812000 -35.263666) )(layer F.SilkS) (width  0.010000)
  )
  (fp_poly (pts (xy 12.467167 -35.277406) (xy 12.477803 -35.246504) (xy 12.361334 -35.234702) (xy 12.241138 -35.248007) (xy 12.255500 -35.277406) (xy 12.428842 -35.288589) (xy 12.467167 -35.277406) )(layer F.SilkS) (width  0.010000)
  )
  (fp_poly (pts (xy 13.010445 -35.277778) (xy 12.998822 -35.227443) (xy 12.954000 -35.221333) (xy 12.884310 -35.252311) (xy 12.897556 -35.277778) (xy 12.998035 -35.287911) (xy 13.010445 -35.277778) )(layer F.SilkS) (width  0.010000)
  )
  (fp_poly (pts (xy 14.901334 -35.263666) (xy 14.859000 -35.221333) (xy 14.816667 -35.263666) (xy 14.859000 -35.306000) (xy 14.901334 -35.263666) )(layer F.SilkS) (width  0.010000)
  )
  (fp_poly (pts (xy 20.574000 -35.348333) (xy 20.531667 -35.306000) (xy 20.489334 -35.348333) (xy 20.531667 -35.390666) (xy 20.574000 -35.348333) )(layer F.SilkS) (width  0.010000)
  )
  (fp_poly (pts (xy 19.896667 -35.602333) (xy 19.854334 -35.560000) (xy 19.812000 -35.602333) (xy 19.854334 -35.644666) (xy 19.896667 -35.602333) )(layer F.SilkS) (width  0.010000)
  )
  (fp_poly (pts (xy 13.377334 -35.687000) (xy 13.335000 -35.644666) (xy 13.292667 -35.687000) (xy 13.335000 -35.729333) (xy 13.377334 -35.687000) )(layer F.SilkS) (width  0.010000)
  )
  (fp_poly (pts (xy -22.013333 -36.110333) (xy -22.055666 -36.068000) (xy -22.098000 -36.110333) (xy -22.055666 -36.152666) (xy -22.013333 -36.110333) )(layer F.SilkS) (width  0.010000)
  )
  (fp_poly (pts (xy -19.981333 -36.195000) (xy -20.023666 -36.152666) (xy -20.066000 -36.195000) (xy -20.023666 -36.237333) (xy -19.981333 -36.195000) )(layer F.SilkS) (width  0.010000)
  )
  (fp_poly (pts (xy 13.631334 -36.533666) (xy 13.589000 -36.491333) (xy 13.546667 -36.533666) (xy 13.589000 -36.576000) (xy 13.631334 -36.533666) )(layer F.SilkS) (width  0.010000)
  )
  (fp_poly (pts (xy 14.986000 -36.533666) (xy 14.943667 -36.491333) (xy 14.901334 -36.533666) (xy 14.943667 -36.576000) (xy 14.986000 -36.533666) )(layer F.SilkS) (width  0.010000)
  )
  (fp_poly (pts (xy 13.546667 -36.703000) (xy 13.504334 -36.660666) (xy 13.462000 -36.703000) (xy 13.504334 -36.745333) (xy 13.546667 -36.703000) )(layer F.SilkS) (width  0.010000)
  )
  (fp_poly (pts (xy -20.235333 -36.787666) (xy -20.277666 -36.745333) (xy -20.320000 -36.787666) (xy -20.277666 -36.830000) (xy -20.235333 -36.787666) )(layer F.SilkS) (width  0.010000)
  )
  (fp_poly (pts (xy -22.182666 -36.957000) (xy -22.225000 -36.914666) (xy -22.267333 -36.957000) (xy -22.225000 -36.999333) (xy -22.182666 -36.957000) )(layer F.SilkS) (width  0.010000)
  )
  (fp_poly (pts (xy 15.240000 -37.211000) (xy 15.197667 -37.168666) (xy 15.155334 -37.211000) (xy 15.197667 -37.253333) (xy 15.240000 -37.211000) )(layer F.SilkS) (width  0.010000)
  )
  (fp_poly (pts (xy -20.404666 -37.295666) (xy -20.447000 -37.253333) (xy -20.489333 -37.295666) (xy -20.447000 -37.338000) (xy -20.404666 -37.295666) )(layer F.SilkS) (width  0.010000)
  )
  (fp_poly (pts (xy 15.155334 -37.380333) (xy 15.113000 -37.338000) (xy 15.070667 -37.380333) (xy 15.113000 -37.422666) (xy 15.155334 -37.380333) )(layer F.SilkS) (width  0.010000)
  )
  (fp_poly (pts (xy 13.800667 -37.549666) (xy 13.758334 -37.507333) (xy 13.716000 -37.549666) (xy 13.758334 -37.592000) (xy 13.800667 -37.549666) )(layer F.SilkS) (width  0.010000)
  )
  (fp_poly (pts (xy -22.352000 -37.719000) (xy -22.394333 -37.676666) (xy -22.436666 -37.719000) (xy -22.394333 -37.761333) (xy -22.352000 -37.719000) )(layer F.SilkS) (width  0.010000)
  )
  (fp_poly (pts (xy -20.574000 -37.803666) (xy -20.616333 -37.761333) (xy -20.658666 -37.803666) (xy -20.616333 -37.846000) (xy -20.574000 -37.803666) )(layer F.SilkS) (width  0.010000)
  )
  (fp_poly (pts (xy -22.267333 -37.888333) (xy -22.309666 -37.846000) (xy -22.352000 -37.888333) (xy -22.309666 -37.930666) (xy -22.267333 -37.888333) )(layer F.SilkS) (width  0.010000)
  )
  (fp_poly (pts (xy 13.885334 -38.565666) (xy 13.843000 -38.523333) (xy 13.800667 -38.565666) (xy 13.843000 -38.608000) (xy 13.885334 -38.565666) )(layer F.SilkS) (width  0.010000)
  )
  (fp_poly (pts (xy -20.854563 -38.807310) (xy -20.870333 -38.777333) (xy -20.950107 -38.696476) (xy -20.964993 -38.692666) (xy -20.970770 -38.747357) (xy -20.955000 -38.777333) (xy -20.875226 -38.858190) (xy -20.860340 -38.862000)
     (xy -20.854563 -38.807310) )(layer F.SilkS) (width  0.010000)
  )
  (fp_poly (pts (xy 15.578667 -38.735000) (xy 15.536334 -38.692666) (xy 15.494000 -38.735000) (xy 15.536334 -38.777333) (xy 15.578667 -38.735000) )(layer F.SilkS) (width  0.010000)
  )
  (fp_poly (pts (xy -20.997333 -39.243000) (xy -21.039666 -39.200666) (xy -21.082000 -39.243000) (xy -21.039666 -39.285333) (xy -20.997333 -39.243000) )(layer F.SilkS) (width  0.010000)
  )
  (fp_poly (pts (xy 14.054667 -39.412333) (xy 14.012334 -39.370000) (xy 13.970000 -39.412333) (xy 14.012334 -39.454666) (xy 14.054667 -39.412333) )(layer F.SilkS) (width  0.010000)
  )
  (fp_poly (pts (xy 15.748000 -39.412333) (xy 15.705667 -39.370000) (xy 15.663334 -39.412333) (xy 15.705667 -39.454666) (xy 15.748000 -39.412333) )(layer F.SilkS) (width  0.010000)
  )
  (fp_poly (pts (xy -21.166666 -39.751000) (xy -21.209000 -39.708666) (xy -21.251333 -39.751000) (xy -21.209000 -39.793333) (xy -21.166666 -39.751000) )(layer F.SilkS) (width  0.010000)
  )
  (fp_poly (pts (xy 14.224000 -40.174333) (xy 14.181667 -40.132000) (xy 14.139334 -40.174333) (xy 14.181667 -40.216666) (xy 14.224000 -40.174333) )(layer F.SilkS) (width  0.010000)
  )
  (fp_poly (pts (xy -21.336000 -40.259000) (xy -21.378333 -40.216666) (xy -21.420666 -40.259000) (xy -21.378333 -40.301333) (xy -21.336000 -40.259000) )(layer F.SilkS) (width  0.010000)
  )
  (fp_poly (pts (xy 16.086667 -40.597666) (xy 16.044334 -40.555333) (xy 16.002000 -40.597666) (xy 16.044334 -40.640000) (xy 16.086667 -40.597666) )(layer F.SilkS) (width  0.010000)
  )
  (fp_poly (pts (xy -21.505333 -40.767000) (xy -21.547666 -40.724666) (xy -21.590000 -40.767000) (xy -21.547666 -40.809333) (xy -21.505333 -40.767000) )(layer F.SilkS) (width  0.010000)
  )
  (fp_poly (pts (xy 14.393334 -40.851666) (xy 14.351000 -40.809333) (xy 14.308667 -40.851666) (xy 14.351000 -40.894000) (xy 14.393334 -40.851666) )(layer F.SilkS) (width  0.010000)
  )
  (fp_poly (pts (xy -23.368000 -40.936333) (xy -23.410333 -40.894000) (xy -23.452666 -40.936333) (xy -23.410333 -40.978666) (xy -23.368000 -40.936333) )(layer F.SilkS) (width  0.010000)
  )
  (fp_poly (pts (xy 16.086667 -41.021000) (xy 16.044334 -40.978666) (xy 16.002000 -41.021000) (xy 16.044334 -41.063333) (xy 16.086667 -41.021000) )(layer F.SilkS) (width  0.010000)
  )
  (fp_poly (pts (xy 16.158252 -41.283085) (xy 16.248432 -41.204380) (xy 16.256000 -41.185336) (xy 16.215819 -41.150537) (xy 16.132164 -41.228513) (xy 16.120915 -41.245748) (xy 16.110936 -41.303685) (xy 16.158252 -41.283085) )(layer F.SilkS) (width  0.010000)
  )
  (fp_poly (pts (xy -21.674666 -41.275000) (xy -21.717000 -41.232666) (xy -21.759333 -41.275000) (xy -21.717000 -41.317333) (xy -21.674666 -41.275000) )(layer F.SilkS) (width  0.010000)
  )
  (fp_poly (pts (xy 14.562667 -41.444333) (xy 14.520334 -41.402000) (xy 14.478000 -41.444333) (xy 14.520334 -41.486666) (xy 14.562667 -41.444333) )(layer F.SilkS) (width  0.010000)
  )
  (fp_poly (pts (xy -23.706666 -41.783000) (xy -23.749000 -41.740666) (xy -23.791333 -41.783000) (xy -23.749000 -41.825333) (xy -23.706666 -41.783000) )(layer F.SilkS) (width  0.010000)
  )
  (fp_poly (pts (xy -21.844000 -41.783000) (xy -21.886333 -41.740666) (xy -21.928666 -41.783000) (xy -21.886333 -41.825333) (xy -21.844000 -41.783000) )(layer F.SilkS) (width  0.010000)
  )
  (fp_poly (pts (xy 14.732000 -42.037000) (xy 14.689667 -41.994666) (xy 14.647334 -42.037000) (xy 14.689667 -42.079333) (xy 14.732000 -42.037000) )(layer F.SilkS) (width  0.010000)
  )
  (fp_poly (pts (xy 14.901334 -42.206333) (xy 14.859000 -42.164000) (xy 14.816667 -42.206333) (xy 14.859000 -42.248666) (xy 14.901334 -42.206333) )(layer F.SilkS) (width  0.010000)
  )
  (fp_poly (pts (xy 16.594667 -42.206333) (xy 16.552334 -42.164000) (xy 16.510000 -42.206333) (xy 16.552334 -42.248666) (xy 16.594667 -42.206333) )(layer F.SilkS) (width  0.010000)
  )
  (fp_poly (pts (xy -22.013333 -42.291000) (xy -22.055666 -42.248666) (xy -22.098000 -42.291000) (xy -22.055666 -42.333333) (xy -22.013333 -42.291000) )(layer F.SilkS) (width  0.010000)
  )
  (fp_poly (pts (xy 15.070667 -42.714333) (xy 15.028334 -42.672000) (xy 14.986000 -42.714333) (xy 15.028334 -42.756666) (xy 15.070667 -42.714333) )(layer F.SilkS) (width  0.010000)
  )
  (fp_poly (pts (xy 16.764000 -42.714333) (xy 16.721667 -42.672000) (xy 16.679334 -42.714333) (xy 16.721667 -42.756666) (xy 16.764000 -42.714333) )(layer F.SilkS) (width  0.010000)
  )
  (fp_poly (pts (xy -22.182666 -42.799000) (xy -22.225000 -42.756666) (xy -22.267333 -42.799000) (xy -22.225000 -42.841333) (xy -22.182666 -42.799000) )(layer F.SilkS) (width  0.010000)
  )
  (fp_poly (pts (xy 16.933334 -43.137666) (xy 16.891000 -43.095333) (xy 16.848667 -43.137666) (xy 16.891000 -43.180000) (xy 16.933334 -43.137666) )(layer F.SilkS) (width  0.010000)
  )
  (fp_poly (pts (xy -22.352000 -43.307000) (xy -22.394333 -43.264666) (xy -22.436666 -43.307000) (xy -22.394333 -43.349333) (xy -22.352000 -43.307000) )(layer F.SilkS) (width  0.010000)
  )
  (fp_poly (pts (xy 15.240000 -43.476333) (xy 15.197667 -43.434000) (xy 15.155334 -43.476333) (xy 15.197667 -43.518666) (xy 15.240000 -43.476333) )(layer F.SilkS) (width  0.010000)
  )
  (fp_poly (pts (xy -22.521333 -43.815000) (xy -22.563666 -43.772666) (xy -22.606000 -43.815000) (xy -22.563666 -43.857333) (xy -22.521333 -43.815000) )(layer F.SilkS) (width  0.010000)
  )
  (fp_poly (pts (xy 15.409334 -43.899666) (xy 15.367000 -43.857333) (xy 15.324667 -43.899666) (xy 15.367000 -43.942000) (xy 15.409334 -43.899666) )(layer F.SilkS) (width  0.010000)
  )
  (fp_poly (pts (xy -22.690666 -44.323000) (xy -22.733000 -44.280666) (xy -22.775333 -44.323000) (xy -22.733000 -44.365333) (xy -22.690666 -44.323000) )(layer F.SilkS) (width  0.010000)
  )
  (fp_poly (pts (xy -22.860000 -44.831000) (xy -22.902333 -44.788666) (xy -22.944666 -44.831000) (xy -22.902333 -44.873333) (xy -22.860000 -44.831000) )(layer F.SilkS) (width  0.010000)
  )
  (fp_poly (pts (xy -25.315333 -45.423666) (xy -25.357666 -45.381333) (xy -25.400000 -45.423666) (xy -25.357666 -45.466000) (xy -25.315333 -45.423666) )(layer F.SilkS) (width  0.010000)
  )
  (fp_poly (pts (xy 16.227778 -45.945778) (xy 16.237911 -45.845298) (xy 16.227778 -45.832889) (xy 16.177444 -45.844511) (xy 16.171334 -45.889333) (xy 16.202312 -45.959023) (xy 16.227778 -45.945778) )(layer F.SilkS) (width  0.010000)
  )
  (fp_poly (pts (xy -23.368000 -46.270333) (xy -23.410333 -46.228000) (xy -23.452666 -46.270333) (xy -23.410333 -46.312666) (xy -23.368000 -46.270333) )(layer F.SilkS) (width  0.010000)
  )
  (fp_poly (pts (xy 18.288000 -46.355000) (xy 18.245667 -46.312666) (xy 18.203334 -46.355000) (xy 18.245667 -46.397333) (xy 18.288000 -46.355000) )(layer F.SilkS) (width  0.010000)
  )
  (fp_poly (pts (xy -23.537333 -46.693666) (xy -23.579666 -46.651333) (xy -23.622000 -46.693666) (xy -23.579666 -46.736000) (xy -23.537333 -46.693666) )(layer F.SilkS) (width  0.010000)
  )
  (fp_poly (pts (xy 16.412252 -46.871085) (xy 16.503145 -46.785834) (xy 16.484500 -46.736824) (xy 16.472664 -46.736000) (xy 16.401051 -46.796137) (xy 16.374915 -46.833748) (xy 16.364936 -46.891685) (xy 16.412252 -46.871085) )(layer F.SilkS) (width  0.010000)
  )
  (fp_poly (pts (xy 16.594667 -47.540333) (xy 16.552334 -47.498000) (xy 16.510000 -47.540333) (xy 16.552334 -47.582666) (xy 16.594667 -47.540333) )(layer F.SilkS) (width  0.010000)
  )
  (fp_poly (pts (xy 18.965334 -47.709666) (xy 18.923000 -47.667333) (xy 18.880667 -47.709666) (xy 18.923000 -47.752000) (xy 18.965334 -47.709666) )(layer F.SilkS) (width  0.010000)
  )
  (fp_poly (pts (xy -24.045333 -47.963666) (xy -24.087666 -47.921333) (xy -24.130000 -47.963666) (xy -24.087666 -48.006000) (xy -24.045333 -47.963666) )(layer F.SilkS) (width  0.010000)
  )
  (fp_poly (pts (xy -27.855333 -51.011666) (xy -27.897666 -50.969333) (xy -27.940000 -51.011666) (xy -27.897666 -51.054000) (xy -27.855333 -51.011666) )(layer F.SilkS) (width  0.010000)
  )
  (fp_poly (pts (xy 18.288000 -51.011666) (xy 18.245667 -50.969333) (xy 18.203334 -51.011666) (xy 18.245667 -51.054000) (xy 18.288000 -51.011666) )(layer F.SilkS) (width  0.010000)
  )
  (fp_poly (pts (xy 21.336000 -51.858333) (xy 21.293667 -51.816000) (xy 21.251334 -51.858333) (xy 21.293667 -51.900666) (xy 21.336000 -51.858333) )(layer F.SilkS) (width  0.010000)
  )
  (fp_poly (pts (xy 21.420667 -52.027666) (xy 21.378334 -51.985333) (xy 21.336000 -52.027666) (xy 21.378334 -52.070000) (xy 21.420667 -52.027666) )(layer F.SilkS) (width  0.010000)
  )
  (fp_poly (pts (xy 21.674667 -52.620333) (xy 21.632334 -52.578000) (xy 21.590000 -52.620333) (xy 21.632334 -52.662666) (xy 21.674667 -52.620333) )(layer F.SilkS) (width  0.010000)
  )
  (fp_poly (pts (xy 20.235334 -53.975000) (xy 20.193000 -53.932666) (xy 20.150667 -53.975000) (xy 20.193000 -54.017333) (xy 20.235334 -53.975000) )(layer F.SilkS) (width  0.010000)
  )
)
