(module TO-277A (layer F.Cu) (tedit 5AB3735C)
  (fp_text reference REF** (at -11.7 12.4) (layer F.SilkS)
    (effects (font (size 1 1) (thickness 0.15)))
  )
  (fp_text value TO-277A (at -11.7 11.4) (layer F.Fab)
    (effects (font (size 1 1) (thickness 0.15)))
  )
  (fp_line (start -3.25 -3.5) (end 3.25 -3.5) (layer F.SilkS) (width 0.2))
  (fp_line (start 3.25 -3.5) (end 3.25 4.5) (layer F.SilkS) (width 0.2))
  (fp_line (start -3.25 -3.5) (end -3.25 4.5) (layer F.SilkS) (width 0.2))
  (fp_line (start -3.4 -3.7) (end 3.5 -3.7) (layer F.CrtYd) (width 0.05))
  (fp_line (start 3.5 -3.7) (end 3.5 5) (layer F.CrtYd) (width 0.05))
  (fp_line (start 3.5 5) (end -3.5 5) (layer F.CrtYd) (width 0.05))
  (fp_line (start -3.5 -3.7) (end -3.4 -3.7) (layer F.CrtYd) (width 0.1))
  (fp_line (start -3.5 5) (end -3.5 -3.7) (layer F.CrtYd) (width 0.05))
  (pad 1 smd rect (at 0 0) (size 4.8 4.72) (layers F.Cu F.Paste F.Mask))
  (pad 2 smd rect (at -1.04 3.805) (size 1.4 1.27) (layers F.Cu F.Paste F.Mask))
  (pad 2 smd rect (at 1.05 3.805) (size 1.4 1.27) (layers F.Cu F.Paste F.Mask))
)
